{
	"entities": [{
		"otherSectionsData": {},
		"contextData": {
			"campaignId": "5a166726322cfb00185e6da4",
			"companyId": "5a50ec07b8585a0018386a74",
			"orgSize": null,
			"companyName": "ABC",
			"ctryCode": "PL",
			"sectionId": "RandomSectionCode1",
			"grpCode": "710001",
			"cpyCode": "71000003",
			"uniqueIdColumnCode": "YOUR_EEID",
			"industry": {
				"superSector": "LS",
				"sector": "105",
				"subSector": "1000"
			}
		},
		"sectionStructure": {
			"columns": [{
				"code": "YOUR_EEID",
				"dataType": "string",
				"questionType": "text",
				"hidden": false,
				"validations": [{
					"mda": "exclude_row",
					"parameter": "",
					"expression": "ISBLANK(this.YOUR_EEID);",
					"errorType": "ERROR",
					"validationType": "expression",
					"_id": "5a6c69823a51580018605a78",
					"category": "input_data",
					"dependentColumns": []
				}]
			}, {
				"code": "YOUR_TITLE",
				"dataType": "string",
				"questionType": "text",
				"hidden": false,
				"validations": []
			}, {
				"code": "RandomQuesCode1",
				"dataType": "int",
				"questionType": "integer",
				"hidden": false,
				"validations": [{
					"_id": "5a671aa71f1d39001606c8cf",
					"validationType": "expression",
					"errorType": "ERROR",
					"expression": "this.RandomQuesCode1<10;",
					"parameter": "",
					"mda": "",
					"category": "input_data",
					"dependentColumns": []
				}, {
					"_id": "5a71ba82ce685b00183e3eaf",
					"validationType": "expression",
					"errorType": "ALERT",
					"expression": "ISBLANK(this.RandomQuesCode1);",
					"parameter": "",
					"mda": "",
					"category": "input_data",
					"dependentColumns": []
				}]
			}, {
				"code": "RandomQuesCode2",
				"dataType": "date",
				"questionType": "date",
				"hidden": false,
				"validations": [{
					"mda": "",
					"parameter": "",
					"expression": "YEAR(TO_DATE(this.RandomQuesCode2,\"yyyy-MM-dd\"))<2017;",
					"errorType": "ALERT",
					"validationType": "expression",
					"_id": "5a66fbf6653d75001801c4a8",
					"category": "input_data",
					"dependentColumns": []
				}]
			}, {
				"code": "RandomQuesCode3",
				"dataType": "string",
				"questionType": "dropdown",
				"hidden": false,
				"validations": [],
				"options": {
					"items": [{
						"value": "a",
						"displayName": "a"
					}, {
						"value": "b",
						"displayName": "b"
					}, {
						"value": "c",
						"displayName": "c"
					}]
				}
			}, {
				"code": "RandomQuesCode4",
				"dataType": "double",
				"questionType": "double",
				"hidden": false,
				"validations": []
			}, {
				"code": "RandomQuesCode5",
				"dataType": "int",
				"questionType": "integer",
				"hidden": false,
				"validations": []
			}, {
				"code": "RandomQuesCode6",
				"dataType": "int",
				"questionType": "integer",
				"hidden": false,
				"validations": [{
					"_id": "5a44daa2fc42f1001749c443",
					"validationType": "expression",
					"errorType": "ENHANCEMENT",
					"expression": "this.RandomQuesCode6>50;",
					"parameter": "",
					"category": "input_data",
					"dependentColumns": []
				}]
			}, {
				"code": "RandomQuesCode7",
				"dataType": "int",
				"questionType": "integer",
				"hidden": false,
				"validations": []
			}, {
				"code": "RandomQuesCode8",
				"dataType": "int",
				"questionType": "integer",
				"hidden": false,
				"validations": []
			}, {
				"code": "RandomQuesCode9",
				"dataType": "int",
				"questionType": "integer",
				"hidden": false,
				"validations": []
			}, {
				"code": "RandomQuesCode10",
				"dataType": "string",
				"questionType": "radio_buttons",
				"hidden": false,
				"validations": [{
					"mda": "",
					"parameter": "",
					"expression": "FIND_IN_SET(this.RandomQuesCode10,[\"m\"]);",
					"errorType": "AUTOCORRECT",
					"validationType": "expression",
					"_id": "5a8e92641a1a9500187dfb2a",
					"category": "input_data",
					"dependentColumns": []
				}],
				"options": {
					"items": [{
						"value": "m",
						"displayName": "m"
					}, {
						"value": "n",
						"displayName": "n"
					}, {
						"value": "o",
						"displayName": "o"
					}]
				}
			}, {
				"code": "POS_CLASS",
				"dataType": "int",
				"questionType": "integer",
				"hidden": false,
				"validations": []
			}, {
				"code": "YOUR_CODE",
				"dataType": "string",
				"questionType": "text",
				"hidden": false,
				"validations": []
			}, {
				"code": "YOUR_LEVEL",
				"dataType": "string",
				"questionType": "text",
				"hidden": false,
				"validations": []
			}, {
				"code": "YOUR_GRADE",
				"dataType": "string",
				"questionType": "text",
				"hidden": false,
				"validations": []
			}, {
				"code": "POS_CODE",
				"dataType": "string",
				"questionType": "text",
				"hidden": false,
				"validations": [{
					"mda": "",
					"parameter": "",
					"expression": "ISBLANK(this.YOUR_TITLE) AND ISBLANK(this.POS_CODE);",
					"errorType": "ERROR",
					"validationType": "expression",
					"_id": "5a71b19c0b0ff400170ce0a5",
					"category": "file_acceptance",
					"dependentColumns": []
				}]
			}, {
				"code": "YOUR_OTHER",
				"dataType": "string",
				"questionType": "text",
				"hidden": false,
				"validations": []
			}, {
				"code": "MDA_001",
				"dataType": "int",
				"questionType": "integer",
				"hidden": false,
				"validations": [{
					"_id": "5a1eceac523efc00172e00f5",
					"mda": "5;",
					"maxError": 20,
					"maxAlert": 15,
					"minError": 5,
					"minAlert": 10,
					"validationType": "range",
					"category": "input_data",
					"dependentColumns": []
				}]
			}, {
				"code": "RANDOM",
				"dataType": "string",
				"questionType": "text",
				"hidden": false,
				"validations": []
			}, {
				"code": "CLIENT_EXCLUDE_EMPLOYEE",
				"dataType": "string",
				"questionType": "text",
				"hidden": false,
				"validations": []
			}, {
				"code": "EMP_125",
				"dataType": "double",
				"questionType": "double",
				"hidden": false,
				"validations": [{
					"mda": "exclude_row",
					"parameter": "",
					"expression": "FIND_IN_SET(contextData.ctryCode,[\"BD\",\"CN\",\"HK\",\"ID\",\"IN\",\"JP\",\"KH\",\"KR\",\"LK\",\"MM\",\"MY\",\"PH\",\"PK\",\"SG\",\"TH\",\"TW\",\"VN\"]) AND ISBLANK(this.EMP_125);",
					"errorType": "ERROR",
					"validationType": "expression",
					"_id": "5a79700d2e15c40018a0113a",
					"category": "input_data",
					"dependentColumns": []
				}, {
					"mda": "",
					"parameter": "",
					"expression": "ISBLANK(this.EMP_125) AND ISBLANK(this.EMP_129);",
					"errorType": "ERROR",
					"validationType": "expression",
					"_id": "5a86acc68f258a001656340b",
					"category": "file_acceptance",
					"dependentColumns": []
				}]
			}, {
				"code": "EMP_128",
				"dataType": "double",
				"questionType": "double",
				"hidden": false,
				"validations": [{
					"maxError": 16,
					"minError": 12,
					"maxAlert": 16,
					"minAlert": 12,
					"mda": "12;",
					"_id": "59f193ce1b74370015235856",
					"validationType": "range",
					"category": "input_data",
					"dependentColumns": []
				}, {
					"mda": "12;",
					"parameter": "",
					"expression": "ISBLANK(this.EMP_128);",
					"errorType": "ERROR",
					"validationType": "expression",
					"_id": "5a6c63db4bbbbd00182bf379",
					"category": "input_data",
					"dependentColumns": []
				}]
			}, {
				"code": "EMP_129",
				"dataType": "double",
				"questionType": "double",
				"hidden": false,
				"validations": [{
					"mda": "exclude_row",
					"parameter": "",
					"expression": "FIND_IN_SET(contextData.ctryCode,[\"AT\",\"BE\",\"BG\",\"CH\",\"CZ\",\"DE\",\"DK\",\"EE\",\"ES\",\"FI\",\"FR\",\"GB\",\"GR\",\"HR\",\"HU\",\"IE\",\"IT\",\"KZ\",\"LT\",\"LV\",\"NL\",\"NO\",\"PL\",\"PT\",\"RO\",\"RS\",\"RU\",\"SE\",\"SI\",\"SK\",\"TR\",\"UA\"]) AND ISBLANK(this.EMP_125) AND ISBLANK(this.EMP_129);",
					"errorType": "ERROR",
					"validationType": "expression",
					"_id": "5a7444ee239d550018a0f0e0",
					"category": "input_data",
					"dependentColumns": []
				}, {
					"_id": "5a575abc648a740017e233b8",
					"validationType": "expression",
					"errorType": "ALERT",
					"expression": "ratio = 100*(this.EMP_129 /  this.EMP_131);\nEXP_SALINFLATION = NVL(LOOK_UP_CHECK(\"country\",\"CTX_CTRY_CODE = contextData.ctryCode\",\"SALARY_INFLATION\"),0);\n\n(this.EMP_042 == \"N\" OR ISBLANK(this.EMP_042))\n AND this.EMP_131 > 0 AND  this.EMP_129 > 0 \n AND ( (ratio  - 100) < -5   OR ( (ratio - 100) > (EXP_SALINFLATION * 100 + 20 )) ) ;",
					"parameter": "",
					"category": "input_data",
					"dependentColumns": []
				}, {
					"mda": "exclude_row",
					"parameter": "",
					"expression": "ISBLANK(this.EMP_129) AND ISBLANK(this.EMP_130);",
					"errorType": "ERROR",
					"validationType": "expression",
					"_id": "5a7444ee239d550018a0f0de",
					"category": "input_data",
					"dependentColumns": []
				}, {
					"_id": "5a7447e72bba61001854c909",
					"validationType": "expression",
					"errorType": "ERROR",
					"expression": "ISBLANK(this.HOURLY_RATE) AND ISBLANK(this.EMP_129);",
					"parameter": "",
					"mda": "exclude_row",
					"category": "input_data",
					"dependentColumns": []
				}, {
					"mda": "",
					"parameter": "",
					"expression": "ISBLANK(this.EMP_125) AND ISBLANK(this.EMP_129) AND ISBLANK(this.EMP_130) AND ISBLANK(this.HOURLY_RATE);",
					"errorType": "ERROR",
					"validationType": "expression",
					"_id": "5a79a1092e15c40018a01142",
					"category": "file_acceptance",
					"dependentColumns": []
				}]
			}]
		}
	}]
}