{
    "entities": [
        {
            "sectionStructure": {
                "columns": [
                    {
                        "code": "YOUR_EEID",
                        "hidden": false,
                        "dataType": "string",
                        "validations": [],
                        "questionType": "text"
                    },
                    {
                        "code": "YOUR_TITLE",
                        "hidden": false,
                        "dataType": "string",
                        "validations": [],
                        "questionType": "text"
                    },
                    {
                        "code": "RandomQuesCode1",
                        "hidden": false,
                        "dataType": "int",
                        "validations": [],
                        "questionType": "integer"
                    },
                    {
                        "code": "RandomQuesCode2",
                        "hidden": false,
                        "dataType": "date",
                        "validations": [],
                        "questionType": "date"
                    },
                    {
                        "code": "RandomQuesCode3",
                        "hidden": false,
                        "dataType": "string",
                        "options": {
                            "items": [
                                {
                                    "displayName": "a",
                                    "value": "a"
                                },
                                {
                                    "displayName": "b",
                                    "value": "b"
                                },
                                {
                                    "displayName": "c",
                                    "value": "c"
                                }
                            ]
                        },
                        "validations": [],
                        "questionType": "dropdown"
                    },
                    {
                        "code": "RandomQuesCode4",
                        "hidden": false,
                        "dataType": "double",
                        "validations": [],
                        "questionType": "double"
                    },
                    {
                        "code": "RandomQuesCode5",
                        "hidden": false,
                        "dataType": "int",
                        "validations": [],
                        "questionType": "integer"
                    },
                    {
                        "code": "RandomQuesCode6",
                        "hidden": false,
                        "dataType": "int",
                        "validations": [],
                        "questionType": "integer"
                    },
                    {
                        "code": "RandomQuesCode7",
                        "hidden": false,
                        "dataType": "int",
                        "validations": [],
                        "questionType": "integer"
                    },
                    {
                        "code": "RandomQuesCode8",
                        "hidden": false,
                        "dataType": "int",
                        "validations": [],
                        "questionType": "integer"
                    },
                    {
                        "code": "RandomQuesCode9",
                        "hidden": false,
                        "dataType": "int",
                        "validations": [],
                        "questionType": "integer"
                    },
                    {
                        "code": "RandomQuesCode10",
                        "hidden": false,
                        "dataType": "string",
                        "options": {
                            "items": [
                                {
                                    "displayName": "m",
                                    "value": "m"
                                },
                                {
                                    "displayName": "n",
                                    "value": "n"
                                },
                                {
                                    "displayName": "o",
                                    "value": "o"
                                }
                            ]
                        },
                        "validations": [],
                        "questionType": "radio_buttons"
                    },
                    {
                        "code": "POS_CLASS",
                        "hidden": false,
                        "dataType": "int",
                        "validations": [],
                        "questionType": "integer"
                    },
                    {
                        "code": "YOUR_CODE",
                        "hidden": false,
                        "dataType": "string",
                        "validations": [],
                        "questionType": "text"
                    },
                    {
                        "code": "YOUR_LEVEL",
                        "hidden": false,
                        "dataType": "string",
                        "validations": [],
                        "questionType": "text"
                    },
                    {
                        "code": "YOUR_GRADE",
                        "hidden": false,
                        "dataType": "string",
                        "validations": [],
                        "questionType": "text"
                    },
                    {
                        "code": "POS_CODE",
                        "hidden": false,
                        "dataType": "string",
                        "validations": [
                            {
                                "dependentColumns": [],
                                "expression": "ISBLANK(this.YOUR_TITLE) AND ISBLANK(this.POS_CODE);",
                                "errorType": "ERROR",
                                "parameter": "",
                                "validationType": "expression",
                                "mda": "",
                                "_id": "5a71b19c0b0ff400170ce0a5",
                                "category": "file_acceptance"
                            }
                        ],
                        "questionType": "text"
                    },
                    {
                        "code": "YOUR_OTHER",
                        "hidden": false,
                        "dataType": "string",
                        "validations": [],
                        "questionType": "text"
                    },
                    {
                        "code": "MDA_001",
                        "hidden": false,
                        "dataType": "int",
                        "validations": [],
                        "questionType": "integer"
                    },
                    {
                        "code": "RANDOM",
                        "hidden": false,
                        "dataType": "string",
                        "validations": [],
                        "questionType": "text"
                    },
                    {
                        "code": "CLIENT_EXCLUDE_EMPLOYEE",
                        "hidden": false,
                        "dataType": "string",
                        "validations": [],
                        "questionType": "text"
                    },
                    {
                        "code": "EMP_125",
                        "hidden": false,
                        "dataType": "double",
                        "validations": [
                            {
                                "dependentColumns": [],
                                "expression": "ISBLANK(this.EMP_125) AND ISBLANK(this.EMP_129);",
                                "errorType": "ERROR",
                                "parameter": "",
                                "validationType": "expression",
                                "mda": "",
                                "_id": "5a86acc68f258a001656340b",
                                "category": "file_acceptance"
                            }
                        ],
                        "questionType": "double"
                    },
                    {
                        "code": "EMP_128",
                        "hidden": false,
                        "dataType": "double",
                        "validations": [],
                        "questionType": "double"
                    },
                    {
                        "code": "EMP_129",
                        "hidden": false,
                        "dataType": "double",
                        "validations": [],
                        "questionType": "double"
                    }
                ]
            },
            "otherSectionsData": {},
            "contextData": {
                "uniqueIdColumnCode": "YOUR_EEID",
                "companyId": "5a50ec07b8585a0018386a74",
                "campaignId": "5a166726322cfb00185e6da4",
                "grpCode": "710001",
                "companyName": "ABC",
                "cpyCode": "71000003",
                "industry": {
                    "superSector": "LS",
                    "subSector": "1000",
                    "sector": "105"
                },
                "orgSize": null,
                "sectionId": "RandomSectionCode1",
                "ctryCode": "PL",
                "missing_eeid": true
            },
            "data": [
                {
                    "YOUR_OTHER": "33",
                    "YOUR_TITLE": "Accountant",
                    "YOUR_EEID": null,
                    "EMP_128": "12",
                    "RandomQuesCode1": "1",
                    "EMP_129": "22800",
                    "POS_CLASS": "51",
                    "YOUR_CODE": "ADM002",
                    "EMP_125": "1900",
                    "YOUR_LEVEL": "T40",
                    "POS_CODE": "FIN.06.001.P20",
                    "YOUR_GRADE": "1"
                },
                {
                    "YOUR_OTHER": "11",
                    "YOUR_TITLE": "Accountant",
                    "YOUR_EEID": null,
                    "EMP_128": "12",
                    "RandomQuesCode1": "2",
                    "EMP_129": "13200",
                    "POS_CLASS": "52",
                    "YOUR_CODE": "ADM001",
                    "EMP_125": "1100",
                    "YOUR_LEVEL": "T40",
                    "POS_CODE": "FIN.06.001.P20",
                    "YOUR_GRADE": "1"
                },
                {
                    "YOUR_OTHER": "22",
                    "YOUR_TITLE": "Accountant",
                    "YOUR_EEID": null,
                    "EMP_128": "12",
                    "RandomQuesCode1": "3",
                    "EMP_129": "11400",
                    "POS_CLASS": "53",
                    "YOUR_CODE": "R&D001",
                    "EMP_125": null,
                    "YOUR_LEVEL": "T40",
                    "POS_CODE": "FIN.06.001.P20",
                    "YOUR_GRADE": "1"
                },
                {
                    "YOUR_OTHER": "331",
                    "YOUR_TITLE": "Accounting Clerk",
                    "YOUR_EEID": null,
                    "EMP_128": "12",
                    "RandomQuesCode1": "-1",
                    "EMP_129": "21600",
                    "POS_CLASS": "54",
                    "YOUR_CODE": "R&D165",
                    "EMP_125": "1800",
                    "YOUR_LEVEL": "MM",
                    "POS_CODE": "FIN.06.001.S20",
                    "YOUR_GRADE": "A"
                },
                {
                    "YOUR_OTHER": "34",
                    "YOUR_TITLE": "Accounting Clerk",
                    "YOUR_EEID": null,
                    "EMP_128": "12",
                    "RandomQuesCode1": "-2",
                    "EMP_129": "16800",
                    "POS_CLASS": "54",
                    "YOUR_CODE": "R&D165",
                    "EMP_125": "1400",
                    "YOUR_LEVEL": "MM",
                    "POS_CODE": "FIN.06.001.S20",
                    "YOUR_GRADE": "A"
                },
                {
                    "YOUR_OTHER": "33",
                    "YOUR_TITLE": "Accounting Clerk",
                    "YOUR_EEID": null,
                    "EMP_128": "12",
                    "RandomQuesCode1": "a",
                    "EMP_129": "19200",
                    "POS_CLASS": "54",
                    "YOUR_CODE": "R&D165",
                    "EMP_125": "1600",
                    "YOUR_LEVEL": "MM",
                    "POS_CODE": "FIN.06.001.S20",
                    "YOUR_GRADE": "A"
                },
                {
                    "YOUR_OTHER": "33",
                    "YOUR_TITLE": "IT Process Migration Analysis (High Tech) - Team Leader (Professionals) (M2)",
                    "YOUR_EEID": null,
                    "EMP_128": "12",
                    "RandomQuesCode1": "c",
                    "EMP_129": "11400",
                    "POS_CLASS": "51",
                    "YOUR_CODE": "ADM002",
                    "EMP_125": "950",
                    "YOUR_LEVEL": "T40",
                    "POS_CODE": "ITC.04.011.P60",
                    "YOUR_GRADE": "1"
                },
                {
                    "YOUR_OTHER": "11",
                    "YOUR_TITLE": "IT Process Migration Analysis (High Tech) - Team Leader (Professionals) (M2)",
                    "YOUR_EEID": null,
                    "EMP_128": "12",
                    "RandomQuesCode1": "7/7/2010",
                    "EMP_129": "12000",
                    "POS_CLASS": "52",
                    "YOUR_CODE": "ADM001",
                    "EMP_125": "1000",
                    "YOUR_LEVEL": "T40",
                    "POS_CODE": "ITC.04.011.P60",
                    "YOUR_GRADE": "1"
                },
                {
                    "YOUR_OTHER": "22",
                    "YOUR_TITLE": "IT Process Migration Analysis (High Tech) - Team Leader (Professionals) (M2)",
                    "YOUR_EEID": null,
                    "EMP_128": "12",
                    "RandomQuesCode1": "13",
                    "EMP_129": "6600",
                    "POS_CLASS": "53",
                    "YOUR_CODE": "R&D001",
                    "EMP_125": "550",
                    "YOUR_LEVEL": "T40",
                    "POS_CODE": "ITC.04.011.P60",
                    "YOUR_GRADE": "1"
                },
                {
                    "YOUR_OTHER": "331",
                    "YOUR_TITLE": "IT Process Migration Analysis (High Tech) - Pre-eminent Professional  (P6)",
                    "YOUR_EEID": null,
                    "EMP_128": "12",
                    "RandomQuesCode1": "7/7/2010",
                    "EMP_129": "30000",
                    "POS_CLASS": "54",
                    "YOUR_CODE": "R&D165",
                    "EMP_125": "2500",
                    "YOUR_LEVEL": "MM",
                    "POS_CODE": "ITC.04.011.M20",
                    "YOUR_GRADE": "A"
                },
                {
                    "YOUR_OTHER": "34",
                    "YOUR_TITLE": "IT Process Migration Analysis (High Tech) - Pre-eminent Professional  (P6)",
                    "YOUR_EEID": null,
                    "EMP_128": "12",
                    "RandomQuesCode1": "21",
                    "EMP_129": "21600",
                    "POS_CLASS": "54",
                    "YOUR_CODE": "R&D165",
                    "EMP_125": "1800",
                    "YOUR_LEVEL": "MM",
                    "POS_CODE": "ITC.04.011.M20",
                    "YOUR_GRADE": "A"
                },
                {
                    "YOUR_OTHER": "33",
                    "YOUR_TITLE": "IT Process Migration Analysis (High Tech) - Pre-eminent Professional  (P6)",
                    "YOUR_EEID": null,
                    "EMP_128": "12",
                    "RandomQuesCode1": "21",
                    "EMP_129": "16800",
                    "POS_CLASS": "54",
                    "YOUR_CODE": "R&D165",
                    "EMP_125": "1400",
                    "YOUR_LEVEL": "MM",
                    "POS_CODE": "ITC.04.011.M20",
                    "YOUR_GRADE": "A"
                }
            ]
        }
    ]
}