{
  "entities": [
    {
      "sectionStructure": {
        "columns": [
          {
            "code": "EMP_001",
            "displayLabel": "Entity name ",
            "dataType": "string",
            "questionType": "text",
            "validations": []
          },
          {
            "code": "YOUR_EEID",
            "displayLabel": "Employee Identifier",
            "dataType": "string",
            "questionType": "text",
            "validations": [
              {
                "parameter": "",
                "expression": "ISBLANK(this.YOUR_EEID);",
                "clientInstructions": "Submit a unique identifier specific to your organization for each incumbent reported. The number must be unique for each incumbent and preferably constant from year to year. Using unique employee identifiers consistently from year to year better identifies trends. It may be alphanumeric up to nine characters.\nDo not submit Social Security numbers, social insurance numbers, tax identification numbers, passport numbers, or any other governmental identification number, or employee/incumbent names, employee/incumbent birthdays or personal addresses, or employee/incumbent personnel numbers. Do not include dashes or other formatting.",
                "errorType": "ERROR",
                "message": "Employee Identifier is blank.",
                "validationType": "expression",
                "_id": "59f1c151f21d8400151f510e",
                "category": "input_data",
                "dependentColumns": []
              }
            ]
          },
          {
            "code": "POS_CODE",
            "displayLabel": "Mercer Benchmark Code",
            "dataType": "string",
            "questionType": "dropdown",
            "validations": [],
            "options": {
              "items": [
                {
                  "value": "1",
                  "displayName": "Internal"
                },
                {
                  "value": "2",
                  "displayName": "External"
                },
                {
                  "value": "NA",
                  "displayName": "Not applicable"
                }
              ]
            }
          },
          {
            "code": "POS_TITLE",
            "displayLabel": "Mercer Position Title",
            "dataType": "string",
            "questionType": "dropdown",
            "validations": []
          },
          {
            "code": "YOUR_TITLE",
            "displayLabel": "Organization Job Title",
            "dataType": "string",
            "questionType": "text",
            "validations": []
          },
          {
            "code": "YOUR_CODE",
            "displayLabel": "Organization Job Code",
            "dataType": "string",
            "questionType": "text",
            "validations": []
          },
          {
            "code": "YOUR_LEVEL",
            "displayLabel": "Organization Job Level",
            "dataType": "string",
            "questionType": "text",
            "validations": []
          },
          {
            "code": "YOUR_GRADE",
            "displayLabel": "Organization Job Grade",
            "dataType": "string",
            "questionType": "text",
            "validations": []
          },
          {
            "code": "EMP_026",
            "displayLabel": "Organization's  Reports to Position Title",
            "dataType": "string",
            "questionType": "text",
            "validations": []
          },
          {
            "code": "POS_CLASS",
            "displayLabel": "IPE Position Class (current year) (only for IPE users)",
            "dataType": "int",
            "questionType": "integer",
            "validations": []
          },
          {
            "code": "EMP_032",
            "displayLabel": "Incumbent Annual Revenue",
            "dataType": "double",
            "questionType": "double",
            "validations": []
          },
          {
            "code": "EMP_034",
            "displayLabel": "Assets Under Management",
            "dataType": "string",
            "questionType": "dropdown",
            "validations": [],
            "options": {
              "items": [
                {
                  "value": "1",
                  "displayName": "Less than $250K"
                },
                {
                  "value": "2",
                  "displayName": "$250K < $500K"
                },
                {
                  "value": "3",
                  "displayName": "$500K < $1MM"
                },
                {
                  "value": "4",
                  "displayName": "$1MM and above"
                },
                {
                  "value": "NA",
                  "displayName": "Not applicable"
                }
              ]
            }
          },
          {
            "code": "EMP_036",
            "displayLabel": "Geographic Scope of Role",
            "dataType": "string",
            "questionType": "dropdown",
            "validations": [
              {
                "parameter": "",
                "expression": "ISBLANK(this.EMP_036);",
                "clientInstructions": "Please review and update. Mercer will assume and update based on Position code or update Geographic Scope of Role as \"70 - In country\".",
                "errorType": "ERROR",
                "message": "Geographic scope of role is blank",
                "validationType": "expression",
                "_id": "59f1c20ef21d8400151f510f",
                "category": "input_data",
                "dependentColumns": []
              }
            ],
            "options": {
              "items": [
                {
                  "value": "10",
                  "displayName": "Global"
                },
                {
                  "value": "20",
                  "displayName": "Multi Regional"
                },
                {
                  "value": "30",
                  "displayName": "Regional"
                },
                {
                  "value": "50",
                  "displayName": "Multi Country"
                },
                {
                  "value": "70",
                  "displayName": "In Country"
                },
                {
                  "value": "80",
                  "displayName": "District"
                },
                {
                  "value": "NA",
                  "displayName": "Not applicable"
                }
              ]
            }
          },
          {
            "code": "EMP_037",
            "displayLabel": "Year of Birth",
            "dataType": "int",
            "questionType": "integer",
            "validations": []
          },
          {
            "code": "EMP_038",
            "displayLabel": "Employee Year of Hire",
            "dataType": "int",
            "questionType": "integer",
            "validations": []
          },
          {
            "code": "EMP_039",
            "displayLabel": "Year Entered Into Position",
            "dataType": "int",
            "questionType": "integer",
            "validations": []
          },
          {
            "code": "EMP_043",
            "displayLabel": "Same Incumbent 12 Months Prior",
            "dataType": "string",
            "questionType": "dropdown",
            "validations": [],
            "options": {
              "items": [
                {
                  "value": "Y",
                  "displayName": "Yes"
                },
                {
                  "value": "N",
                  "displayName": "No"
                },
                {
                  "value": "NA",
                  "displayName": "Not applicable"
                }
              ]
            }
          },
          {
            "code": "EMP_044",
            "displayLabel": "Gender",
            "dataType": "string",
            "questionType": "dropdown",
            "validations": [],
            "options": {
              "items": [
                {
                  "value": "F",
                  "displayName": "F - Female"
                },
                {
                  "value": "M",
                  "displayName": "M - Male"
                },
                {
                  "value": "NA",
                  "displayName": "Not applicable"
                }
              ]
            }
          },
          {
            "code": "EMP_049",
            "displayLabel": "Postal Code (Zip Code) job is located",
            "dataType": "string",
            "questionType": "text",
            "validations": []
          },
          {
            "code": "EMP_054",
            "displayLabel": "Line of Business (P&C Insurance positions only)",
            "dataType": "string",
            "questionType": "dropdown",
            "validations": [],
            "options": {
              "items": [
                {
                  "value": "1",
                  "displayName": "Personal Lines"
                },
                {
                  "value": "2",
                  "displayName": "Commercial Lines"
                },
                {
                  "value": "3",
                  "displayName": "Multiple Personal & Commercial Lines"
                },
                {
                  "value": "4",
                  "displayName": "Industry Based Lines"
                },
                {
                  "value": "5",
                  "displayName": "Specialty Lines"
                },
                {
                  "value": "6",
                  "displayName": "Other"
                },
                {
                  "value": "NA",
                  "displayName": "Not applicable"
                }
              ]
            }
          },
          {
            "code": "EMP_055",
            "displayLabel": "Market Segment (P&C Insurance positions only)",
            "dataType": "string",
            "questionType": "dropdown",
            "validations": [],
            "options": {
              "items": [
                {
                  "value": "2",
                  "displayName": "Auto"
                },
                {
                  "value": "1",
                  "displayName": "Home"
                },
                {
                  "value": "3",
                  "displayName": "Commercial Property"
                },
                {
                  "value": "4",
                  "displayName": "Multiple"
                },
                {
                  "value": "5",
                  "displayName": "Other"
                },
                {
                  "value": "NA",
                  "displayName": "Not applicable"
                }
              ]
            }
          },
          {
            "code": "EMP_058A",
            "displayLabel": "SSO/BPO Employee",
            "dataType": "string",
            "questionType": "dropdown",
            "validations": [],
            "options": {
              "items": [
                {
                  "value": "Y",
                  "displayName": "Yes"
                },
                {
                  "value": "N",
                  "displayName": "No"
                },
                {
                  "value": "NA",
                  "displayName": "Not applicable"
                }
              ]
            }
          },
          {
            "code": "EMP_061",
            "displayLabel": "Union Status",
            "dataType": "string",
            "questionType": "dropdown",
            "validations": [],
            "options": {
              "items": [
                {
                  "value": "Y",
                  "displayName": "Yes"
                },
                {
                  "value": "N",
                  "displayName": "No"
                },
                {
                  "value": "NA",
                  "displayName": "Not applicable"
                }
              ]
            }
          },
          {
            "code": "EMP_067",
            "displayLabel": "License Required",
            "dataType": "string",
            "questionType": "dropdown",
            "validations": [],
            "options": {
              "items": [
                {
                  "value": "Y",
                  "displayName": "Yes"
                },
                {
                  "value": "N",
                  "displayName": "No"
                },
                {
                  "value": "NA",
                  "displayName": "Not applicable"
                }
              ]
            }
          },
          {
            "code": "EMP_096",
            "displayLabel": "Overtime Pay Eligibility",
            "dataType": "string",
            "questionType": "dropdown",
            "validations": [
              {
                "parameter": "",
                "expression": "ISNOTBLANK(this.EMP_096)\nAND\n(NVL(this.EMP_117,\"Z\") == \"N\" OR ISBLANK(this.EMP_117))\nAND\nSUBSTR(NVL(this.POS_CODE,\"Z\"),12,3) != \"M30\";",
                "clientInstructions": "Please share the status as per FLSA type",
                "errorType": "ERROR",
                "message": "Overtime Pay Eligibility is blank or invalid",
                "validationType": "expression",
                "_id": "59f1c37df21d8400151f5110",
                "category": "input_data",
                "dependentColumns": []
              }
            ],
            "options": {
              "items": [
                {
                  "value": "Y",
                  "displayName": "Yes"
                },
                {
                  "value": "N",
                  "displayName": "No"
                },
                {
                  "value": "NA",
                  "displayName": "Not applicable"
                }
              ]
            }
          },
          {
            "code": "EMP_097",
            "displayLabel": " Salary Effective Date",
            "dataType": "date",
            "questionType": "date",
            "validations": []
          },
          {
            "code": "EMP_098",
            "displayLabel": "Contact Center Number (Contact Centre Module Participants Only) See Guide for Explanation",
            "dataType": "string",
            "questionType": "text",
            "validations": [
              {
                "parameter": "",
                "expression": "!FIND_IN_SET(NVL(this.EMP_098,\"Z\"),[\"Y\",\"N\"]) AND ISNOTBLANK(this.EMP_098);",
                "clientInstructions": "Please enter Y or N.  Mercer will remove the invalid input",
                "errorType": "ERROR",
                "message": "Contact Center Number (Contact Centre Module Participants Only) is blank or invalid",
                "validationType": "expression",
                "_id": "59f1c536f21d8400151f5111",
                "category": "input_data",
                "dependentColumns": []
              }
            ]
          },
          {
            "code": "EMP_099",
            "displayLabel": "Last Performance Rating",
            "dataType": "string",
            "questionType": "dropdown",
            "validations": [],
            "options": {
              "items": [
                {
                  "value": "1",
                  "displayName": "Exceed Expectation"
                },
                {
                  "value": "2",
                  "displayName": "Meet Expectation"
                },
                {
                  "value": "3",
                  "displayName": "Below Expectation"
                },
                {
                  "value": "NA",
                  "displayName": "Not applicable"
                }
              ]
            }
          },
          {
            "code": "EMP_100",
            "displayLabel": "Quality of Position Match ",
            "dataType": "string",
            "questionType": "dropdown",
            "validations": [],
            "options": {
              "items": [
                {
                  "value": "1",
                  "displayName": "Less"
                },
                {
                  "value": "2",
                  "displayName": "Equal"
                },
                {
                  "value": "3",
                  "displayName": "More"
                },
                {
                  "value": "NA",
                  "displayName": "Not applicable"
                }
              ]
            }
          },
          {
            "code": "EMP_109",
            "displayLabel": "100% Virtual Agent",
            "dataType": "string",
            "questionType": "dropdown",
            "validations": [],
            "options": {
              "items": [
                {
                  "value": "Y",
                  "displayName": "Yes"
                },
                {
                  "value": "N",
                  "displayName": "No"
                },
                {
                  "value": "NA",
                  "displayName": "Not applicable"
                }
              ]
            }
          },
          {
            "code": "EMP_114",
            "displayLabel": "Sales Incentive Status for Non-Receivers",
            "dataType": "string",
            "questionType": "dropdown",
            "validations": [
              {
                "parameter": "",
                "expression": "ISBLANK(this.EMP_114)\nAND\nSUBSTR(NVL(this.POS_CODE,\"Z\"),1,3) == \"SMP\"\nAND\nNVL(this.EMP_240, \"Z\") == \"Y\"\nAND\nNVL(this.EMP_242,-1) == 0;",
                "clientInstructions": "Select the primary reason why the sales incentive eligible incumbent did not receive a payout amount.  Mercer will leave data as submitted.  However, it may be marked as outlier or excluded from the survey as per data validation standards.",
                "errorType": "ALERT",
                "message": "Sales Incentive Status for Non-Receivers is blank.",
                "validationType": "expression",
                "_id": "59f1c675f21d8400151f5113",
                "category": "input_data",
                "dependentColumns": []
              }
            ],
            "options": {
              "items": [
                {
                  "value": "1",
                  "displayName": "Performance goals not achieved"
                },
                {
                  "value": "2",
                  "displayName": "New employee"
                },
                {
                  "value": "3",
                  "displayName": "Payout amount not available"
                },
                {
                  "value": "4",
                  "displayName": "Plan design change"
                },
                {
                  "value": "5",
                  "displayName": "Other"
                },
                {
                  "value": "NA",
                  "displayName": "Not applicable"
                }
              ]
            }
          },
          {
            "code": "EMP_116",
            "displayLabel": "Discipline Code (Financial Operations positions only)",
            "dataType": "string",
            "questionType": "dropdown",
            "validations": []
          },
          {
            "code": "EMP_117",
            "displayLabel": "FLSA Status",
            "dataType": "string",
            "questionType": "dropdown",
            "validations": [
              {
                "parameter": "",
                "expression": "ISBLANK(this.EMP_117);",
                "clientInstructions": "Indicate if the position is exempt or nonexempt under the Fair Labor Standards Act.  Mercer will assume Exempt status.",
                "errorType": "ERROR",
                "message": "FLSA status is blank",
                "validationType": "expression",
                "_id": "59f1ccdaf21d8400151f5114",
                "category": "input_data",
                "dependentColumns": []
              }
            ],
            "options": {
              "items": [
                {
                  "value": "E",
                  "displayName": "Exempt"
                },
                {
                  "value": "N",
                  "displayName": "Nonexempt"
                },
                {
                  "value": "NA",
                  "displayName": "Not applicable"
                }
              ]
            }
          },
          {
            "code": "EMP_118",
            "displayLabel": "Industry Segment (Consumer Finance positions only)",
            "dataType": "string",
            "questionType": "dropdown",
            "validations": [],
            "options": {
              "items": [
                {
                  "value": "1",
                  "displayName": "Consumer Lending"
                },
                {
                  "value": "2",
                  "displayName": "Mortgage"
                },
                {
                  "value": "NA",
                  "displayName": "Not applicable"
                }
              ]
            }
          },
          {
            "code": "EMP_119",
            "displayLabel": "Sub-Industry Segment (Consumer Finance positions only)",
            "dataType": "string",
            "questionType": "dropdown",
            "validations": [],
            "options": {
              "items": [
                {
                  "value": "1",
                  "displayName": "Traditional direct consumer finance"
                },
                {
                  "value": "2",
                  "displayName": "Traditional indirect consumer finance"
                },
                {
                  "value": "3",
                  "displayName": "Auto finance and leasing"
                },
                {
                  "value": "4",
                  "displayName": "Credit card"
                },
                {
                  "value": "5",
                  "displayName": "Home equity / real estate"
                },
                {
                  "value": "NA",
                  "displayName": "Not applicable"
                }
              ]
            }
          },
          {
            "code": "EMP_122",
            "displayLabel": "Pay Type",
            "dataType": "string",
            "questionType": "dropdown",
            "validations": [],
            "options": {
              "items": [
                {
                  "value": "A",
                  "displayName": "Annual"
                },
                {
                  "value": "H",
                  "displayName": "Hourly"
                },
                {
                  "value": "NA",
                  "displayName": "Not applicable"
                }
              ]
            }
          },
          {
            "code": "EMP_123",
            "displayLabel": "Standard Work Week (Hours)",
            "dataType": "double",
            "questionType": "double",
            "validations": [
              {
                "mda": "clear_value",
                "minError": 30,
                "validationType": "range",
                "_id": "59f1939d1b74370015235855",
                "category": "input_data",
                "dependentColumns": []
              }
            ]
          },
          {
            "code": "EMP_129",
            "displayLabel": "Annual Base Salary (Equivalent to Full Time Employment)",
            "dataType": "double",
            "questionType": "double",
            "validations": [
              {
                "_id": "59ef4c80111dbf0015cf2c17",
                "validationType": "expression",
                "message": "Annual Base Salary is blank",
                "errorType": "ERROR",
                "clientInstructions": "Please provide Annual Base Salary.  Mercer will delete the record, as this information is integral for survey participation.",
                "expression": "ISBLANK(this.EMP_129) AND ISBLANK(this.EMP_125);",
                "parameter": "",
                "category": "input_data",
                "dependentColumns": []
              }
            ]
          },
          {
            "code": "EMP_134",
            "displayLabel": "Salary Range Minimum. Do Not Report Broadband Ranges",
            "dataType": "double",
            "questionType": "double",
            "validations": []
          },
          {
            "code": "EMP_136",
            "displayLabel": "Salary Range Maximum. Do Not Report Broadband Ranges",
            "dataType": "double",
            "questionType": "double",
            "validations": []
          },
          {
            "code": "EMP_233",
            "displayLabel": "Short-term Incentive (Variable Bonus) Eligibility",
            "dataType": "string",
            "questionType": "dropdown",
            "validations": [],
            "options": {
              "items": [
                {
                  "value": "Y",
                  "displayName": "Yes"
                },
                {
                  "value": "N",
                  "displayName": "No"
                },
                {
                  "value": "NA",
                  "displayName": "Not applicable"
                }
              ]
            }
          },
          {
            "code": "EMP_234",
            "displayLabel": "Short-term Incentive (Variable Bonus) (Actual)",
            "dataType": "double",
            "questionType": "double",
            "validations": [
              {
                "_id": "59ef4d49111dbf0015cf2c1a",
                "validationType": "expression",
                "message": "Short-term Incentive (Actual) % is higher in comparison with Annual Base Salary",
                "errorType": "ALERT",
                "clientInstructions": "Please review and update",
                "expression": "r1=0;\nvalue1 = 100*(NVL(this.EMP_234,0) / NVL(this.EMP_129,1));\nr2=0;\nIF(SUBSTR(NVL(this.POS_CODE,\"Z\"),12,1)==\"E\") \n{r2=4;} \nELSE \n {IF(SUBSTR(NVL(this.POS_CODE,\"Z\"),12,1)==\"M\" or SUBSTR(NVL(this.POS_CODE,\"Z\"),12,1)==\"I\") \n {r2=2;} \n  ELSE \n {r2=1;} \n} \nr2;\nvalue2=r2;\n\nIF(ISBLANK(this.EMP_234) OR NVL(this.EMP_129,0)==0 OR ISBLANK(this.POS_CODE)) \n{r1=false;}\nELSE\n {IF(value1>value2)\n {r1=true;}\n ELSE\n {r1=false;} \n}\nr1;",
                "parameter": "",
                "category": "input_data",
                "dependentColumns": []
              },
              {
                "_id": "59ef4d49111dbf0015cf2c19",
                "validationType": "expression",
                "message": "Short-term Incentive (Actual) % is lower in comparison with Annual Base Salary",
                "errorType": "ALERT",
                "clientInstructions": "Please review and update",
                "expression": "r1=0;\nvalue1 = 100*(NVL(this.EMP_234,0) / NVL(this.EMP_129,1));\nr2=0;\nIF(SUBSTR(NVL(this.POS_CODE,\"Z\"),12,1)==\"E\") \n{r2=4;} \nELSE\n {IF(SUBSTR(NVL(this.POS_CODE,\"Z\"),12,1)==\"M\" or SUBSTR(NVL(this.POS_CODE,\"Z\"),12,1)==\"I\") \n {r2=2;} \n  ELSE \n {r2=1;} \n r2;} \nr2;\nvalue2=r2;\n\nIF(ISBLANK(this.EMP_234) OR NVL(this.EMP_129,0)==0 OR ISBLANK(this.POS_CODE)) \n{r1=false;}\nELSE\n {IF(value1>=0.3 and value1<value2)\n {r1=true;}\n ELSE\n {r1=false;} \nr1;}\nr1;",
                "parameter": "",
                "category": "input_data",
                "dependentColumns": []
              }
            ]
          },
          {
            "code": "EMP_236",
            "displayLabel": "Short-term Incentive (Target) as Percentage of Base Salary",
            "dataType": "double",
            "questionType": "percentage",
            "validations": []
          },
          {
            "code": "EMP_238",
            "displayLabel": "Short-term Incentive (Maximum) as Percentage of Base",
            "dataType": "double",
            "questionType": "percentage",
            "validations": [
              {
                "parameter": "",
                "expression": "r1=0;\nvalue1 = 100*(NVL(this.EMP_234,0) / NVL(this.EMP_129,1));\nvalue2 = 1.1*NVL(this.EMP_238,RAND());\n\nIF(ISBLANK(this.EMP_234) OR ISBLANK(this.EMP_238) OR NVL(this.EMP_129,0)==0) \n{r1=false;}\nELSE\n{IF(value1>value2)\n{r1=true;}\nELSE\n{r1=false;} r1;}\nr1;",
                "clientInstructions": "Please review and update",
                "errorType": "ALERT",
                "message": "Short-term Incentive (Actual) values are greater than Short-term Incentive (Maximum)",
                "validationType": "expression",
                "_id": "59ef4dc1111dbf0015cf2c1c",
                "category": "input_data",
                "dependentColumns": []
              }
            ]
          },
          {
            "code": "EMP_239",
            "displayLabel": "Short-term Incentive (Threshold) as Percent of Base",
            "dataType": "double",
            "questionType": "percentage",
            "validations": [
              {
                "parameter": "",
                "expression": "r1=0;\nvalue1 = 100*(NVL(this.EMP_234,0) / NVL(this.EMP_129,1));\n\nIF(ISBLANK(this.EMP_234) OR ISBLANK(this.EMP_239) OR NVL(this.EMP_129,0)==0) \n{r1=false;}\nELSE\n{IF(ROUNDP(value1,1)<ROUNDP(this.EMP_239,1))\n{r1=true;}\nELSE\n{r1=false;} \nr1;}\nr1;",
                "clientInstructions": "Please review and update",
                "errorType": "ALERT",
                "message": "Short-term Incentive (Actual) as Percent of Base Salary is less than Short-term Incentive (Threshold) as Percent of Base",
                "validationType": "expression",
                "_id": "59ef4e65111dbf0015cf2c1d",
                "category": "input_data",
                "dependentColumns": []
              }
            ]
          },
          {
            "code": "EMP_240",
            "displayLabel": "Sales Incentive Eligibility",
            "dataType": "string",
            "questionType": "dropdown",
            "validations": [],
            "options": {
              "items": [
                {
                  "value": "Y",
                  "displayName": "Yes"
                },
                {
                  "value": "N",
                  "displayName": "No"
                },
                {
                  "value": "NA",
                  "displayName": "Not applicable"
                }
              ]
            }
          },
          {
            "code": "EMP_242",
            "displayLabel": "Sales Incentive Annual Amount (Actual)",
            "dataType": "double",
            "questionType": "double",
            "validations": [
              {
                "_id": "59ef4ec4111dbf0015cf2c1e",
                "validationType": "expression",
                "message": "Sales Incentive (Actual) is greater than Sales Incentive (Maximum)",
                "errorType": "ALERT",
                "clientInstructions": "Please review and update",
                "expression": "r1=0;\nvalue1 = 100*(NVL(this.EMP_242,0) / NVL(this.EMP_129,1));\nvalue2 = 1.1*NVL(this.EMP_247,RAND());\n\nIF(ISBLANK(this.EMP_242) OR ISBLANK(this.EMP_247) OR NVL(this.EMP_129,0)==0) \n{r1=false;}\nELSE\n{IF(value1>value2)\n{r1=true;}\nELSE\n{r1=false;} \nr1;}\nr1;",
                "parameter": "",
                "category": "input_data",
                "dependentColumns": []
              },
              {
                "parameter": "",
                "expression": "r1=0;\nvalue1 = 100*(NVL(this.EMP_242,0) / NVL(this.EMP_129,1));\nIF(ISBLANK(this.EMP_242) OR ISBLANK(this.EMP_244) OR NVL(this.EMP_129,0)==0) \n{r1=false;}\nELSE\n{IF(ABS(value1- NVL(this.EMP_244,0))<=0.1)\n{r1=true;}\nELSE\n{r1=false;}\nr1;}\nr1;",
                "clientInstructions": "Please review and update",
                "errorType": "ALERT",
                "message": "Sales Incentive (Actual) values are same as  Sales Incentive (Target)",
                "validationType": "expression",
                "_id": "59ef4f74111dbf0015cf2c20",
                "category": "input_data",
                "dependentColumns": []
              }
            ]
          },
          {
            "code": "EMP_244",
            "displayLabel": "Sales Incentive (Target) as Percentage of Base",
            "dataType": "double",
            "questionType": "percentage",
            "validations": [
              {
                "_id": "59ef4ff11b74370015231ebf",
                "validationType": "expression",
                "message": "Sales Incentive (Actual) values are same as Sales Incentive (Target)",
                "errorType": "ALERT",
                "clientInstructions": "Please review and update",
                "expression": "r1=0;\nvalue1 = 100*(NVL(this.EMP_242,0) / NVL(this.EMP_129,1));\n\nIF(ISBLANK(this.EMP_242) OR ISBLANK(this.EMP_244) OR NVL(this.EMP_129,0)==0) \n{r1=false;}\nELSE\n{IF(ABS(value1- NVL(this.EMP_244,0))<=0.1)\n{r1=true;}\nELSE\n{r1=false;} \nr1;}\nr1;",
                "parameter": "",
                "category": "input_data",
                "dependentColumns": []
              },
              {
                "maxAlert": 125,
                "validationType": "range",
                "_id": "59f1943c1b74370015235857",
                "category": "input_data",
                "dependentColumns": []
              }
            ]
          },
          {
            "code": "EMP_260",
            "displayLabel": "Profit Sharing Plan Eligibility",
            "dataType": "string",
            "questionType": "dropdown",
            "validations": [],
            "options": {
              "items": [
                {
                  "value": "Y",
                  "displayName": "Yes"
                },
                {
                  "value": "N",
                  "displayName": "No"
                },
                {
                  "value": "NA",
                  "displayName": "Not applicable"
                }
              ]
            }
          },
          {
            "code": "EMP_261",
            "displayLabel": "Profit Sharing (Actual)",
            "dataType": "double",
            "questionType": "double",
            "validations": []
          },
          {
            "code": "EMP_273",
            "displayLabel": "Short-term Incentive Status for Non-Receivers",
            "dataType": "string",
            "questionType": "dropdown",
            "validations": [],
            "options": {
              "items": [
                {
                  "value": "1",
                  "displayName": "Performance goals not achieved"
                },
                {
                  "value": "2",
                  "displayName": "New employee"
                },
                {
                  "value": "3",
                  "displayName": "Payout amount not available"
                },
                {
                  "value": "4",
                  "displayName": "Plan design change"
                },
                {
                  "value": "5",
                  "displayName": "Other"
                },
                {
                  "value": "NA",
                  "displayName": "Not applicable"
                }
              ]
            }
          },
          {
            "code": "EMP_278",
            "displayLabel": "Long-term Incentive Eligible",
            "dataType": "string",
            "questionType": "dropdown",
            "validations": [],
            "options": {
              "items": [
                {
                  "value": "Y",
                  "displayName": "Yes"
                },
                {
                  "value": "N",
                  "displayName": "No"
                },
                {
                  "value": "NA",
                  "displayName": "Not applicable"
                }
              ]
            }
          },
          {
            "code": "EMP_279",
            "displayLabel": "LTI Plan Types Offered. Enter all that apply ",
            "dataType": "string",
            "questionType": "dropdown",
            "validations": [],
            "options": {
              "items": [
                {
                  "value": "11",
                  "displayName": "Stock/Share Options"
                },
                {
                  "value": "12",
                  "displayName": "Share Appreciation Rights (SARs)"
                },
                {
                  "value": "21",
                  "displayName": "Restricted Shares/Share Units"
                },
                {
                  "value": "22",
                  "displayName": "Performance Shares/Share Units"
                },
                {
                  "value": "31",
                  "displayName": "Performance Cash Units"
                },
                {
                  "value": "32",
                  "displayName": "Long-term Cash"
                },
                {
                  "value": "NA",
                  "displayName": "Not applicable"
                }
              ]
            }
          },
          {
            "code": "EMP_280",
            "displayLabel": "LTI Plan Award #1. Organization LTI Plan Identifier (identifiers provided on the LTI Plans section)",
            "dataType": "string",
            "questionType": "text",
            "validations": []
          },
          {
            "code": "EMP_281",
            "displayLabel": "Number of Granted Options/Shares/Performance Units or value of Granted Cash Award",
            "dataType": "double",
            "questionType": "double",
            "validations": []
          },
          {
            "code": "EMP_282",
            "displayLabel": "LTI Plan Award #2. Organization LTI Plan Identifier (identifiers provided on the LTI Plans section)",
            "dataType": "string",
            "questionType": "text",
            "validations": []
          },
          {
            "code": "EMP_283",
            "displayLabel": "Number of granted Options/ Shares/ Performance Units or value of granted Cash Award",
            "dataType": "double",
            "questionType": "double",
            "validations": []
          },
          {
            "code": "EMP_284",
            "displayLabel": "LTI Plan Award #3. Organization LTI Plan Identifier (identifiers provided on the LTI Plans section)",
            "dataType": "string",
            "questionType": "text",
            "validations": []
          },
          {
            "code": "EMP_285",
            "displayLabel": "Number of granted Options/ Shares/ Performance Units or value of granted Cash Award",
            "dataType": "double",
            "questionType": "double",
            "validations": []
          },
          {
            "code": "EMP_290",
            "displayLabel": "Stock/Share Ownership Guidelines",
            "dataType": "string",
            "questionType": "dropdown",
            "validations": [
              {
                "_id": "59ef4c80111dbf0015cf2c17",
                "validationType": "expression",
                "message": "Annual Base Salary is blank",
                "errorType": "ERROR",
                "clientInstructions": "Please provide Annual Base Salary.  Mercer will delete the record, as this information is integral for survey participation.",
                "expression": "ISBLANK(this.EMP_129) AND ISBLANK(this.EMP_125);",
                "parameter": "",
                "category": "input_data",
                "dependentColumns": []
              }
            ],
            "options": {
              "items": [
                {
                  "value": "Y",
                  "displayName": "Yes"
                },
                {
                  "value": "N",
                  "displayName": "No"
                },
                {
                  "value": "NA",
                  "displayName": "Not applicable"
                }
              ]
            }
          }
        ]
      },
      "otherSectionsData": {
        "CD_024": "",
        "NUM_EMP": ""
      },
      "contextData": {
        "campaignId": "597b474bfe305700157895c0",
        "companyId": "59e9b3bb22833b0016e58841",
        "companyName": "ABC",
        "sectionId": "EMP_DATA",
        "grpCode": "",
        "cpyCode": "",
        "ctryCode": "US",
        "orgSize": {
          "59e9b3bb22833b0016e58841": null
        },
        "uniqueIdColumnCode": "YOUR_EEID",
        "industry": {
          "superSector": "CG",
          "sector": "101",
          "subSector": "2670"
        }
      }
    }
  ]
}