
{
  "data": [
    {
      "Monthly base salary (equivalent to full-time employment)": "",
      "Number of months paid": "",
      "Internal job code": "Ms1",
      "Annual base salary (equivalent to full-time employment)": "10000",
      "Mercer benchmark code": "HRM.05.001.P20",
      "PS Number": "1",
      "Job title within your organization": "Manager"
    },
    {
      "Monthly base salary (equivalent to full-time employment)": "",
      "Number of months paid": "",
      "Internal job code": "Ms2",
      "Annual base salary (equivalent to full-time employment)": "10000",
      "Mercer benchmark code": "HRM.05.001.P21",
      "PS Number": "2",
      "Job title within your organization": "Manager"
    },
    {
      "Monthly base salary (equivalent to full-time employment)": "",
      "Number of months paid": "",
      "Internal job code": "Ms3",
      "Annual base salary (equivalent to full-time employment)": "10000",
      "Mercer benchmark code": "HRM.05.001.P22",
      "PS Number": "3",
      "Job title within your organization": "Manager"
    },
    {
      "Monthly base salary (equivalent to full-time employment)": "",
      "Number of months paid": "",
      "Internal job code": "Ms4",
      "Annual base salary (equivalent to full-time employment)": "10000",
      "Mercer benchmark code": "HRM.05.001.P23",
      "PS Number": "3",
      "Job title within your organization": "Manager"
    }
  ]
}