YOUR_EEID,YOUR_TITLE,dependent1,dependent2,dependent3,eligibility,Dropdowntest,garbage
ID,Title, Dependent1,Dependent2,Dependent3,Eligibility,Dropdowntest,garbage
1,aaa,,,I/D,YES,Personal Lines,I/D
2,bbb,1,1,INSUFFICIENT DATA,XYZ,Personl,INSUFFICIENT DATA
3,ccc,,,NA,Garbage123,Multiple Personal & Commercial Lines,NA
4,ddd,,,N A,No,4,N A
5,eee,1,1,N/A,2,5,N/A
6,fff,,,N.A.,2,garbage,N.A.
7,ggg,,,#NA,2,Commercial Lines,#NA
8,eee,,,#N/A,naa,Personal And Comm Lines,#N/A
9,fff,,,INFO NOT AVAILABLE,yea,Personal Lines,INFO NOT AVAILABLE
10,ggg,,,INFORMATION NOT AVAILABLE,,Commercial Lines,INFORMATION NOT AVAILABLE
11,eee,,,INFO NOT AVAIL,,Multiple Personal & Commercial Lines,INFO NOT AVAIL
12,fff,,,NOT AVAILABLE,,Industry Based Lines,NOT AVAILABLE
13,ggg,,,NOT APPLICABLE,,Specialty Lines,NOT APPLICABLE
14,eee,,,UNAVAILABLE,YES (Y),Other,#VALUE!
15,fff,,,NOT AVAIL,Non,Not apply,#REF!
16,ggg,,,NOT AVAILABLE,Sim,persnla,#REF!
17,eee,,,NOT APPLICABLE,Y=ELIGIBLE,Commercial,#REF!
18,fff,,,UNAVAILABLE,?,Multiple Personal & Commercial Lines,#REF!
19,ggg,,,NOT AVAIL,??,Industry,#REF!
20,eee,,,NOT AVAILABLE,N/A,Specialty,#REF!
21,fff,,,NOT APPLICABLE,??,Other,#REF!
22,ggg,,,UNAVAILABLE,?,Not applicable,#REF!
23,eee,,,NOT AVAIL,??,Personal Lines,#REF!
24,fff,,,NOT AVAILABLE,NON,cmmrcl line,#REF!
25,ggg,,,NOT APPLICABLE,Nao,Multiple Lines,#REF!
26,eee,,,UNAVAILABLE,#REF!,Industry Based Lines,#REF!
27,fff,,,NOT AVAIL,INFO NOT AVAILABLE,Special,#REF!
