EMP_001,EMP_002,YOUR_EEID,POS_CODE,POS_TITLE,OLD_POSCODE,OLD_POSTITLE,EMP_010,LIBSPEC_FLAG1,YOUR_TITLE,YOUR_CODE,YOUR_LEVEL,YOUR_GRADE,YOUR_OTHER,EMP_026,POS_CLASS,EMP_031,EMP_036,EMP_037,EMP_038,EMP_044,EMP_047,EMP_050,EMP_052,EMP_060,EMP_063,EMP_065,EMP_073,EMP_081,EMP_084,EMP_095,EMP_103,EMP_104,EMP_105,EMP_106,EMP_107,EMP_108,EMP_111,EMP_113,EMP_124,EMP_125,EMP_128,EMP_139,EMP_141,EMP_144,EMP_147,EMP_163,EMP_167,EMP_169,EMP_172,EMP_176,EMP_182,EMP_185,EMP_190,EMP_191,EMP_196,EMP_207,EMP_216,EMP_218,EMP_219,EMP_220,EMP_221,RUNCOST_ALW,EMP_232,EMP_233,EMP_236,EMP_234,EMP_240,EMP_241,EMP_244,EMP_246,EMP_242,EMP_243,EMP_249,EMP_250,EMP_252,EMP_253,EMP_255,EMP_278,EMP_280,EMP_281,EMP_282,EMP_283,EMP_284,EMP_285,EMP_293,EMP_294,EMP_295,EMP_296,EMP_323,EMP_350,EMP_353,EMP_383,EMP_385,EMP_387,EMP_391,EMP_392,EMP_395,EMP_397,SYSTEM_EXCLUDE_EMPLOYEE,CLIENT_EXCLUDE_EMPLOYEE
Entity name ,Organization type (sales / non-sales),Employee identifier,Mercer benchmark code,Mercer position title,Previous year MUPCS code (for reference only),Previous year MUPCS title (for reference only),Therapeutic area flag,"Mercer Job Library specialty flags, 
level 1 (for specific jobs)
",Job title within your organization,Internal job code ,Job level within your organization,Job grade within your organization ,Other unique job identifiers used by your organization (optional),Organization's  reports to position title,"IPE Position Class (current year) (if you do not have an IPE license, please leave blank)",Revenue for the business this role is in (in US dollars),Geographic scope of role,Year of birth,Year of hire,Gender,"Employee’s work location (city, state, and region)",Passport-issuing country (expatriate and local plus only),"Internal business unit, function, or department",Type of contract,Highest level of education,Skills/specialization (optional),Employee type  (retail positions only),Head of organization type,Type of expatriate package,Does this position serve internal or external clients? ,Type of store the employee manages,Store size (store positions only)  ,Shop ID (retail positions only),Brand (full brand name) (retail position only),Product Type 1 (store sales only) (select the major type),Product Type 2 (store sales only) (select the major type),Type of industry sales (top sales executive benchmark only),Discipline ,Employee salary currency,Monthly base salary (equivalent to full-time employment),Number of months paid,Lump-sum allowance for expatriates only (annual),Burn-in allowance (annual),Cleanroom allowance (annual),Cost of living allowance (annual),Hardship allowance (annual),Housing allowance (annual),Guaranteed job-based cash allowance (annual),Meal or luncheon voucher allowance (annual),Mobility allowance (Foreign Service Premium). For Expatriate only (annual),Guaranteed onshore allowance (annual),Other guaranteed allowances not listed above (annual),Other expatriate or local plus allowances only (annual),Explain what’s included in the other annual expatriate or local plus allowances,Phone allowance (annual),Representation allowance (annual),Scope allowance (annual),Shift allowance – 8 hour (annual),Shift allowance – 12 hour (annual),Skill allowance (annual),Transportation allowance (annual),Car running cost allowance (annual),Other allowance description,Short-term incentive (variable bonus) eligibility,Short-term incentive (target) as percentage of base salary,"Short-term incentive (variable bonus) eligibility, actual",Sales incentive eligibility,Sales commission eligibility (retail positions only),"Sales incentive (target), as percentage of base",Sales commission (target) (retail positions only),Sales incentive amount (actual) (annual),Sales commission (actual) (retail positions only),Is the employee eligible for other short-term incentives?,"Other short-term incentives, actual",Details of other short-term incentive (target),"Other short-term incentives (target, next 12 months)",Describe any other short-term incentives (actual).,Is this employee eligible for a long-term incentive?,LTI Plan Award #1. Organization LTI Plan Identifier (identifiers provided on the LTI Plans section),Number of granted Options/ Shares/ Performance Units or value of granted Cash Award,LTI Plan Award #2. Organization LTI Plan Identifier (identifiers provided on the LTI Plans section),Number of granted Options/ Shares/ Performance Units or value of granted Cash Award,LTI Plan Award #3. Organization LTI Plan Identifier (identifiers provided on the LTI Plans section),Number of granted Options/ Shares/ Performance Units or value of granted Cash Award,Is this employee eligible for a children education benefit? ,Child education allocation (total received) (annual),"Maximum education allowance, per child (annual)",Gym/club membership (annual),Housing benefits (annual),"Family size, executive positions only","Leave passage, executive positions only (annual)",Motor Vehicle Policy No. (as in Car - Benefit worksheet),Car/Car allowance provision,Allowance paid in lieu of a company car (annual),Motor vehicle manufacturer and model,Other car details/motor vehicle capacity (in c.c.),Motor vehicle purchase price,Lease cost (including VAT) (annual),System exclude employee,Client exclude employee
GZ test,,b3,FIN.100.20.E20,,,,,,,,,,,,,,,,1995,F,,,,,,,,,,#VALUE!,,,,,,,,,USD,10000,12,,,,,,,,,,,,,,,,,,,,,,,,,,,,,,,,YES (Y),,,,,,,,,,,,,,,,,,,,,,,,,,,
GZ test,,b4,FIN.100.20.E20,,,,,,,,,,,,,,,,1901,Female,new York,,,,,,,,,#REF!,,,,,,,,,USD,20000,12,,,,,,,,,,,,,,,,,,,,,,,,,,,,,,,,Non,,,,,,,,,,,,,,,,,,,,,,,,,,,
