{
  "entities": [
    {
      "data": [
        {
          "$$id": "5a38fac5b090bfd427e1d73f",
          "LPALL_156" : "1wdafsgsdhf", 
          "LPALL_158" : 1
         
        }
      ],
      "sectionStructure": {
        "columns": [
          {
            "code": "$$id",
            "dataType": "string",
            "validations": []
          },
          {
            "code": "CD_478",
            "dataType": "string",
            "questionType": "radiobutton",
            "validations": [],
            "options": {
              "items": [
                {
                  "value": "Y",
                  "displayName": "Yes"
                },
                {
                  "value": "N",
                  "displayName": "No"
                },
                {
                  "value": "NA",
                  "displayName": "Not applicable"
                }
              ]
            }
          },
          {
            "code": "CD_479",
            "dataType": "string",
            "questionType": "checkboxes",
            "validations": [],
            "options": {
              "items": [
                {
                  "value": "1",
                  "displayName": "Referral Bonus"
                },
                {
                  "value": "2",
                  "displayName": "Other"
                }
              ]
            }
          },
          {
            "code": "CD_480",
            "dataType": "double",
            "questionType": "double",
            "validations": [
              {
                "_id": "59e8b60ba811920015bcd525",
                "validationType": "range",
                "minError": 0,
                "expression": "",
                "mda": "clear_value",
                "category": "input_data",
                "dependentColumns": []
              }
            ]
          },
          {
            "code": "CD_481",
            "dataType": "string",
            "questionType": "radiobutton",
            "validations": [],
            "options": {
              "items": [
                {
                  "value": "Y",
                  "displayName": "Yes"
                },
                {
                  "value": "N",
                  "displayName": "No"
                },
                {
                  "value": "NA",
                  "displayName": "Not applicable"
                }
              ]
            }
          },
          {
            "code": "CD_482",
            "dataType": "string",
            "questionType": "checkboxes",
            "validations": [],
            "options": {
              "items": [
                {
                  "value": "1",
                  "displayName": "Payout after new hire successfully completes the trial period"
                },
                {
                  "value": "2",
                  "displayName": "Payout after defined time of employment"
                },
                {
                  "value": "3",
                  "displayName": "Partially paid on hire, with the remaining part paid out later"
                },
                {
                  "value": "4",
                  "displayName": "Only for some positions"
                },
                {
                  "value": "5",
                  "displayName": "Other"
                }
              ]
            }
          },
          {
            "code": "CD_483",
            "dataType": "double",
            "questionType": "double",
            "validations": [
              {
                "mda": "clear_value",
                "_id": "59e8b67ca811920015bcd528",
                "validationType": "range",
                "minError": 0,
                "expression": "",
                "maxError": 100,
                "category": "input_data",
                "dependentColumns": []
              }
            ]
          },
          {
            "code": "CD_484",
            "dataType": "double",
            "questionType": "double",
            "validations": [
              {
                "mda": "clear_value",
                "maxError": 100,
                "minError": 0,
                "_id": "59e8b6a8a811920015bcd529",
                "validationType": "range",
                "category": "input_data",
                "dependentColumns": []
              }
            ]
          },
          {
            "code": "CD_485",
            "dataType": "string",
            "questionType": "radiobutton",
            "validations": [],
            "options": {
              "items": [
                {
                  "value": "Y",
                  "displayName": "Yes"
                },
                {
                  "value": "N",
                  "displayName": "No"
                },
                {
                  "value": "NA",
                  "displayName": "Not applicable"
                }
              ]
            }
          },
          {
            "code": "CD_486",
            "dataType": "string",
            "questionType": "checkboxes",
            "validations": [],
            "options": {
              "items": [
                {
                  "value": "1",
                  "displayName": "As an amount"
                },
                {
                  "value": "2",
                  "displayName": "Number of monthly salaries"
                },
                {
                  "value": "3",
                  "displayName": "As % of annual base salary"
                },
                {
                  "value": "4",
                  "displayName": "Other"
                }
              ]
            }
          },
          {
            "code": "CD_487",
            "dataType": "double",
            "questionType": "double",
            "validations": [
              {
                "mda": "clear_value",
                "expression": "",
                "minError": 0,
                "validationType": "range",
                "_id": "59e8b6f4a811920015bcd52b",
                "category": "input_data",
                "dependentColumns": []
              }
            ]
          },
          {
            "code": "CD_488",
            "dataType": "double",
            "questionType": "double",
            "validations": [
              {
                "_id": "59e8b5c0a811920015bcd523",
                "validationType": "range",
                "minError": 0,
                "expression": "",
                "maxError": 100,
                "mda": "clear_value",
                "category": "input_data",
                "dependentColumns": []
              }
            ]
          },
          {
            "code": "CD_489",
            "dataType": "double",
            "questionType": "double",
            "validations": [
              {
                "mda": "clear_value",
                "_id": "59e8b778a811920015bcd52e",
                "validationType": "range",
                "minError": 0,
                "expression": "",
                "maxError": 100000,
                "category": "input_data",
                "dependentColumns": []
              }
            ]
          },
          {
            "code": "CD_490",
            "dataType": "string",
            "questionType": "radiobutton",
            "validations": [],
            "options": {
              "items": [
                {
                  "value": "Y",
                  "displayName": "Yes"
                },
                {
                  "value": "N",
                  "displayName": "No"
                },
                {
                  "value": "NA",
                  "displayName": "Not applicable"
                }
              ]
            }
          },
          {
            "code": "CD_491",
            "dataType": "string",
            "questionType": "checkboxes",
            "validations": [],
            "options": {
              "items": [
                {
                  "value": "1",
                  "displayName": "Only for specific positions"
                },
                {
                  "value": "2",
                  "displayName": "Only as a relocation bonus"
                }
              ]
            }
          },
          {
            "code": "CD_492",
            "dataType": "string",
            "questionType": "checkboxes",
            "validations": [],
            "options": {
              "items": [
                {
                  "value": "1",
                  "displayName": "Executive"
                },
                {
                  "value": "2",
                  "displayName": "Senior management"
                },
                {
                  "value": "3",
                  "displayName": "Professionals"
                },
                {
                  "value": "4",
                  "displayName": "Other"
                }
              ]
            }
          },
          {
            "code": "CD_493",
            "dataType": "string",
            "questionType": "radiobutton",
            "validations": [],
            "options": {
              "items": [
                {
                  "value": "Y",
                  "displayName": "Yes"
                },
                {
                  "value": "N",
                  "displayName": "No"
                },
                {
                  "value": "NA",
                  "displayName": "Not applicable"
                }
              ]
            }
          },
          {
            "code": "CD_494",
            "dataType": "string",
            "questionType": "radiobutton",
            "validations": [],
            "options": {
              "items": [
                {
                  "value": "1",
                  "displayName": "Key positions only"
                },
                {
                  "value": "2",
                  "displayName": "All positions"
                },
                {
                  "value": "NA",
                  "displayName": "Not applicable"
                }
              ]
            }
          },
          {
            "code": "LPALL_488",
            "dataType": "string",
            "questionType": "radiobutton",
            "validations": [],
            "options": {
              "items": [
                {
                  "value": "Y",
                  "displayName": "Yes"
                },
                {
                  "value": "N",
                  "displayName": "No"
                },
                {
                  "value": "NA",
                  "displayName": "Not applicable"
                }
              ]
            }
          },
          {
            "code": "LPALL_488_01",
            "dataType": "string",
            "questionType": "checkboxes",
            "validations": [],
            "options": {
              "items": [
                {
                  "value": "1",
                  "displayName": "Cash allowance"
                },
                {
                  "value": "2",
                  "displayName": "Time in Lieu (Additional Days Off)"
                },
                {
                  "value": "3",
                  "displayName": "Other"
                }
              ]
            },
            "dimensions": [
              "HEADALL2",
              "EXECALL2",
              "MGMTALL2",
              "MGMTSALL2",
              "MGMTNSALL2",
              "PROFSALL2",
              "PROFNSALL2",
              "PPROFWCALL2",
              "PPROFBCALL2"
            ]
          },
          {
            "code": "LPALL_156",
            "dataType": "string",
            "mda" : "12",
            "questionType": "radiobutton",
            "validations": [
              {
                "validationType": "eligibility",
                "_id": "5a3240829199510015e1483d",
                "category": "input_data",
                "dependentColumns": [
                  "LPALL_157"
                ]
              }
            ],
            "options": {
              "items": [
                {
                  "value": "Y",
                  "displayName": "Yes"
                },
                {
                  "value": "N",
                  "displayName": "No"
                },
                {
                  "value": "NA",
                  "displayName": "Not applicable"
                }
              ]
            }
          },
          {
            "code": "LPALL_157",
            "dataType": "string",
            "questionType": "radiobutton",
            "validations": [
              {
                "validationType": "eligibility",
                "_id": "5a32440933a1bd00151a4d64",
                "category": "input_data",
                "dependentColumns": [
                	"LPALL_158"
                ]
              }
            ],
            "options": {
              "items": [
                {
                  "value": "Y",
                  "displayName": "Yes"
                },
                {
                  "value": "N",
                  "displayName": "No"
                },
                {
                  "value": "NA",
                  "displayName": "Not applicable"
                }
              ]
            },
            "dimensions": [
              "HEAD1",
              "EXEC1",
              "MGMT1",
              "PROFNS1",
              "PROFS1",
              "PPROFWC1",
              "PPROFBC1"
            ]
          },
          {
            "code": "LPALL_158",
            "dataType": "double",
            "questionType": "double",
            "validations": [
              {
                "maxAlert": 5000,
                "expression": "",
                "validationType": "range",
                "_id": "59edce513afa6e00169d051e",
                "category": "input_data",
                "dependentColumns": []
              }
            ],
            "dimensions": [
              "HEAD1",
              "EXEC1",
              "MGMT1",
              "PROFNS1",
              "PROFS1",
              "PPROFWC1",
              "PPROFBC1"
            ]
          },
          {
            "code": "LPALL_159",
            "dataType": "string",
            "questionType": "radiobutton",
            "validations": [],
            "options": {
              "items": [
                {
                  "value": "Y",
                  "displayName": "Yes"
                },
                {
                  "value": "N",
                  "displayName": "No"
                },
                {
                  "value": "NA",
                  "displayName": "Not applicable"
                }
              ]
            }
          },
          {
            "code": "LPALL_160",
            "dataType": "double",
            "questionType": "percentage",
            "validations": [
              {
                "maxAlert": 100,
                "expression": "",
                "validationType": "range",
                "_id": "59edce2a3afa6e00169d051d",
                "category": "input_data",
                "dependentColumns": []
              }
            ]
          },
          {
            "code": "LPALL_160_01",
            "dataType": "string",
            "questionType": "radiobutton",
            "validations": [],
            "options": {
              "items": [
                {
                  "value": "1",
                  "displayName": "The percentage as required by applicable law"
                },
                {
                  "value": "2",
                  "displayName": "Higher than the one specified by law"
                },
                {
                  "value": "NA",
                  "displayName": "Not Applicable"
                }
              ]
            }
          },
          {
            "code": "LPALL_160_02",
            "dataType": "double",
            "questionType": "percentage",
            "validations": []
          }
        ]
      },
      "otherSectionsData": {},
      "contextData": {
        "campaignId": "5a2e46ec1f4bb50015c35c74",
        "companyId": "5a38bac7fb5280fde42e3827",
        "companyName": "ABC",
        "sectionId": "COMPENVALIVISIB02",
        "grpCode": "999999",
        "cpyCode": "",
        "ctryCode": "PL",
        "orgSize": null,
        "uniqueIdColumnCode": "YOUR_EEID",
        "industry": {
          "superSector": "CG",
          "sector": "101",
          "subSector": "2670"
        }
      }
    }
  ]
}