{
	"entities": [{
		"otherSectionsData": {},
		"contextData": {
			"campaignId": "5a0180a406ff1e00156af3b3",
			"companyId": "5aa8de782ce2410018a3cb18",
			"orgSize": null,
			"companyName": "us_Test3",
			"ctryCode": "US",
			"sectionId": "EMP_DATA",
			"grpCode": "",
			"cpyCode": "",
			"uniqueIdColumnCode": "YOUR_EEID",
			"industry": {
				"superSector": "FS",
				"sector": "163",
				"subSector": "1770"
			}
		},
		"sectionStructure": {
			"columns": [{
				"code": "EXP_GRP_CODE",
				"dataType": "string",
				"questionType": "text",
				"hidden": true,
				"validations": [{
					"_id": "5a27ddcf34fee900156c2391",
					"parameter": "",
					"expression": "contextData.grpCode;",
					"errorType": "AUTOCORRECT",
					"validationType": "expression",
					"category": "input_data",
					"dependentColumns": []
				}]
			}, {
				"code": "EXP_CPY_CODE",
				"dataType": "string",
				"questionType": "text",
				"hidden": true,
				"validations": [{
					"_id": "5a27ddf134fee900156c2393",
					"parameter": "",
					"expression": "contextData.cpyCode;",
					"errorType": "AUTOCORRECT",
					"validationType": "expression",
					"category": "input_data",
					"dependentColumns": []
				}]
			}, {
				"code": "EXP_CTRY_CODE",
				"dataType": "string",
				"questionType": "text",
				"hidden": true,
				"validations": [{
					"_id": "5a27de0b34fee900156c2395",
					"parameter": "",
					"expression": "contextData.ctryCode;",
					"errorType": "AUTOCORRECT",
					"validationType": "expression",
					"category": "input_data",
					"dependentColumns": []
				}]
			}, {
				"code": "EXP_SUPER_SECTOR",
				"dataType": "string",
				"questionType": "text",
				"hidden": true,
				"validations": [{
					"_id": "5a27de2434fee900156c2397",
					"parameter": "",
					"expression": "contextData.industry.superSector;",
					"errorType": "AUTOCORRECT",
					"validationType": "expression",
					"category": "input_data",
					"dependentColumns": []
				}]
			}, {
				"code": "EXP_SECTOR",
				"dataType": "int",
				"questionType": "integer",
				"hidden": true,
				"validations": [{
					"_id": "5a27de8834fee900156c239b",
					"parameter": "",
					"expression": "contextData.industry.sector;",
					"errorType": "AUTOCORRECT",
					"validationType": "expression",
					"category": "input_data",
					"dependentColumns": []
				}]
			}, {
				"code": "EXP_SUB_SECTOR",
				"dataType": "int",
				"questionType": "integer",
				"hidden": true,
				"validations": [{
					"_id": "5a27de3c34fee900156c2399",
					"parameter": "",
					"expression": "contextData.industry.subSector;",
					"errorType": "AUTOCORRECT",
					"validationType": "expression",
					"category": "input_data",
					"dependentColumns": []
				}]
			}, {
				"code": "EXP_FAMILY",
				"dataType": "string",
				"questionType": "text",
				"hidden": true,
				"validations": [{
					"validationType": "expression",
					"errorType": "AUTOCORRECT",
					"expression": "SUBSTR(this.POS_CODE,1,3);",
					"parameter": "",
					"_id": "5a27df4334fee900156c239d",
					"category": "input_data",
					"dependentColumns": []
				}]
			}, {
				"code": "CAREER_STREAM",
				"dataType": "string",
				"questionType": "text",
				"hidden": true,
				"validations": [{
					"parameter": "",
					"expression": "SUBSTR(this.POS_CODE,12,1);",
					"errorType": "AUTOCORRECT",
					"validationType": "expression",
					"_id": "5a3cec8f33d6d60016aab396",
					"category": "input_data",
					"dependentColumns": []
				}]
			}, {
				"code": "CAREER_LEVEL",
				"dataType": "int",
				"questionType": "integer",
				"hidden": true,
				"validations": [{
					"parameter": "",
					"expression": "SUBSTR(this.POS_CODE,13,1);",
					"errorType": "AUTOCORRECT",
					"validationType": "expression",
					"_id": "5a57651ce778af00174fc9a3",
					"category": "input_data",
					"dependentColumns": []
				}]
			}, {
				"code": "EXP_DEF_NUM_MONTHS",
				"dataType": "double",
				"questionType": "double",
				"hidden": true,
				"validations": [{
					"mda": "",
					"parameter": "",
					"expression": "NVL(LOOK_UP_CHECK(\"ops_def_num_months\",\"CTX_CTRY_CODE = contextData.ctryCode\",\"DEF_NUM_MONTHS\"),12);",
					"errorType": "AUTOCORRECT",
					"validationType": "expression",
					"_id": "5a93e0270f4149001730b62a",
					"category": "input_data",
					"dependentColumns": []
				}]
			}, {
				"code": "EXP_CURR_CONV",
				"dataType": "double",
				"questionType": "double",
				"hidden": true,
				"validations": [{
					"parameter": "",
					"expression": "NVL(LOOK_UP_CHECK(\"currency\",\"CTX_CTRY_CODE = contextData.ctryCode\",\"EXCHANGE_RATE\"),1);",
					"errorType": "AUTOCORRECT",
					"validationType": "expression",
					"_id": "5a60b0a99ff54a0018c4973f",
					"category": "input_data",
					"dependentColumns": []
				}]
			}, {
				"code": "EXP_SALINFLATION",
				"dataType": "double",
				"questionType": "double",
				"hidden": true,
				"validations": [{
					"mda": "",
					"parameter": "",
					"expression": "NVL(LOOK_UP_CHECK(\"country\",\"CTX_CTRY_CODE = contextData.ctryCode\",\"SALARY_INFLATION\"),0);",
					"errorType": "AUTOCORRECT",
					"validationType": "expression",
					"_id": "5a71e5db0b0ff400170ce0fe",
					"category": "input_data",
					"dependentColumns": []
				}]
			}, {
				"code": "EXP_AGE",
				"dataType": "int",
				"questionType": "integer",
				"hidden": true,
				"validations": [{
					"mda": "",
					"parameter": "",
					"expression": "YEAR(NOW()) - this.EMP_038;",
					"errorType": "AUTOCORRECT",
					"validationType": "expression",
					"_id": "5a8182d6cebd190018f087c6",
					"category": "input_data",
					"dependentColumns": []
				}]
			}, {
				"code": "EXP_ROLE_CH",
				"dataType": "string",
				"questionType": "text",
				"hidden": true,
				"validations": [{
					"_id": "5a27dfbe34fee900156c23a1",
					"parameter": "",
					"expression": "ISNOTBLANK(this.EMP_039) AND YEAR(NOW()) - this.EMP_039 <= 1;",
					"errorType": "AUTOCORRECT",
					"validationType": "expression",
					"category": "input_data",
					"dependentColumns": []
				}]
			}, {
				"code": "EXP_COMP_AU",
				"dataType": "double",
				"questionType": "double",
				"hidden": true,
				"validations": [{
					"mda": "",
					"parameter": "",
					"expression": "IF(!FIND_IN_SET(contextData.ctryCode, [\"AU\",\"NZ\"])) {r=\"\";} else {IF(ISNOTBLANK(this.EMP_129)) {r = this.EMP_129;} else {r = this.EMP_130;}} r;",
					"errorType": "AUTOCORRECT",
					"validationType": "expression",
					"_id": "5a940caf23e24f00188bb064",
					"category": "input_data",
					"dependentColumns": []
				}]
			}, {
				"code": "EXP_COMP1",
				"dataType": "double",
				"questionType": "double",
				"hidden": true,
				"validations": [{
					"mda": "",
					"parameter": "",
					"expression": "IF(contextData.ctryCode == \"ZA\") {r=NVL(this.EXP_ANN_PACK,0);}\n\nelse {r=0;} r;\n\nCOMP1_ZA = r;\n\nIF(FIND_IN_SET(contextData.ctryCode,[\"AU\",\"NZ\"])) {r=NVL(this.EMP_129,0);}\n\nelse {r=0;} r;\n\nCOMP1_AU = r;\n\nIF(ISNOTBLANK(this.HOURLY_RATE) OR (ISNOTBLANK(this.EMP_129) AND this.EMP_122 == \"H\"))\n\n {IF(ISNOTBLANK(this.HOURLY_RATE)) {r=NVL(this.HOURLY_RATE,0) * 2080;}\n\n  else {r=NVL(this.EMP_129,0) * 2080;}}\n\nelse {r=0;} r;\n\nCOMP1_HRLY = r;\n\nIF(ISNOTBLANK(this.EMP_125))\n\n {IF(this.EMP_128 > 0) {r=NVL(this.EMP_125,0) * NVL(this.EMP_128,0);}\n \n  else\n\n{r=NVL(this.EMP_125,0) * NVL(this.EXP_DEF_NUM_MONTHS,12);}}\n\nelse {r=0;} r;\n\nCOMP1_MTH = r;\n\nIF(ISNOTBLANK(this.EMP_129) AND !FIND_IN_SET(NVL(this.EMP_122,\"A\"),[\"H\"]) AND !FIND_IN_SET(contextData.ctryCode,[\"AU\",\"NZ\",\"ZA\"])) {r=NVL(this.EMP_129,0);}\n\nelse {r=0;} r;\n\nCOMP1_ANN = r;\n\nIF(ISNOTBLANK(this.EMP_126) AND ISNOTBLANK(this.EMP_128))\n\n {r = (NVL(this.EMP_126,0)*NVL(this.EMP_128,0)) / NVL(this.EXP_CURR_CONV,1);}\n \n  else {IF(ISNOTBLANK(this.EMP_126) AND ISBLANK(this.EMP_128))\n\n{r = (NVL(this.EMP_126,0)*NVL(this.EXP_DEF_NUM_MONTHS,12)) / NVL(this.EXP_CURR_CONV,1);}\n\nelse {r=0;}} r;\n\nCOMP1_OTH = r;\n\nIF (COMP1_AU > 0) {r = COMP1_AU;} else {IF (COMP1_ZA > 0) {r = COMP1_ZA;} else {IF (COMP1_ANN > 0) {r = COMP1_ANN;} else {IF (COMP1_MTH > 0) {r = COMP1_MTH;} else {IF (COMP1_HRLY > 0) {r = COMP1_HRLY;} else {IF (COMP1_OTH > 0) {r = COMP1_OTH;} else {r = 0;}}}}}} NVL(r,0);",
					"errorType": "AUTOCORRECT",
					"validationType": "expression",
					"_id": "5a955e9d5d44d9001867f7df",
					"category": "input_data",
					"dependentColumns": []
				}]
			}, {
				"code": "EXP_OTH_G_ALLOW",
				"dataType": "double",
				"questionType": "double",
				"hidden": true,
				"validations": [{
					"mda": "",
					"parameter": "",
					"expression": "r = NVL(this.EMP_137,0) + NVL(this.EMP_139,0) + NVL(this.EMP_140,0) + NVL(this.EMP_141,0) + NVL(this.EMP_142,0) + NVL(this.EMP_143,0) + NVL(this.EMP_144,0) + NVL(this.EMP_145,0) + NVL(this.EMP_146,0) + NVL(this.EMP_147,0) + NVL(this.EMP_148,0) + NVL(this.EMP_149,0) + NVL(this.EMP_151,0) + NVL(this.EMP_152,0) + NVL(this.EMP_153,0) + NVL(this.EMP_155,0) + NVL(this.EMP_156,0) + NVL(this.EMP_157,0) + NVL(this.EMP_158,0) + NVL(this.EMP_159,0) + NVL(this.EMP_160,0) + NVL(this.EMP_161,0) + NVL(this.EMP_162,0) + NVL(this.EMP_163,0) + NVL(this.EMP_164,0) + NVL(this.EMP_165,0) + NVL(this.EMP_166,0) + NVL(this.EMP_168,0) + NVL(this.EMP_169,0) + NVL(this.EMP_170,0) + NVL(this.EMP_171,0) + NVL(this.EMP_172,0) + NVL(this.EMP_173,0) + NVL(this.EMP_174,0) + NVL(this.EMP_175,0) + NVL(this.EMP_176,0) + NVL(this.EMP_177,0) + NVL(this.EMP_178,0) + NVL(this.EMP_179,0) + NVL(this.EMP_180,0) + NVL(this.EMP_181,0) + NVL(this.EMP_182,0) + NVL(this.EMP_183,0) + NVL(this.EMP_184,0) + NVL(this.EMP_186,0) + NVL(this.EMP_187,0) + NVL(this.EMP_188,0) + NVL(this.EMP_189,0) / this.EXP_CURR_CONV + NVL(this.EMP_190,0) + NVL(this.EMP_194,0) + NVL(this.EMP_195,0) + NVL(this.EMP_196,0) + NVL(this.EMP_197,0) + NVL(this.EMP_198,0) + NVL(this.EMP_199,0) + NVL(this.EMP_200,0) + NVL(this.EMP_201,0) + NVL(this.EMP_202,0) + NVL(this.EMP_203,0) + NVL(this.EMP_204,0) + NVL(this.EMP_205,0) + NVL(this.EMP_206,0) + NVL(this.EMP_207,0) + NVL(this.EMP_208,0) + NVL(this.EMP_209,0) + NVL(this.EMP_210,0) + NVL(this.EMP_211,0) + NVL(this.EMP_212,0) + NVL(this.EMP_213,0) + NVL(this.EMP_214,0) + NVL(this.EMP_215,0) + NVL(this.EMP_216,0) + NVL(this.EMP_217,0) + NVL(this.EMP_218,0) + NVL(this.EMP_219,0) + NVL(this.EMP_220,0) + NVL(this.EMP_221,0) + NVL(this.EMP_222,0) + NVL(this.EMP_223,0) + NVL(this.EMP_224,0) + NVL(this.EMP_225,0) + NVL(this.EMP_227,0) + NVL(this.EMP_228,0) + NVL(this.EMP_229,0);\n\nIF(contextData.ctryCode == \"ZA\") { s = 0; } else { s = NVL(this.EMP_167,0); } s;\n\nIF(contextData.ctryCode == \"ZA\") { t = 0; } else { t = NVL(this.EMP_185,0); } t;\n\nIF(contextData.ctryCode == \"ZA\") {u = 0;} else { u =NVL(this.EMP_226,0); } u;\n\nNVL(r,0)+NVL(s,0)+NVL(t,0)+NVL(u,0);",
					"errorType": "AUTOCORRECT",
					"validationType": "expression",
					"_id": "5a9665ec5d44d9001867f809",
					"category": "input_data",
					"dependentColumns": []
				}]
			}, {
				"code": "EXP_COMP2",
				"dataType": "double",
				"questionType": "double",
				"hidden": true,
				"validations": [{
					"validationType": "expression",
					"errorType": "AUTOCORRECT",
					"expression": "NVL(this.EXP_COMP1,0) + NVL(this.EXP_OTH_G_ALLOW,0);",
					"parameter": "",
					"_id": "5a2a82502dbe8d00153710ca",
					"category": "input_data",
					"dependentColumns": []
				}]
			}, {
				"code": "EXP_MIN_CHECK",
				"dataType": "int",
				"questionType": "integer",
				"hidden": true,
				"validations": [{
					"mda": "",
					"parameter": "",
					"expression": "MTHLY_MIN = NVL(LOOK_UP_CHECK(\"country\",\"CTX_CTRY_CODE = contextData.ctryCode\",\"MIN_SALARY_MTHLY\"),0);\nANN_MIN = NVL(LOOK_UP_CHECK(\"country\",\"CTX_CTRY_CODE = contextData.ctryCode\",\"MIN_SALARY\"),0);\n\nIF((this.EMP_125 >= MTHLY_MIN AND this.EXP_COMP1 >= ANN_MIN) OR (this.EMP_129 / 12 >= MTHLY_MIN AND this.EXP_COMP1 >= ANN_MIN)) {r=1;} else {r=2;} r;",
					"errorType": "AUTOCORRECT",
					"validationType": "expression",
					"_id": "5a95770f5d44d9001867f802",
					"category": "input_data",
					"dependentColumns": []
				}]
			}, {
				"code": "EXP_BONUS_APER",
				"dataType": "double",
				"questionType": "double",
				"hidden": true,
				"validations": [{
					"mda": "",
					"parameter": "",
					"expression": "IF(FIND_IN_SET(contextData.ctryCode,[\"AU\",\"NZ\"]) OR this.EXP_COMP1 <= 0) { r = \"\"; } else { r =100 * this.EMP_234 / this.EXP_COMP1; } r;",
					"errorType": "AUTOCORRECT",
					"validationType": "expression",
					"_id": "5a9528725d44d9001867f7d5",
					"category": "input_data",
					"dependentColumns": []
				}]
			}, {
				"code": "EXP_BONUS_APER_AU",
				"dataType": "double",
				"questionType": "double",
				"hidden": true,
				"validations": [{
					"mda": "",
					"parameter": "",
					"expression": "IF(this.EXP_COMP_AU <= 0) { r = \"\"; } else { r =100 * this.EMP_234 / this.EXP_COMP_AU; } r;",
					"errorType": "AUTOCORRECT",
					"validationType": "expression",
					"_id": "5a817d714029f900175c9c8e",
					"category": "input_data",
					"dependentColumns": []
				}]
			}, {
				"code": "EXP_COMM_APER",
				"dataType": "double",
				"questionType": "double",
				"hidden": true,
				"validations": [{
					"mda": "",
					"parameter": "",
					"expression": "IF(FIND_IN_SET(contextData.ctryCode,[\"AU\",\"NZ\"]) OR this.EXP_COMP1 <= 0) { r = \"\"; } else { r =100 * this.EMP_242 / this.EXP_COMP1; } r;",
					"errorType": "AUTOCORRECT",
					"validationType": "expression",
					"_id": "5a9528895d44d9001867f7d6",
					"category": "input_data",
					"dependentColumns": []
				}]
			}, {
				"code": "EXP_COMM_APER_AU",
				"dataType": "double",
				"questionType": "double",
				"hidden": true,
				"validations": [{
					"validationType": "expression",
					"errorType": "AUTOCORRECT",
					"expression": "IF(this.EXP_COMP_AU <= 0) { r = \"\"; } else { r =100 * this.EMP_242 / this.EXP_COMP_AU; } r;",
					"parameter": "",
					"mda": "",
					"_id": "5a817da28e8bc6001824ecf5",
					"category": "input_data",
					"dependentColumns": []
				}]
			}, {
				"code": "EXP_OTHBON_TPER_AU",
				"dataType": "double",
				"questionType": "double",
				"hidden": true,
				"validations": [{
					"validationType": "expression",
					"errorType": "AUTOCORRECT",
					"expression": "IF(this.EXP_COMP_AU <= 0) { r = \"\"; } else { r =100 * this.EMP_253 / this.EXP_COMP_AU; } r;",
					"parameter": "",
					"mda": "",
					"_id": "5a817dd18e8bc6001824ecf7",
					"category": "input_data",
					"dependentColumns": []
				}]
			}, {
				"code": "EXP_OTH_APER_AU",
				"dataType": "double",
				"questionType": "double",
				"hidden": true,
				"validations": [{
					"validationType": "expression",
					"errorType": "AUTOCORRECT",
					"expression": "IF(this.EXP_COMP_AU <= 0) { r = \"\"; } else { r =100 * this.OTH_ACT / this.EXP_COMP_AU; } r;",
					"parameter": "",
					"mda": "",
					"_id": "5a817efa4029f900175c9c94",
					"category": "input_data",
					"dependentColumns": []
				}]
			}, {
				"code": "EXP_STI_TGT_PRIOR_PERC_AU",
				"dataType": "double",
				"questionType": "double",
				"hidden": true,
				"validations": [{
					"validationType": "expression",
					"errorType": "AUTOCORRECT",
					"expression": "IF(this.EXP_COMP_AU <= 0) { r = \"\"; } else { r =100 * this.STI_TGT_PRIOR / this.EXP_COMP_AU; } r;",
					"parameter": "",
					"mda": "",
					"_id": "5a817e728e8bc6001824ecfd",
					"category": "input_data",
					"dependentColumns": []
				}]
			}, {
				"code": "EXP_STI_MAX_CURR_PERC_AU",
				"dataType": "double",
				"questionType": "double",
				"hidden": true,
				"validations": [{
					"validationType": "expression",
					"errorType": "AUTOCORRECT",
					"expression": "IF(this.EXP_COMP_AU <= 0) { r = \"\"; } else { r =100 * this.STI_MAX_CURR / this.EXP_COMP_AU; } r;",
					"parameter": "",
					"mda": "",
					"_id": "5a817e608e8bc6001824ecfb",
					"category": "input_data",
					"dependentColumns": []
				}]
			}, {
				"code": "EXP_SALCOM_APER_AU",
				"dataType": "double",
				"questionType": "double",
				"hidden": true,
				"validations": [{
					"validationType": "expression",
					"errorType": "AUTOCORRECT",
					"expression": "IF(this.EXP_COMP_AU <= 0) { r = \"\"; } else { r =100 * this.EMP_243 / this.EXP_COMP_AU; } r;",
					"parameter": "",
					"mda": "",
					"_id": "5a817e358e8bc6001824ecf9",
					"category": "input_data",
					"dependentColumns": []
				}]
			}, {
				"code": "EXP_SALCOM_TPER_AU",
				"dataType": "double",
				"questionType": "double",
				"hidden": true,
				"validations": [{
					"validationType": "expression",
					"errorType": "AUTOCORRECT",
					"expression": "IF(this.EXP_COMP_AU <= 0) { r = \"\"; } else { r =100 * this.EMP_246 / this.EXP_COMP_AU; } r;",
					"parameter": "",
					"mda": "",
					"_id": "5a817e484029f900175c9c90",
					"category": "input_data",
					"dependentColumns": []
				}]
			}, {
				"code": "EXP_HOL_ALLOW_PERC_AU",
				"dataType": "double",
				"questionType": "double",
				"hidden": true,
				"validations": [{
					"validationType": "expression",
					"errorType": "AUTOCORRECT",
					"expression": "IF(this.EXP_COMP_AU <= 0) { r = \"\"; } else { r =100 * this.EMP_165 / this.EXP_COMP_AU; } r;",
					"parameter": "",
					"mda": "",
					"_id": "5a817ee28e8bc6001824ed01",
					"category": "input_data",
					"dependentColumns": []
				}]
			}, {
				"code": "EXP_BONUS_OTH_PERC_AU",
				"dataType": "double",
				"questionType": "double",
				"hidden": true,
				"validations": [{
					"validationType": "expression",
					"errorType": "AUTOCORRECT",
					"expression": "IF(this.EXP_COMP_AU <= 0) { r = \"\"; } else { r =100 * this.EMP_250 / this.EXP_COMP_AU; } r;",
					"parameter": "",
					"mda": "",
					"_id": "5a817eb58e8bc6001824ecff",
					"category": "input_data",
					"dependentColumns": []
				}]
			}, {
				"code": "EXP_COMP3ACT",
				"dataType": "double",
				"questionType": "double",
				"hidden": true,
				"validations": [{
					"validationType": "expression",
					"errorType": "AUTOCORRECT",
					"expression": "this.EXP_COMP2 + NVL(this.EMP_234,0) + NVL(this.EMP_242,0) + NVL(this.EMP_243,0) + NVL(this.EMP_250,0) + NVL(this.EMP_251,0) / this.EXP_CURR_CONV + NVL(this.EMP_258,0) + NVL(this.EMP_259,0) + NVL(this.EMP_261,0) + NVL(this.EMP_264 * 12 ,0) + NVL(this.EMP_266,0) + NVL(this.EMP_269,0);",
					"parameter": "",
					"_id": "5a2a84162dbe8d00153710d2",
					"category": "input_data",
					"dependentColumns": []
				}]
			}, {
				"code": "EXP_CAR_MLEASE",
				"dataType": "double",
				"questionType": "double",
				"hidden": true,
				"validations": [{
					"mda": "",
					"parameter": "",
					"expression": "IF(ISBLANK(this.EMP_397)) {r=\"\";} else {r=NVL(this.EMP_397,0) / 12;} r;",
					"errorType": "AUTOCORRECT",
					"validationType": "expression",
					"_id": "5a940d87f9a16600170115e2",
					"category": "input_data",
					"dependentColumns": []
				}]
			}, {
				"code": "EXP_ANN_PACK",
				"dataType": "double",
				"questionType": "double",
				"hidden": true,
				"validations": [{
					"mda": "",
					"parameter": "",
					"expression": "IF(contextData.ctryCode == \"ZA\") { r = NVL(this.EMP_129,0) + NVL(this.EMP_138,0) + NVL(this.EMP_167,0) + NVL(this.EMP_185,0) + NVL(this.EMP_226,0) + NVL(this.EMP_303,0) + NVL(this.EMP_339,0) + NVL(this.EMP_371,0) + NVL(this.EMP_387,0); } else { r =0; } r;",
					"errorType": "AUTOCORRECT",
					"validationType": "expression",
					"_id": "5a7c20f321d708001878527f",
					"category": "input_data",
					"dependentColumns": []
				}]
			}, {
				"code": "EXP_LTIPLAN1",
				"dataType": "int",
				"questionType": "integer",
				"hidden": true,
				"validations": [{
					"_id": "5a7329a82bba61001854c8f7",
					"validationType": "expression",
					"errorType": "AUTOCORRECT",
					"expression": "IF(ISNOTBLANK(this.EMP_280) OR this.EMP_281 > 0) {r=1;} else {r=0;} r;",
					"parameter": "",
					"mda": "",
					"category": "input_data",
					"dependentColumns": []
				}]
			}, {
				"code": "EXP_LTIPLAN2",
				"dataType": "int",
				"questionType": "integer",
				"hidden": true,
				"validations": [{
					"_id": "5a7329c12bba61001854c8f8",
					"validationType": "expression",
					"errorType": "AUTOCORRECT",
					"expression": "IF(ISNOTBLANK(this.EMP_282) OR this.EMP_283 > 0) {r=1;} else {r=0;} r;",
					"parameter": "",
					"mda": "",
					"category": "input_data",
					"dependentColumns": []
				}]
			}, {
				"code": "EXP_LTIPLAN3",
				"dataType": "int",
				"questionType": "integer",
				"hidden": true,
				"validations": [{
					"_id": "5a7329cf6448a0001852ae55",
					"validationType": "expression",
					"errorType": "AUTOCORRECT",
					"expression": "IF(ISNOTBLANK(this.EMP_284) OR this.EMP_285 > 0) {r=1;} else {r=0;} r;",
					"parameter": "",
					"mda": "",
					"category": "input_data",
					"dependentColumns": []
				}]
			}, {
				"code": "EXP_LTIPLAN4",
				"dataType": "int",
				"questionType": "integer",
				"hidden": true,
				"validations": [{
					"mda": "",
					"parameter": "",
					"expression": "IF(ISNOTBLANK(this.EMP_286) OR this.EMP_287 > 0) {r=1;} else {r=0;} r;",
					"errorType": "AUTOCORRECT",
					"validationType": "expression",
					"_id": "5a732961239d550018a0f0d6",
					"category": "input_data",
					"dependentColumns": []
				}]
			}, {
				"code": "EXP_LTIPLAN5",
				"dataType": "int",
				"questionType": "integer",
				"hidden": true,
				"validations": [{
					"_id": "5a7329de6448a0001852ae56",
					"validationType": "expression",
					"errorType": "AUTOCORRECT",
					"expression": "IF(ISNOTBLANK(this.EMP_288) OR this.EMP_289 > 0) {r=1;} else {r=0;} r;",
					"parameter": "",
					"mda": "",
					"category": "input_data",
					"dependentColumns": []
				}]
			}, {
				"code": "EXP_LTI_EXISTS",
				"dataType": "int",
				"questionType": "integer",
				"hidden": true,
				"validations": [{
					"mda": "",
					"parameter": "",
					"expression": "NVL(this.EXP_LTIPLAN1,0) + NVL(this.EXP_LTIPLAN2,0) + NVL(this.EXP_LTIPLAN3,0) + NVL(this.EXP_LTIPLAN4,0) + NVL(this.EXP_LTIPLAN5,0);",
					"errorType": "AUTOCORRECT",
					"validationType": "expression",
					"_id": "5a732a25239d550018a0f0d7",
					"category": "input_data",
					"dependentColumns": []
				}]
			}, {
				"code": "YOUR_EEID",
				"dataType": "string",
				"questionType": "text",
				"hidden": false,
				"validations": [{
					"mda": "exclude_row",
					"parameter": "",
					"expression": "ISBLANK(this.YOUR_EEID);",
					"errorType": "ERROR",
					"validationType": "expression",
					"_id": "5a6c69823a51580018605a78",
					"category": "input_data",
					"dependentColumns": []
				}]
			}, {
				"code": "POS_CODE",
				"dataType": "string",
				"questionType": "text",
				"hidden": false,
				"validations": [{
					"mda": "",
					"parameter": "",
					"expression": "ISBLANK(this.YOUR_TITLE) AND ISBLANK(this.POS_CODE);",
					"errorType": "ERROR",
					"validationType": "expression",
					"_id": "5a8d3016250f150018acd80d",
					"category": "file_acceptance",
					"dependentColumns": []
				}]
			}, {
				"code": "POS_TITLE",
				"dataType": "string",
				"questionType": "text",
				"hidden": false,
				"validations": []
			}, {
				"code": "OLD_POSCODE",
				"dataType": "string",
				"questionType": "text",
				"hidden": false,
				"validations": []
			}, {
				"code": "OLD_POSTITLE",
				"dataType": "string",
				"questionType": "text",
				"hidden": false,
				"validations": []
			}, {
				"code": "LIBSPEC_FLAG1",
				"dataType": "string",
				"questionType": "dropdown",
				"hidden": false,
				"validations": [],
				"options": {
					"items": [{
						"value": "1101",
						"displayName": "< 4 Branches"
					}, {
						"value": "1102",
						"displayName": "4 to 8 Branches"
					}, {
						"value": "1103",
						"displayName": "9 to 12 Branches"
					}, {
						"value": "1104",
						"displayName": "> 12 Branches"
					}, {
						"value": "1201",
						"displayName": "Academic/Teaching and Learning"
					}, {
						"value": "1202",
						"displayName": "External Engagement"
					}, {
						"value": "1203",
						"displayName": "International"
					}, {
						"value": "1204",
						"displayName": "Research"
					}, {
						"value": "1205",
						"displayName": "Advancement"
					}, {
						"value": "1206",
						"displayName": "Indigenous Education"
					}, {
						"value": "1301",
						"displayName": "Acquisition Finance"
					}, {
						"value": "1302",
						"displayName": "Tax-Driven Financing"
					}, {
						"value": "1303",
						"displayName": "Project Advisory"
					}, {
						"value": "1304",
						"displayName": "Loan Workouts / Recoveries"
					}, {
						"value": "1305",
						"displayName": "Structuring/Advisory"
					}, {
						"value": "1401",
						"displayName": "Bakery"
					}, {
						"value": "1402",
						"displayName": "Dairy/Frozen Food"
					}, {
						"value": "1403",
						"displayName": "Dairy"
					}, {
						"value": "1404",
						"displayName": "Frozen Food"
					}, {
						"value": "1405",
						"displayName": "Deli/Bakery"
					}, {
						"value": "1406",
						"displayName": "Deli"
					}, {
						"value": "1407",
						"displayName": "Floral"
					}, {
						"value": "1408",
						"displayName": "General Merchandise/Health & Beauty Care"
					}, {
						"value": "1409",
						"displayName": "Meat"
					}, {
						"value": "1410",
						"displayName": "Produce"
					}, {
						"value": "1411",
						"displayName": "Seafood"
					}, {
						"value": "1501",
						"displayName": "Biology/Plant"
					}, {
						"value": "1502",
						"displayName": "Chemistry"
					}, {
						"value": "1503",
						"displayName": "Computer"
					}, {
						"value": "1504",
						"displayName": "Earth/Environment"
					}, {
						"value": "1505",
						"displayName": "Marine"
					}, {
						"value": "1506",
						"displayName": "Material"
					}, {
						"value": "1507",
						"displayName": "Medical"
					}, {
						"value": "1508",
						"displayName": "Physics"
					}, {
						"value": "1509",
						"displayName": "Public Health"
					}, {
						"value": "1601",
						"displayName": "Branch"
					}, {
						"value": "1602",
						"displayName": "Telesales"
					}, {
						"value": "1603",
						"displayName": "Corporates/Merchants"
					}, {
						"value": "1701",
						"displayName": "Commercial"
					}, {
						"value": "1702",
						"displayName": "Consumer"
					}, {
						"value": "1803",
						"displayName": "Private Banking/Private Client"
					}, {
						"value": "1902",
						"displayName": "Residential"
					}, {
						"value": "2001",
						"displayName": "Commission Only"
					}, {
						"value": "2002",
						"displayName": "Pay & Incentive"
					}, {
						"value": "2101",
						"displayName": "Consumer Loan"
					}, {
						"value": "2102",
						"displayName": "Commercial Loan"
					}, {
						"value": "2103",
						"displayName": "Residential Mortgage"
					}, {
						"value": "2104",
						"displayName": "Commercial Mortgage"
					}, {
						"value": "2201",
						"displayName": "Family Office"
					}, {
						"value": "2202",
						"displayName": "Institutional"
					}, {
						"value": "2204",
						"displayName": "Retail"
					}, {
						"value": "2301",
						"displayName": "General"
					}, {
						"value": "2302",
						"displayName": "General - In-Branch"
					}, {
						"value": "2303",
						"displayName": "General - Nonregistered"
					}, {
						"value": "2304",
						"displayName": "General - Out of Branch"
					}, {
						"value": "2305",
						"displayName": "General - Registered"
					}, {
						"value": "2306",
						"displayName": "Equities"
					}, {
						"value": "2402",
						"displayName": "Affinities"
					}, {
						"value": "2403",
						"displayName": "Life"
					}, {
						"value": "2404",
						"displayName": "Health"
					}, {
						"value": "2405",
						"displayName": "Pension/Retirement"
					}, {
						"value": "2406",
						"displayName": "Prime Broker"
					}, {
						"value": "2407",
						"displayName": "Property & Casualty"
					}, {
						"value": "2408",
						"displayName": "Property & Casualty - Low Risk"
					}, {
						"value": "2409",
						"displayName": "Property & Casualty - High Risk"
					}, {
						"value": "2410",
						"displayName": "Reinsurance"
					}, {
						"value": "2411",
						"displayName": "Surety"
					}, {
						"value": "2702",
						"displayName": "Chemical"
					}, {
						"value": "2704",
						"displayName": "Electrical"
					}, {
						"value": "2705",
						"displayName": "Mechanical"
					}, {
						"value": "2802",
						"displayName": "Civil"
					}, {
						"value": "2803",
						"displayName": "Area/Zone"
					}, {
						"value": "2804",
						"displayName": "Region"
					}, {
						"value": "2805",
						"displayName": "State"
					}, {
						"value": "2902",
						"displayName": "Consumer Banking"
					}, {
						"value": "2903",
						"displayName": "Premier Banking"
					}, {
						"value": "2905",
						"displayName": "Corporate Banking"
					}, {
						"value": "2906",
						"displayName": "Enterprise Banking"
					}, {
						"value": "2907",
						"displayName": "Transaction Services"
					}, {
						"value": "2908",
						"displayName": "Global Markets"
					}, {
						"value": "2909",
						"displayName": "Treasury Settlements"
					}, {
						"value": "2910",
						"displayName": "High Net Worth"
					}, {
						"value": "2911",
						"displayName": "Multi-Categories"
					}, {
						"value": "3002",
						"displayName": "Consumer Credit"
					}, {
						"value": "3003",
						"displayName": "Counterparty Credit"
					}, {
						"value": "3107",
						"displayName": "Commodity Finance"
					}, {
						"value": "3202",
						"displayName": "Corporate Credit Risk"
					}, {
						"value": "3203",
						"displayName": "Retail/Credit Risk"
					}, {
						"value": "3204",
						"displayName": "Multi-Disciplines"
					}, {
						"value": "3303",
						"displayName": "Equities - Cash"
					}, {
						"value": "3304",
						"displayName": "Equities - Derivatives"
					}, {
						"value": "3305",
						"displayName": "Fixed Income"
					}, {
						"value": "3306",
						"displayName": "Alternatives"
					}, {
						"value": "3307",
						"displayName": "Externally Managed Funds"
					}, {
						"value": "3308",
						"displayName": "Foreign Exchange"
					}, {
						"value": "3309",
						"displayName": "Index Funds/Passive Investments"
					}, {
						"value": "3310",
						"displayName": "Infrastructure/Project Finance"
					}, {
						"value": "3311",
						"displayName": "Mixed Assets/Asset Allocation"
					}, {
						"value": "3312",
						"displayName": "Money Market"
					}, {
						"value": "3313",
						"displayName": "Mortgages"
					}, {
						"value": "3314",
						"displayName": "Private Debt"
					}, {
						"value": "3315",
						"displayName": "Property"
					}, {
						"value": "3316",
						"displayName": "Private Equity"
					}, {
						"value": "3317",
						"displayName": "Quantitative Investments"
					}, {
						"value": "3504",
						"displayName": "Alternative Investments"
					}, {
						"value": "3506",
						"displayName": "Buy-Side"
					}, {
						"value": "3507",
						"displayName": "Sell-Side"
					}, {
						"value": "3605",
						"displayName": "Investment/Asset Management"
					}, {
						"value": "3606",
						"displayName": "Hedge Fund"
					}, {
						"value": "3807",
						"displayName": "Property & Casualty - Retail"
					}, {
						"value": "3808",
						"displayName": "Property & Casualty - Specialized"
					}, {
						"value": "4010",
						"displayName": "Major Market Corporate Banking"
					}, {
						"value": "4011",
						"displayName": "Middle Market Corporate Banking & Business Banking"
					}, {
						"value": "4012",
						"displayName": "Business Banking"
					}, {
						"value": "4018",
						"displayName": "Cards"
					}, {
						"value": "4108",
						"displayName": "Low Risk"
					}, {
						"value": "4109",
						"displayName": "High Risk"
					}, {
						"value": "4402",
						"displayName": "Multi-Products"
					}, {
						"value": "4403",
						"displayName": "Agency"
					}, {
						"value": "4406",
						"displayName": "Equities Cash - US"
					}, {
						"value": "4407",
						"displayName": "Equities Cash - Canadian"
					}, {
						"value": "4408",
						"displayName": "Equities Cash - Outside Canada"
					}, {
						"value": "4409",
						"displayName": "Equities Cash - International"
					}, {
						"value": "4410",
						"displayName": "Commodities"
					}, {
						"value": "4411",
						"displayName": "Corporates/Credit"
					}, {
						"value": "4412",
						"displayName": "Client/Desk/Sector"
					}, {
						"value": "4413",
						"displayName": "Derivatives"
					}, {
						"value": "4414",
						"displayName": "Emerging Markets"
					}, {
						"value": "4417",
						"displayName": "Futures & Options"
					}, {
						"value": "4418",
						"displayName": "Interest Rates"
					}, {
						"value": "4420",
						"displayName": "Municipals/Sovereigns"
					}, {
						"value": "4421",
						"displayName": "Prime Brokerage"
					}, {
						"value": "4422",
						"displayName": "Repo"
					}, {
						"value": "4423",
						"displayName": "Securitized Products"
					}, {
						"value": "4424",
						"displayName": "Treasury Products"
					}, {
						"value": "4522",
						"displayName": "EQ - Quantitative Investments"
					}, {
						"value": "4605",
						"displayName": "Equities Cash"
					}, {
						"value": "4606",
						"displayName": "Equities Derivatives"
					}, {
						"value": "4703",
						"displayName": "Debt Capital Markets"
					}, {
						"value": "4704",
						"displayName": "Equity Capital Markets"
					}, {
						"value": "4705",
						"displayName": "EQ - Derivatives"
					}, {
						"value": "4708",
						"displayName": "Governments/Sovereigns"
					}, {
						"value": "4709",
						"displayName": "Private Placement"
					}, {
						"value": "4711",
						"displayName": "Syndications"
					}, {
						"value": "4905",
						"displayName": "Middle Market Corporate Banking"
					}, {
						"value": "4907",
						"displayName": "Enterprise Banking - Small Business"
					}, {
						"value": "5003",
						"displayName": "Premier"
					}, {
						"value": "5101",
						"displayName": "Global"
					}, {
						"value": "5102",
						"displayName": "Regional"
					}, {
						"value": "5103",
						"displayName": "Country"
					}, {
						"value": "5201",
						"displayName": "Industrial"
					}, {
						"value": "5202",
						"displayName": "Commercial/Office"
					}, {
						"value": "5205",
						"displayName": "Community/Senior Living"
					}, {
						"value": "5206",
						"displayName": "Diversified"
					}, {
						"value": "5301",
						"displayName": "Liberal Arts"
					}, {
						"value": "5302",
						"displayName": "Economics & Business"
					}, {
						"value": "5303",
						"displayName": "Graduate Business School"
					}, {
						"value": "5304",
						"displayName": "Law"
					}, {
						"value": "5305",
						"displayName": "Education"
					}, {
						"value": "5306",
						"displayName": "Engineering"
					}, {
						"value": "5307",
						"displayName": "Science"
					}, {
						"value": "5309",
						"displayName": "Medicine"
					}, {
						"value": "5310",
						"displayName": "Architecture"
					}, {
						"value": "5311",
						"displayName": "Indigenous Studies"
					}, {
						"value": "5312",
						"displayName": "Sport"
					}, {
						"value": "5313",
						"displayName": "Technology"
					}, {
						"value": "5501",
						"displayName": "M&A"
					}, {
						"value": "5502",
						"displayName": "Restructuring"
					}, {
						"value": "5701",
						"displayName": "Mega"
					}, {
						"value": "5702",
						"displayName": ">50 staff"
					}, {
						"value": "5703",
						"displayName": "Large"
					}, {
						"value": "5704",
						"displayName": "26-50 staff"
					}, {
						"value": "5705",
						"displayName": "Medium"
					}, {
						"value": "5706",
						"displayName": "10-25 staff"
					}, {
						"value": "5707",
						"displayName": "Small"
					}, {
						"value": "5708",
						"displayName": "<10 staff"
					}, {
						"value": "5901",
						"displayName": "Multi-Functions"
					}, {
						"value": "5902",
						"displayName": "Leveraged Buyouts"
					}, {
						"value": "5903",
						"displayName": "Mezzanine Capital"
					}, {
						"value": "5904",
						"displayName": "Venture Capital"
					}, {
						"value": "5905",
						"displayName": "Expansion Capital"
					}, {
						"value": "5906",
						"displayName": "Distressed Securities"
					}, {
						"value": "6002",
						"displayName": "Housing Loans"
					}, {
						"value": "6003",
						"displayName": "Insurance"
					}, {
						"value": "6004",
						"displayName": "Unit Trusts"
					}, {
						"value": "6005",
						"displayName": "Treasury Product"
					}, {
						"value": "6006",
						"displayName": "Auto Finance"
					}, {
						"value": "6007",
						"displayName": "Fixed Deposits"
					}, {
						"value": "6008",
						"displayName": "Bonds"
					}, {
						"value": "6101",
						"displayName": "Organization Wide"
					}, {
						"value": "6107",
						"displayName": "Enterprise Banking - Medium Enterprise"
					}, {
						"value": "6108",
						"displayName": "Digital - Website"
					}, {
						"value": "6109",
						"displayName": "Digital - Mobile"
					}, {
						"value": "6110",
						"displayName": "Digital - Multi-Platforms"
					}, {
						"value": "6113",
						"displayName": "Credit Cards"
					}, {
						"value": "6119",
						"displayName": "Corporate Finance"
					}, {
						"value": "6128",
						"displayName": "Credit Card"
					}, {
						"value": "6129",
						"displayName": "Cash Management"
					}, {
						"value": "6303",
						"displayName": "Digital"
					}, {
						"value": "6403",
						"displayName": "Affluent"
					}, {
						"value": "6405",
						"displayName": "Ultra High Net Worth"
					}, {
						"value": "6406",
						"displayName": "Wholesale/Institutional"
					}, {
						"value": "6501",
						"displayName": "Ultra-Net-Worth"
					}, {
						"value": "6502",
						"displayName": "High-Net-Worth"
					}, {
						"value": "6601",
						"displayName": "UNHW"
					}, {
						"value": "6602",
						"displayName": "HNW"
					}, {
						"value": "6705",
						"displayName": "Retail - Branch"
					}, {
						"value": "6706",
						"displayName": "Retail - Telesales"
					}, {
						"value": "6707",
						"displayName": "Retail - Mobile"
					}, {
						"value": "6801",
						"displayName": "Upscale"
					}, {
						"value": "6802",
						"displayName": "Midscale"
					}, {
						"value": "6803",
						"displayName": "Economy"
					}, {
						"value": "6901",
						"displayName": "USD $500M - $1B"
					}, {
						"value": "6902",
						"displayName": "USD $1B - $2B"
					}, {
						"value": "6903",
						"displayName": "USD $2B - $5B"
					}, {
						"value": "6904",
						"displayName": "USD $5M - $1B"
					}, {
						"value": "9999",
						"displayName": "Not applicable"
					}]
				}
			}, {
				"code": "LIBSPEC_FLAG2",
				"dataType": "string",
				"questionType": "dropdown",
				"hidden": false,
				"validations": [],
				"options": {
					"items": [{
						"value": "1601",
						"displayName": "Branch"
					}, {
						"value": "1602",
						"displayName": "Telesales"
					}, {
						"value": "2202",
						"displayName": "Institutional"
					}, {
						"value": "2306",
						"displayName": "Equities"
					}, {
						"value": "2902",
						"displayName": "Consumer Banking"
					}, {
						"value": "2903",
						"displayName": "Premier Banking"
					}, {
						"value": "3305",
						"displayName": "Fixed Income"
					}, {
						"value": "3306",
						"displayName": "Alternatives"
					}, {
						"value": "3308",
						"displayName": "Foreign Exchange"
					}, {
						"value": "3309",
						"displayName": "Index Funds/Passive Investments"
					}, {
						"value": "3310",
						"displayName": "Infrastructure/Project Finance"
					}, {
						"value": "3311",
						"displayName": "Mixed Assets/Asset Allocation"
					}, {
						"value": "3313",
						"displayName": "Mortgages"
					}, {
						"value": "3314",
						"displayName": "Private Debt"
					}, {
						"value": "3315",
						"displayName": "Property"
					}, {
						"value": "3316",
						"displayName": "Private Equity"
					}, {
						"value": "4018",
						"displayName": "Cards"
					}, {
						"value": "4402",
						"displayName": "Multi-Products"
					}, {
						"value": "4403",
						"displayName": "Agency"
					}, {
						"value": "4406",
						"displayName": "Equities Cash - US"
					}, {
						"value": "4407",
						"displayName": "Equities Cash - Canadian"
					}, {
						"value": "4408",
						"displayName": "Equities Cash - Outside Canada"
					}, {
						"value": "4409",
						"displayName": "Equities Cash - International"
					}, {
						"value": "4410",
						"displayName": "Commodities"
					}, {
						"value": "4411",
						"displayName": "Corporates/Credit"
					}, {
						"value": "4413",
						"displayName": "Derivatives"
					}, {
						"value": "4414",
						"displayName": "Emerging Markets"
					}, {
						"value": "4417",
						"displayName": "Futures & Options"
					}, {
						"value": "4418",
						"displayName": "Interest Rates"
					}, {
						"value": "4420",
						"displayName": "Municipals/Sovereigns"
					}, {
						"value": "4421",
						"displayName": "Prime Brokerage"
					}, {
						"value": "4422",
						"displayName": "Repo"
					}, {
						"value": "4423",
						"displayName": "Securitized Products"
					}, {
						"value": "4424",
						"displayName": "Treasury Products"
					}, {
						"value": "6003",
						"displayName": "Insurance"
					}, {
						"value": "6005",
						"displayName": "Treasury Product"
					}, {
						"value": "7003",
						"displayName": "Mobile"
					}, {
						"value": "7101",
						"displayName": "Channel Strategy"
					}, {
						"value": "7102",
						"displayName": "Distribution"
					}, {
						"value": "7301",
						"displayName": "Economist"
					}, {
						"value": "7302",
						"displayName": "Policy"
					}, {
						"value": "7303",
						"displayName": "Quantitative"
					}, {
						"value": "7304",
						"displayName": "Strategy"
					}, {
						"value": "7417",
						"displayName": "Money Markets"
					}, {
						"value": "7422",
						"displayName": "Program"
					}, {
						"value": "7502",
						"displayName": "Agriculture"
					}, {
						"value": "7503",
						"displayName": "Charity/Non-Profit"
					}, {
						"value": "7504",
						"displayName": "Consumer Goods"
					}, {
						"value": "7507",
						"displayName": "Financial Institutions"
					}, {
						"value": "7508",
						"displayName": "Energy/Utilities"
					}, {
						"value": "7511",
						"displayName": "Financial Sponsors"
					}, {
						"value": "7514",
						"displayName": "Futures"
					}, {
						"value": "7515",
						"displayName": "Healthcare/Pharma/Biotech"
					}, {
						"value": "7517",
						"displayName": "Investment Products"
					}, {
						"value": "7518",
						"displayName": "Manufacturing"
					}, {
						"value": "7520",
						"displayName": "General Corporates"
					}, {
						"value": "7522",
						"displayName": "Technology/Media/Telecommunications"
					}, {
						"value": "7523",
						"displayName": "Secured Lending"
					}, {
						"value": "7524",
						"displayName": "Swaps & Derivatives"
					}, {
						"value": "7526",
						"displayName": "Unsecured Lending"
					}, {
						"value": "7527",
						"displayName": "Transportation"
					}, {
						"value": "7606",
						"displayName": "Emerging Market"
					}, {
						"value": "7628",
						"displayName": "Small/Mid-Cap"
					}, {
						"value": "7701",
						"displayName": "On-Shore"
					}, {
						"value": "7702",
						"displayName": "Off-Shore"
					}, {
						"value": "9999",
						"displayName": "Not applicable"
					}]
				}
			}, {
				"code": "LIBSPEC_FLAG3",
				"dataType": "string",
				"questionType": "dropdown",
				"hidden": false,
				"validations": [],
				"options": {
					"items": [{
						"value": "7701",
						"displayName": "On-Shore"
					}, {
						"value": "7702",
						"displayName": "Off-Shore"
					}, {
						"value": "8001",
						"displayName": "Business Development"
					}, {
						"value": "8002",
						"displayName": "Relationship Management"
					}, {
						"value": "9999",
						"displayName": "Not applicable"
					}]
				}
			}, {
				"code": "YOUR_TITLE",
				"dataType": "string",
				"questionType": "text",
				"hidden": false,
				"validations": []
			}, {
				"code": "YOUR_CODE",
				"dataType": "string",
				"questionType": "text",
				"hidden": false,
				"validations": []
			}, {
				"code": "YOUR_LEVEL",
				"dataType": "string",
				"questionType": "text",
				"hidden": false,
				"validations": []
			}, {
				"code": "YOUR_GRADE",
				"dataType": "string",
				"questionType": "text",
				"hidden": false,
				"validations": []
			}, {
				"code": "EMP_026",
				"dataType": "string",
				"questionType": "text",
				"hidden": false,
				"validations": []
			}, {
				"code": "POS_CLASS",
				"dataType": "int",
				"questionType": "integer",
				"hidden": false,
				"validations": [{
					"_id": "5a8d7815250f150018acd80e",
					"validationType": "expression",
					"errorType": "ERROR",
					"expression": "this.POS_CLASS < 40 OR this.POS_CLASS > 85;",
					"parameter": "",
					"mda": "exclude_row",
					"category": "input_data",
					"dependentColumns": []
				}]
			}, {
				"code": "EMP_032",
				"dataType": "double",
				"questionType": "double",
				"hidden": false,
				"validations": []
			}, {
				"code": "EMP_034",
				"dataType": "string",
				"questionType": "dropdown",
				"hidden": false,
				"validations": [],
				"options": {
					"items": [{
						"value": "1",
						"displayName": "Less than $250K"
					}, {
						"value": "2",
						"displayName": "$250K < $500K"
					}, {
						"value": "3",
						"displayName": "$500K < $1MM"
					}, {
						"value": "4",
						"displayName": "$1MM and above"
					}, {
						"value": "NA",
						"displayName": "Not applicable"
					}]
				}
			}, {
				"code": "EMP_036",
				"dataType": "string",
				"questionType": "dropdown",
				"hidden": false,
				"validations": [{
					"mda": "",
					"parameter": "",
					"expression": "ISBLANK(this.EMP_036);",
					"errorType": "ALERT",
					"validationType": "expression",
					"_id": "5a72c8fa0b0ff400170ce10a",
					"category": "input_data",
					"dependentColumns": []
				}],
				"options": {
					"items": [{
						"value": "10",
						"displayName": "Global"
					}, {
						"value": "20",
						"displayName": "Multiple regions"
					}, {
						"value": "30",
						"displayName": "Regional"
					}, {
						"value": "50",
						"displayName": "Multiple countries"
					}, {
						"value": "70",
						"displayName": "One country"
					}, {
						"value": "80",
						"displayName": "District within a country"
					}, {
						"value": "NA",
						"displayName": "Not applicable"
					}]
				}
			}, {
				"code": "EMP_037",
				"dataType": "int",
				"questionType": "integer",
				"hidden": false,
				"validations": [{
					"mda": "clear_value",
					"parameter": "",
					"expression": "current_year = YEAR(NOW());\n( current_year - NVL(this.EMP_037,0)) < LOOK_UP_CHECK(\"country\",\"CTX_CTRY_CODE = contextData.ctryCode\",\"AGE_HIRE_MIN\")\n OR this.EMP_037 < (current_year - 77);",
					"errorType": "ERROR",
					"validationType": "expression",
					"_id": "5a7c1fa821d7080018785279",
					"category": "input_data",
					"dependentColumns": []
				}]
			}, {
				"code": "EMP_038",
				"dataType": "int",
				"questionType": "integer",
				"hidden": false,
				"validations": [{
					"mda": "clear_value",
					"parameter": "",
					"expression": "current_year = YEAR(NOW());\n ISNOTBLANK(this.EMP_038) AND !(this.EMP_038 >= (current_year - 60) AND  this.EMP_038 <= (current_year));",
					"errorType": "ERROR",
					"validationType": "expression",
					"_id": "5a7c1fb274624000176b36f6",
					"category": "input_data",
					"dependentColumns": []
				}]
			}, {
				"code": "EMP_039",
				"dataType": "int",
				"questionType": "integer",
				"hidden": false,
				"validations": []
			}, {
				"code": "EMP_043",
				"dataType": "string",
				"questionType": "dropdown",
				"hidden": false,
				"validations": [],
				"options": {
					"items": [{
						"value": "Y",
						"displayName": "Yes"
					}, {
						"value": "N",
						"displayName": "No"
					}, {
						"value": "1",
						"displayName": "New Hire"
					}, {
						"value": "2",
						"displayName": "Same Position"
					}, {
						"value": "3",
						"displayName": "Promoted"
					}, {
						"value": "4",
						"displayName": "Demoted"
					}, {
						"value": "5",
						"displayName": "Lateral Move"
					}, {
						"value": "NA",
						"displayName": "Not applicable"
					}]
				}
			}, {
				"code": "EMP_044",
				"dataType": "string",
				"questionType": "dropdown",
				"hidden": false,
				"validations": [],
				"options": {
					"items": [{
						"value": "F",
						"displayName": "Female"
					}, {
						"value": "M",
						"displayName": "Male"
					}, {
						"value": "NB",
						"displayName": "Non-binary"
					}, {
						"value": "NA",
						"displayName": "Not applicable"
					}]
				}
			}, {
				"code": "EMP_049",
				"dataType": "string",
				"questionType": "text",
				"hidden": false,
				"validations": []
			}, {
				"code": "EMP_054",
				"dataType": "string",
				"questionType": "dropdown",
				"hidden": false,
				"validations": [],
				"options": {
					"items": [{
						"value": "1",
						"displayName": "Personal lines"
					}, {
						"value": "2",
						"displayName": "Commercial lines"
					}, {
						"value": "3",
						"displayName": "Multiple personal & commercial lines"
					}, {
						"value": "4",
						"displayName": "Industry based lines"
					}, {
						"value": "5",
						"displayName": "Specialty lines"
					}, {
						"value": "6",
						"displayName": "Other"
					}, {
						"value": "NA",
						"displayName": "Not applicable"
					}]
				}
			}, {
				"code": "EMP_055",
				"dataType": "string",
				"questionType": "dropdown",
				"hidden": false,
				"validations": [],
				"options": {
					"items": [{
						"value": "2",
						"displayName": "Auto"
					}, {
						"value": "1",
						"displayName": "Home"
					}, {
						"value": "3",
						"displayName": "Commercial Property"
					}, {
						"value": "4",
						"displayName": "Multiple"
					}, {
						"value": "5",
						"displayName": "Other"
					}, {
						"value": "NA",
						"displayName": "Not applicable"
					}]
				}
			}, {
				"code": "EMP_061",
				"dataType": "string",
				"questionType": "dropdown",
				"hidden": false,
				"validations": [],
				"options": {
					"items": [{
						"value": "Y",
						"displayName": "Yes"
					}, {
						"value": "N",
						"displayName": "No"
					}, {
						"value": "NA",
						"displayName": "Not applicable"
					}]
				}
			}, {
				"code": "EMP_096",
				"dataType": "string",
				"questionType": "dropdown",
				"hidden": false,
				"validations": [{
					"_id": "5a858b38085f8a001726a417",
					"validationType": "expression",
					"errorType": "ERROR",
					"expression": "(this.EMP_096 == \"N\" OR this.EMP_096 == \"Y\") AND this.EMP_117 == \"N\";",
					"parameter": "",
					"mda": "clear_value",
					"category": "input_data",
					"dependentColumns": []
				}, {
					"_id": "5a858b38085f8a001726a416",
					"validationType": "expression",
					"errorType": "ALERT",
					"expression": "this.EMP_117 == \"E\" AND ISBLANK(this.EMP_096) AND SUBSTR(this.POS_CODE,12,1) != \"E\";\n",
					"parameter": "",
					"mda": "",
					"category": "input_data",
					"dependentColumns": []
				}],
				"options": {
					"items": [{
						"value": "Y",
						"displayName": "Yes"
					}, {
						"value": "N",
						"displayName": "No"
					}, {
						"value": "NA",
						"displayName": "Not applicable"
					}]
				}
			}, {
				"code": "EMP_099",
				"dataType": "string",
				"questionType": "dropdown",
				"hidden": false,
				"validations": [],
				"options": {
					"items": [{
						"value": "1",
						"displayName": "Exceeded expectations"
					}, {
						"value": "2",
						"displayName": "Met expectations"
					}, {
						"value": "3",
						"displayName": "Below expectations"
					}, {
						"value": "NA",
						"displayName": "Not applicable"
					}]
				}
			}, {
				"code": "EMP_100",
				"dataType": "string",
				"questionType": "dropdown",
				"hidden": false,
				"validations": [],
				"options": {
					"items": [{
						"value": "1",
						"displayName": "Less"
					}, {
						"value": "2",
						"displayName": "Equal"
					}, {
						"value": "3",
						"displayName": "More"
					}, {
						"value": "NA",
						"displayName": "Not applicable"
					}]
				}
			}, {
				"code": "EMP_116",
				"dataType": "string",
				"questionType": "dropdown",
				"hidden": false,
				"validations": [],
				"options": {
					"items": [{
						"value": "1",
						"displayName": "Retail"
					}, {
						"value": "2",
						"displayName": "Float management"
					}, {
						"value": "3",
						"displayName": "Private banking"
					}, {
						"value": "4",
						"displayName": "Corporate trust"
					}, {
						"value": "5",
						"displayName": "Institutional trust"
					}, {
						"value": "6",
						"displayName": "Personal trust operations"
					}, {
						"value": "7",
						"displayName": "Wholesale lending"
					}, {
						"value": "8",
						"displayName": "ACH"
					}, {
						"value": "9",
						"displayName": "Wire transfer"
					}, {
						"value": "10",
						"displayName": "Mortgage servicing - foreclosure/Bankruptcy"
					}, {
						"value": "11",
						"displayName": "Mortgage servicing - escrow/Real estate tax services"
					}, {
						"value": "12",
						"displayName": "Mortgage servicing - lien release/Post closing"
					}, {
						"value": "13",
						"displayName": "Mortgage retail - centralized/distributed production"
					}, {
						"value": "14",
						"displayName": "Mortgage servicing - Real estate owned (REO)"
					}, {
						"value": "15",
						"displayName": "Mortgage servicing - Cash management"
					}, {
						"value": "16",
						"displayName": "Mortgage servicing - sales & acquisitions"
					}, {
						"value": "17",
						"displayName": "Mortgage - wholesale - centralized"
					}, {
						"value": "18",
						"displayName": "Mortgage - wholesale - subprime - centralized"
					}, {
						"value": "19",
						"displayName": "Mortgage - wholesale - branch"
					}, {
						"value": "20",
						"displayName": "Business banking"
					}, {
						"value": "21",
						"displayName": "Consumer lending"
					}, {
						"value": "22",
						"displayName": "Commercial lending and middle market lending"
					}, {
						"value": "23",
						"displayName": "Wholesale banking"
					}, {
						"value": "24",
						"displayName": "Wholesale lock box"
					}, {
						"value": "25",
						"displayName": "Retail lock box"
					}, {
						"value": "NA",
						"displayName": "Not applicable"
					}]
				}
			}, {
				"code": "EMP_117",
				"dataType": "string",
				"questionType": "dropdown",
				"hidden": false,
				"validations": [{
					"mda": "",
					"parameter": "",
					"expression": "ISBLANK(this.EMP_117) AND SUBSTR(this.POS_CODE,12,1) != \"E\";",
					"errorType": "ALERT",
					"validationType": "expression",
					"_id": "5a858a9e74fc2e0018550c0c",
					"category": "input_data",
					"dependentColumns": []
				}, {
					"mda": "clear_value",
					"parameter": "",
					"expression": "(this.EMP_117 == \"E\" OR this.EMP_117 == \"N\" ) AND SUBSTR(this.POS_CODE,12,1) == \"E\";",
					"errorType": "ERROR",
					"validationType": "expression",
					"_id": "5a858a9e74fc2e0018550c0b",
					"category": "input_data",
					"dependentColumns": []
				}],
				"options": {
					"items": [{
						"value": "E",
						"displayName": "Exempt"
					}, {
						"value": "N",
						"displayName": "Nonexempt"
					}, {
						"value": "NA",
						"displayName": "Not applicable"
					}]
				}
			}, {
				"code": "EMP_118",
				"dataType": "string",
				"questionType": "dropdown",
				"hidden": false,
				"validations": [],
				"options": {
					"items": [{
						"value": "1",
						"displayName": "Consumer lending"
					}, {
						"value": "2",
						"displayName": "Mortgage"
					}, {
						"value": "NA",
						"displayName": "Not applicable"
					}]
				}
			}, {
				"code": "EMP_119",
				"dataType": "string",
				"questionType": "dropdown",
				"hidden": false,
				"validations": [],
				"options": {
					"items": [{
						"value": "1",
						"displayName": "Traditional direct consumer finance"
					}, {
						"value": "2",
						"displayName": "Traditional indirect consumer finance"
					}, {
						"value": "3",
						"displayName": "Auto finance and leasing"
					}, {
						"value": "4",
						"displayName": "Credit card"
					}, {
						"value": "5",
						"displayName": "Home equity/real estate"
					}, {
						"value": "NA",
						"displayName": "Not applicable"
					}]
				}
			}, {
				"code": "EMP_122",
				"dataType": "string",
				"questionType": "dropdown",
				"hidden": false,
				"validations": [],
				"options": {
					"items": [{
						"value": "A",
						"displayName": "Annual"
					}, {
						"value": "H",
						"displayName": "Hourly"
					}, {
						"value": "NA",
						"displayName": "Not applicable"
					}]
				}
			}, {
				"code": "EMP_123",
				"dataType": "double",
				"questionType": "double",
				"hidden": false,
				"validations": [{
					"mda": "clear_value",
					"minError": 30,
					"validationType": "range",
					"_id": "59f1939d1b74370015235855",
					"category": "input_data",
					"dependentColumns": []
				}]
			}, {
				"code": "HOURLY_RATE",
				"dataType": "double",
				"questionType": "double",
				"hidden": false,
				"validations": []
			}, {
				"code": "EMP_129",
				"dataType": "double",
				"questionType": "double",
				"hidden": false,
				"validations": [{
					"mda": "exclude_row",
					"parameter": "",
					"expression": "FIND_IN_SET(contextData.ctryCode,[\"AT\",\"BE\",\"BG\",\"CH\",\"CZ\",\"DE\",\"DK\",\"EE\",\"ES\",\"FI\",\"FR\",\"GB\",\"GR\",\"HR\",\"HU\",\"IE\",\"IT\",\"KZ\",\"LT\",\"LV\",\"NL\",\"NO\",\"PL\",\"PT\",\"RO\",\"RS\",\"RU\",\"SE\",\"SI\",\"SK\",\"TR\",\"UA\"]) AND ISBLANK(this.EMP_125) AND ISBLANK(this.EMP_129);",
					"errorType": "ERROR",
					"validationType": "expression",
					"_id": "5a7444ee239d550018a0f0e0",
					"category": "input_data",
					"dependentColumns": []
				}, {
					"_id": "5a575abc648a740017e233b8",
					"validationType": "expression",
					"errorType": "ALERT",
					"expression": "ratio = 100*(this.EMP_129 /  this.EMP_131);\nEXP_SALINFLATION = NVL(LOOK_UP_CHECK(\"country\",\"CTX_CTRY_CODE = contextData.ctryCode\",\"SALARY_INFLATION\"),0);\n\n(this.EMP_042 == \"N\" OR ISBLANK(this.EMP_042))\n AND this.EMP_131 > 0 AND  this.EMP_129 > 0 \n AND ( (ratio  - 100) < -5   OR ( (ratio - 100) > (EXP_SALINFLATION * 100 + 20 )) ) ;",
					"parameter": "",
					"category": "input_data",
					"dependentColumns": []
				}, {
					"mda": "exclude_row",
					"parameter": "",
					"expression": "ISBLANK(this.EMP_129) AND ISBLANK(this.EMP_130);",
					"errorType": "ERROR",
					"validationType": "expression",
					"_id": "5a7444ee239d550018a0f0de",
					"category": "input_data",
					"dependentColumns": []
				}, {
					"_id": "5a7447e72bba61001854c909",
					"validationType": "expression",
					"errorType": "ERROR",
					"expression": "ISBLANK(this.HOURLY_RATE) AND ISBLANK(this.EMP_129);",
					"parameter": "",
					"mda": "exclude_row",
					"category": "input_data",
					"dependentColumns": []
				}, {
					"_id": "5a95587d4727b800178be0a0",
					"validationType": "expression",
					"errorType": "ERROR",
					"expression": "ISBLANK(this.EMP_125) AND ISBLANK(this.EMP_129) AND ISBLANK(this.EMP_130) AND ISBLANK(this.HOURLY_RATE);",
					"parameter": "",
					"mda": "",
					"category": "file_acceptance",
					"dependentColumns": []
				}, {
					"_id": "5a9822a8ba2b6200189ff732",
					"validationType": "expression",
					"errorType": "ALERT",
					"expression": "this.EMP_125 > 0 AND this.EMP_129 > 0 AND this.EMP_128 > 0 AND ABS((ROUND(this.EMP_129,0) - ROUND(this.EMP_125 * this.EMP_128,0)) / ROUND(this.EMP_129,0)) > 0.01;",
					"parameter": "",
					"mda": "",
					"category": "input_data",
					"dependentColumns": []
				}]
			}, {
				"code": "EMP_134",
				"dataType": "double",
				"questionType": "double",
				"hidden": false,
				"validations": [{
					"_id": "5a6f138cdfea58001867f08f",
					"validationType": "sequentialCheck",
					"category": "input_data",
					"dependentColumns": ["EMP_134", "EMP_135", "EMP_136"]
				}]
			}, {
				"code": "EMP_136",
				"dataType": "double",
				"questionType": "double",
				"hidden": false,
				"validations": []
			}, {
				"code": "EMP_233",
				"dataType": "string",
				"questionType": "dropdown",
				"hidden": false,
				"validations": [{
					"_id": "5a058e356462600015da0b77",
					"validationType": "eligibility",
					"category": "input_data",
					"dependentColumns": ["EMP_234", "EMP_235", "EMP_236", "EMP_237", "EMP_238", "EMP_239", "EMP_258"]
				}, {
					"mda": "",
					"parameter": "",
					"expression": "this.EMP_233 == \"Y\" AND this.EMP_240 == \"Y\";",
					"errorType": "ALERT",
					"validationType": "expression",
					"_id": "5a955a694727b800178be0a3",
					"category": "input_data",
					"dependentColumns": []
				}],
				"options": {
					"items": [{
						"value": "Y",
						"displayName": "Yes"
					}, {
						"value": "N",
						"displayName": "No"
					}, {
						"value": "NA",
						"displayName": "Not applicable"
					}]
				}
			}, {
				"code": "EMP_239",
				"dataType": "double",
				"questionType": "percentage",
				"hidden": false,
				"validations": [{
					"parameter": "",
					"expression": "r1=0;\nvalue1 = 100 *(this.EMP_234 / this.EMP_129);\nIF(ISBLANK(this.EMP_234) OR ISBLANK(this.EMP_239) OR ISBLANK(this.EMP_129)) \n{r1=false;}\nELSE\n{IF(ROUND(value1,1) < ROUND(this.EMP_239,1))\n{r1=true;}\nELSE\n{r1=false;} \n}\nr1;",
					"errorType": "ALERT",
					"validationType": "expression",
					"_id": "5a04267223212300164a48b1",
					"category": "input_data",
					"dependentColumns": []
				}]
			}, {
				"code": "EMP_236",
				"dataType": "double",
				"questionType": "percentage",
				"hidden": false,
				"validations": [{
					"mda": "clear_value",
					"minError": 0.6,
					"validationType": "range",
					"_id": "5a704ef30819f80017f0d08e",
					"category": "input_data",
					"dependentColumns": []
				}, {
					"parameter": "",
					"expression": "this.EMP_236 == this.EMP_244;",
					"errorType": "ALERT",
					"validationType": "expression",
					"_id": "5a097c1c60e31c00142a91a4",
					"category": "input_data",
					"dependentColumns": []
				}, {
					"mda": "",
					"parameter": "",
					"expression": "CAREER_STREAM = SUBSTR( this.POS_CODE,12,1); \n\nIF(CAREER_STREAM == \"E\")\n{ VALUE = 125; } \nELSE IF(CAREER_STREAM== \"M\")\n{ VALUE = 50; } \nELSE { VALUE = 40; }\n\nthis.EMP_236 > VALUE;",
					"errorType": "ALERT",
					"validationType": "expression",
					"_id": "5a955b9e21ed3b00186ae7bc",
					"category": "input_data",
					"dependentColumns": []
				}, {
					"mda": "",
					"parameter": "",
					"expression": "ROUND(this.EMP_236,0) > ROUND(this.EMP_238,0);",
					"errorType": "ALERT",
					"validationType": "expression",
					"_id": "5a955b9e21ed3b00186ae7bb",
					"category": "input_data",
					"dependentColumns": []
				}, {
					"mda": "",
					"parameter": "",
					"expression": "CAREER_STREAM = SUBSTR( this.POS_CODE,12,1); \n\nIF(CAREER_STREAM == \"E\")\n{ VALUE = 8; } \nELSE IF(FIND_IN_SET(CAREER_STREAM,[\"M\",\"P\"]))\n{ VALUE = 4; } \nELSE { VALUE = 2; }\n\nthis.EMP_236 < VALUE AND this.EMP_236 > 0.6;",
					"errorType": "ALERT",
					"validationType": "expression",
					"_id": "5a955b9e21ed3b00186ae7ba",
					"category": "input_data",
					"dependentColumns": []
				}]
			}, {
				"code": "EMP_238",
				"dataType": "double",
				"questionType": "percentage",
				"hidden": false,
				"validations": [{
					"_id": "5a704ed10819f80017f0d08d",
					"validationType": "range",
					"minError": 1.2,
					"mda": "clear_value",
					"category": "input_data",
					"dependentColumns": []
				}, {
					"parameter": "",
					"expression": "r1=0;\nvalue1 = 100*(this.EMP_234 / this.EMP_129);\nvalue2 = 1.1 * this.EMP_238;\n\nIF(ISBLANK(this.EMP_234) OR ISBLANK(this.EMP_238) OR ISBLANK(this.EMP_129)) \n{r1=false;}\nELSE\n{IF(value1>value2)\n{r1=true;}\nELSE\n{r1=false;}}\nr1;",
					"errorType": "ALERT",
					"validationType": "expression",
					"_id": "5a04264f23212300164a48b0",
					"category": "input_data",
					"dependentColumns": []
				}, {
					"_id": "5a33e24369693a0015a753c7",
					"validationType": "expression",
					"errorType": "ALERT",
					"expression": "CAREER_STREAM = SUBSTR( this.POS_CODE,12,1); \n\nIF(CAREER_STREAM == \"E\")\n{ VALUE = 250; } \nELSE IF(CAREER_STREAM== \"M\")\n{ VALUE = 100; } \nELSE { VALUE = 80; }\n\nthis.EMP_238 > VALUE;",
					"parameter": "",
					"category": "input_data",
					"dependentColumns": []
				}, {
					"mda": "",
					"parameter": "",
					"expression": "CAREER_STREAM = SUBSTR( this.POS_CODE,12,1); \n\nIF(CAREER_STREAM == \"E\")\n{ VALUE = 8; } \nELSE IF(FIND_IN_SET(CAREER_STREAM,[\"M\",\"P\"]))\n{ VALUE = 4; } \nELSE { VALUE = 2; }\n\nthis.EMP_238 < VALUE AND this.EMP_238 > 1.2;",
					"errorType": "ALERT",
					"validationType": "expression",
					"_id": "5a7061ae0819f80017f0d0a3",
					"category": "input_data",
					"dependentColumns": []
				}]
			}, {
				"code": "EMP_234",
				"dataType": "double",
				"questionType": "double",
				"hidden": false,
				"validations": [{
					"mda": "",
					"parameter": "",
					"expression": "(this.EMP_234 == this.EMP_242) AND (this.EMP_234 > 0 AND this.EMP_242 > 0);",
					"errorType": "ALERT",
					"validationType": "expression",
					"_id": "5a9516ac5d44d9001867f7b4",
					"category": "input_data",
					"dependentColumns": []
				}, {
					"_id": "5a99735001694c0018730669",
					"validationType": "expression",
					"errorType": "ERROR",
					"expression": "ERROR_MIN_AU = NVL(LOOK_UP_CHECK(\"ops_career_stream_bonact_perc_au_nz\",\"CTX_CTRY_CODE = contextData.ctryCode AND CAREER_STREAM = this.CAREER_STREAM AND CAREER_LEVEL = this.CAREER_LEVEL\",\"ERROR_MIN\"),-999999999);\n\nERROR_MIN = NVL(LOOK_UP_CHECK(\"ops_career_stream_bonact_perc\",\"CTX_CTRY_CODE = contextData.ctryCode AND CAREER_STREAM = this.CAREER_STREAM AND CAREER_LEVEL = this.CAREER_LEVEL\",\"ERROR_MIN\"),-999999999);\n\nthis.EXP_BONUS_APER < ERROR_MIN\nOR\nthis.EXP_BONUS_APER_AU < ERROR_MIN_AU;",
					"parameter": "",
					"mda": "clear_value",
					"category": "input_data",
					"dependentColumns": []
				}, {
					"_id": "5a99735001694c0018730668",
					"validationType": "expression",
					"errorType": "ERROR",
					"expression": "ERROR_MAX_AU = NVL(LOOK_UP_CHECK(\"ops_career_stream_bonact_perc_au_nz\",\"CTX_CTRY_CODE = contextData.ctryCode AND CAREER_STREAM = this.CAREER_STREAM AND CAREER_LEVEL = this.CAREER_LEVEL\",\"ERROR_MAX\"),999999999);\n\nERROR_MAX = NVL(LOOK_UP_CHECK(\"ops_career_stream_bonact_perc\",\"CTX_CTRY_CODE = contextData.ctryCode AND CAREER_STREAM = this.CAREER_STREAM AND CAREER_LEVEL = this.CAREER_LEVEL\",\"ERROR_MAX\"),999999999);\n\nthis.EXP_BONUS_APER > ERROR_MAX\nOR\nthis.EXP_BONUS_APER_AU > ERROR_MAX_AU;",
					"parameter": "",
					"mda": "clear_value",
					"category": "input_data",
					"dependentColumns": []
				}, {
					"_id": "5a99735001694c0018730667",
					"validationType": "expression",
					"errorType": "ALERT",
					"expression": "ERROR_MIN_AU = NVL(LOOK_UP_CHECK(\"ops_career_stream_bonact_perc_au_nz\",\"CTX_CTRY_CODE = contextData.ctryCode AND CAREER_STREAM = this.CAREER_STREAM AND CAREER_LEVEL = this.CAREER_LEVEL\",\"ERROR_MIN\"),-999999999);\n\nALERT_MIN_AU = NVL(LOOK_UP_CHECK(\"ops_career_stream_bonact_perc_au_nz\",\"CTX_CTRY_CODE = contextData.ctryCode AND CAREER_STREAM = this.CAREER_STREAM AND CAREER_LEVEL = this.CAREER_LEVEL\",\"ALERT_MIN\"),-999999999);\n\nALERT_MIN = NVL(LOOK_UP_CHECK(\"ops_career_stream_bonact_perc\",\"CTX_CTRY_CODE = contextData.ctryCode AND CAREER_STREAM = this.CAREER_STREAM AND CAREER_LEVEL = this.CAREER_LEVEL\",\"ALERT_MIN\"),-999999999);\n\nERROR_MIN = NVL(LOOK_UP_CHECK(\"ops_career_stream_bonact_perc\",\"CTX_CTRY_CODE = contextData.ctryCode AND CAREER_STREAM = this.CAREER_STREAM AND CAREER_LEVEL = this.CAREER_LEVEL\",\"ERROR_MIN\"),-999999999);\n\nthis.EXP_BONUS_APER >= ERROR_MIN AND this.EXP_BONUS_APER <  ALERT_MIN\nOR\nthis.EXP_BONUS_APER_AU < ALERT_MIN_AU AND this.EXP_BONUS_APER_AU >= ERROR_MIN_AU;",
					"parameter": "",
					"mda": "",
					"category": "input_data",
					"dependentColumns": []
				}, {
					"_id": "5a99735001694c0018730666",
					"validationType": "expression",
					"errorType": "ALERT",
					"expression": "ERROR_MAX_AU = NVL(LOOK_UP_CHECK(\"ops_career_stream_bonact_perc_au_nz\",\"CTX_CTRY_CODE = contextData.ctryCode AND CAREER_STREAM = this.CAREER_STREAM AND CAREER_LEVEL = this.CAREER_LEVEL\",\"ERROR_MAX\"),999999999);\n\nALERT_MAX_AU = NVL(LOOK_UP_CHECK(\"ops_career_stream_bonact_perc_au_nz\",\"CTX_CTRY_CODE = contextData.ctryCode AND CAREER_STREAM = this.CAREER_STREAM AND CAREER_LEVEL = this.CAREER_LEVEL\",\"ALERT_MAX\"),999999999);\n\nALERT_MAX = NVL(LOOK_UP_CHECK(\"ops_career_stream_bonact_perc\",\"CTX_CTRY_CODE = contextData.ctryCode AND CAREER_STREAM = this.CAREER_STREAM AND CAREER_LEVEL = this.CAREER_LEVEL\",\"ALERT_MAX\"),999999999);\n\nERROR_MAX = NVL(LOOK_UP_CHECK(\"ops_career_stream_bonact_perc\",\"CTX_CTRY_CODE = contextData.ctryCode AND CAREER_STREAM = this.CAREER_STREAM AND CAREER_LEVEL = this.CAREER_LEVEL\",\"ERROR_MAX\"),999999999);\n\nthis.EXP_BONUS_APER > ALERT_MAX AND this.EXP_BONUS_APER <=  ERROR_MAX\nOR\nthis.EXP_BONUS_APER_AU > ALERT_MAX_AU AND this.EXP_BONUS_APER_AU <= ERROR_MAX_AU;",
					"parameter": "",
					"mda": "",
					"category": "input_data",
					"dependentColumns": []
				}]
			}, {
				"code": "EMP_273",
				"dataType": "string",
				"questionType": "dropdown",
				"hidden": false,
				"validations": [],
				"options": {
					"items": [{
						"value": "1",
						"displayName": "Performance goals not achieved"
					}, {
						"value": "2",
						"displayName": "New employee"
					}, {
						"value": "3",
						"displayName": "Payout amount not available"
					}, {
						"value": "4",
						"displayName": "Plan design change"
					}, {
						"value": "5",
						"displayName": "Other"
					}, {
						"value": "NA",
						"displayName": "Not applicable"
					}]
				}
			}, {
				"code": "EMP_240",
				"dataType": "string",
				"questionType": "dropdown",
				"hidden": false,
				"validations": [{
					"validationType": "eligibility",
					"_id": "5a378153279b290016dd01e9",
					"category": "input_data",
					"dependentColumns": ["EMP_242", "EMP_244", "EMP_245", "EMP_246", "EMP_247", "EMP_248"]
				}],
				"options": {
					"items": [{
						"value": "Y",
						"displayName": "Yes"
					}, {
						"value": "N",
						"displayName": "No"
					}, {
						"value": "NA",
						"displayName": "Not applicable"
					}]
				}
			}, {
				"code": "EMP_244",
				"dataType": "double",
				"questionType": "percentage",
				"hidden": false,
				"validations": [{
					"_id": "5a0426e223212300164a48b4",
					"validationType": "expression",
					"errorType": "ALERT",
					"expression": "r1=0;\nvalue1 = 100*(this.EMP_242 / this.EMP_129);\nIF(ISBLANK(this.EMP_242) OR ISBLANK(this.EMP_244) OR ISBLANK(this.EMP_129)) \n{r1=false;}\nELSE\n{IF(ABS(value1- this.EMP_244) <= 0.1)\n{r1=true;}\nELSE\n{r1=false;} \n}\nr1;",
					"parameter": "",
					"category": "input_data",
					"dependentColumns": []
				}, {
					"mda": "clear_value",
					"minError": 0.6,
					"minAlert": 4,
					"maxAlert": 125,
					"validationType": "range",
					"_id": "5a5ca23f15136400184a422b",
					"category": "input_data",
					"dependentColumns": []
				}]
			}, {
				"code": "EMP_242",
				"dataType": "double",
				"questionType": "double",
				"hidden": false,
				"validations": [{
					"parameter": "",
					"expression": "r1=0;\nvalue1 = 100*(this.EMP_242/ this.EMP_129);\nvalue2 = 1.01 * this.EMP_247;\n\nIF(ISBLANK(this.EMP_242) OR ISBLANK(this.EMP_247) OR ISBLANK(this.EMP_129)) \n{r1=false;}\nELSE\n{IF(value1>value2)\n{r1=true;}\nELSE\n{r1=false;} \n}\nr1;",
					"errorType": "ALERT",
					"validationType": "expression",
					"_id": "5a0426b423212300164a48b3",
					"category": "input_data",
					"dependentColumns": []
				}, {
					"parameter": "",
					"expression": "r1=0;\nvalue1 = 100*(this.EMP_242 / this.EMP_129);\nIF(ISBLANK(this.EMP_242) OR ISBLANK(this.EMP_244) OR ISBLANK(this.EMP_129)) \n{r1=false;}\nELSE\n{IF(ABS(value1- this.EMP_244)<=0.1)\n{r1=true;}\nELSE\n{r1=false;}\n}\nr1;",
					"errorType": "ALERT",
					"validationType": "expression",
					"_id": "5a0426b423212300164a48b2",
					"category": "input_data",
					"dependentColumns": []
				}, {
					"mda": "clear_value",
					"parameter": "",
					"expression": "ERROR_MIN_AU = NVL(LOOK_UP_CHECK(\"ops_career_stream_commact_perc_au_nz\",\"CTX_CTRY_CODE = contextData.ctryCode AND CAREER_STREAM = this.CAREER_STREAM AND CAREER_LEVEL = this.CAREER_LEVEL\",\"ERROR_MIN\"),-999999999);\n\nERROR_MIN = NVL(LOOK_UP_CHECK(\"ops_career_stream_commact_perc\",\"CTX_CTRY_CODE = contextData.ctryCode AND CAREER_STREAM = this.CAREER_STREAM AND CAREER_LEVEL = this.CAREER_LEVEL\",\"ERROR_MIN\"),-999999999);\n\nthis.EXP_COMM_APER < ERROR_MIN\nOR\nthis.EXP_COMM_APER_AU < ERROR_MIN_AU;",
					"errorType": "ERROR",
					"validationType": "expression",
					"_id": "5a997302f933be0017a187c9",
					"category": "input_data",
					"dependentColumns": []
				}, {
					"mda": "clear_value",
					"parameter": "",
					"expression": "ERROR_MAX_AU = NVL(LOOK_UP_CHECK(\"ops_career_stream_commact_perc_au_nz\",\"CTX_CTRY_CODE = contextData.ctryCode AND CAREER_STREAM = this.CAREER_STREAM AND CAREER_LEVEL = this.CAREER_LEVEL\",\"ERROR_MAX\"),999999999);\n\nERROR_MAX = NVL(LOOK_UP_CHECK(\"ops_career_stream_commact_perc\",\"CTX_CTRY_CODE = contextData.ctryCode AND CAREER_STREAM = this.CAREER_STREAM AND CAREER_LEVEL = this.CAREER_LEVEL\",\"ERROR_MAX\"),999999999);\n\nthis.EXP_COMM_APER > ERROR_MAX\nOR\nthis.EXP_COMM_APER_AU > ERROR_MAX_AU;",
					"errorType": "ERROR",
					"validationType": "expression",
					"_id": "5a997302f933be0017a187c8",
					"category": "input_data",
					"dependentColumns": []
				}, {
					"mda": "",
					"parameter": "",
					"expression": "ERROR_MIN_AU = NVL(LOOK_UP_CHECK(\"ops_career_stream_commact_perc_au_nz\",\"CTX_CTRY_CODE = contextData.ctryCode AND CAREER_STREAM = this.CAREER_STREAM AND CAREER_LEVEL = this.CAREER_LEVEL\",\"ERROR_MIN\"),-999999999);\n\nALERT_MIN_AU = NVL(LOOK_UP_CHECK(\"ops_career_stream_commact_perc_au_nz\",\"CTX_CTRY_CODE = contextData.ctryCode AND CAREER_STREAM = this.CAREER_STREAM AND CAREER_LEVEL = this.CAREER_LEVEL\",\"ALERT_MIN\"),-999999999);\n\nALERT_MIN = NVL(LOOK_UP_CHECK(\"ops_career_stream_commact_perc\",\"CTX_CTRY_CODE = contextData.ctryCode AND CAREER_STREAM = this.CAREER_STREAM AND CAREER_LEVEL = this.CAREER_LEVEL\",\"ALERT_MIN\"),-999999999);\n\nERROR_MIN = NVL(LOOK_UP_CHECK(\"ops_career_stream_commact_perc\",\"CTX_CTRY_CODE = contextData.ctryCode AND CAREER_STREAM = this.CAREER_STREAM AND CAREER_LEVEL = this.CAREER_LEVEL\",\"ERROR_MIN\"),-999999999);\n\nthis.EXP_COMM_APER >= ERROR_MIN AND this.EXP_COMM_APER <  ALERT_MIN\nOR\nthis.EXP_COMM_APER_AU < ALERT_MIN_AU AND this.EXP_COMM_APER_AU >= ERROR_MIN_AU;",
					"errorType": "ALERT",
					"validationType": "expression",
					"_id": "5a997302f933be0017a187c7",
					"category": "input_data",
					"dependentColumns": []
				}, {
					"mda": "",
					"parameter": "",
					"expression": "ERROR_MAX_AU = NVL(LOOK_UP_CHECK(\"ops_career_stream_commact_perc_au_nz\",\"CTX_CTRY_CODE = contextData.ctryCode AND CAREER_STREAM = this.CAREER_STREAM AND CAREER_LEVEL = this.CAREER_LEVEL\",\"ERROR_MAX\"),999999999);\n\nALERT_MAX_AU = NVL(LOOK_UP_CHECK(\"ops_career_stream_commact_perc_au_nz\",\"CTX_CTRY_CODE = contextData.ctryCode AND CAREER_STREAM = this.CAREER_STREAM AND CAREER_LEVEL = this.CAREER_LEVEL\",\"ALERT_MAX\"),999999999);\n\nALERT_MAX = NVL(LOOK_UP_CHECK(\"ops_career_stream_commact_perc\",\"CTX_CTRY_CODE = contextData.ctryCode AND CAREER_STREAM = this.CAREER_STREAM AND CAREER_LEVEL = this.CAREER_LEVEL\",\"ALERT_MAX\"),999999999);\n\nERROR_MAX = NVL(LOOK_UP_CHECK(\"ops_career_stream_commact_perc\",\"CTX_CTRY_CODE = contextData.ctryCode AND CAREER_STREAM = this.CAREER_STREAM AND CAREER_LEVEL = this.CAREER_LEVEL\",\"ERROR_MAX\"),999999999);\n\nthis.EXP_COMM_APER > ALERT_MAX AND this.EXP_COMM_APER <=  ERROR_MAX\nOR\nthis.EXP_COMM_APER_AU > ALERT_MAX_AU AND this.EXP_COMM_APER_AU <= ERROR_MAX_AU;",
					"errorType": "ALERT",
					"validationType": "expression",
					"_id": "5a997302f933be0017a187c6",
					"category": "input_data",
					"dependentColumns": []
				}]
			}, {
				"code": "EMP_114",
				"dataType": "string",
				"questionType": "dropdown",
				"hidden": false,
				"validations": [{
					"parameter": "",
					"expression": "ISBLANK(this.EMP_114)\nAND\nSUBSTR(this.POS_CODE,1,3) == \"SMP\"\nAND\nthis.EMP_240 == \"Y\"\nAND\nthis.EMP_242 == 0;",
					"errorType": "ALERT",
					"validationType": "expression",
					"_id": "5a04247223212300164a48af",
					"category": "input_data",
					"dependentColumns": []
				}],
				"options": {
					"items": [{
						"value": "1",
						"displayName": "Performance goals not achieved"
					}, {
						"value": "2",
						"displayName": "New employee"
					}, {
						"value": "3",
						"displayName": "Payout amount not available"
					}, {
						"value": "4",
						"displayName": "Plan design change"
					}, {
						"value": "5",
						"displayName": "Other"
					}, {
						"value": "NA",
						"displayName": "Not applicable"
					}]
				}
			}, {
				"code": "EMP_260",
				"dataType": "string",
				"questionType": "dropdown",
				"hidden": false,
				"validations": [{
					"_id": "5a37dd1fdb3b970016150fd9",
					"validationType": "eligibility",
					"category": "input_data",
					"dependentColumns": ["EMP_261", "EMP_262"]
				}],
				"options": {
					"items": [{
						"value": "Y",
						"displayName": "Yes"
					}, {
						"value": "N",
						"displayName": "No"
					}, {
						"value": "NA",
						"displayName": "Not applicable"
					}]
				}
			}, {
				"code": "EMP_261",
				"dataType": "double",
				"questionType": "double",
				"hidden": false,
				"validations": [{
					"mda": "clear_value",
					"_id": "5a268fbb2565f500154a5965",
					"validationType": "rangeValidationRefTable",
					"referenceTableName": "ops_audit_ly_poscode_profitact",
					"category": "input_data",
					"dependentColumns": []
				}]
			}, {
				"code": "EMP_278",
				"dataType": "string",
				"questionType": "dropdown",
				"hidden": false,
				"validations": [{
					"_id": "5a97c05bba419a0018dc2f7f",
					"validationType": "expression",
					"errorType": "ALERT",
					"expression": "this.EMP_278 == \"N\" AND this.EXP_LTI_EXISTS > 0;",
					"parameter": "",
					"mda": "",
					"category": "input_data",
					"dependentColumns": []
				}, {
					"_id": "5a97c05bba419a0018dc2f7e",
					"validationType": "expression",
					"errorType": "ALERT",
					"expression": "this.EMP_278 == \"Y\" AND this.EXP_LTI_EXISTS == 0;",
					"parameter": "",
					"mda": "",
					"category": "input_data",
					"dependentColumns": []
				}],
				"options": {
					"items": [{
						"value": "Y",
						"displayName": "Yes"
					}, {
						"value": "N",
						"displayName": "No"
					}, {
						"value": "NA",
						"displayName": "Not applicable"
					}]
				}
			}, {
				"code": "EMP_279",
				"dataType": "string",
				"questionType": "text",
				"hidden": false,
				"validations": []
			}, {
				"code": "EMP_280",
				"dataType": "string",
				"questionType": "text",
				"hidden": false,
				"validations": [{
					"mda": "",
					"parameter": "",
					"expression": "ISBLANK(this.EMP_280) AND this.EMP_281 > 0;",
					"errorType": "ALERT",
					"validationType": "expression",
					"_id": "5a97c412ba419a0018dc2f80",
					"category": "input_data",
					"dependentColumns": []
				}]
			}, {
				"code": "EMP_281",
				"dataType": "double",
				"questionType": "double",
				"hidden": false,
				"validations": [{
					"mda": "",
					"parameter": "",
					"expression": "ISBLANK(this.EMP_281) AND ISNOTBLANK(this.EMP_280);",
					"errorType": "ALERT",
					"validationType": "expression",
					"_id": "5a97c508ba419a0018dc2f81",
					"category": "input_data",
					"dependentColumns": []
				}]
			}, {
				"code": "EMP_282",
				"dataType": "string",
				"questionType": "text",
				"hidden": false,
				"validations": [{
					"mda": "",
					"parameter": "",
					"expression": "ISBLANK(this.EMP_282) AND this.EMP_283 > 0;",
					"errorType": "ALERT",
					"validationType": "expression",
					"_id": "5a97c52fba2b6200189ff6ec",
					"category": "input_data",
					"dependentColumns": []
				}]
			}, {
				"code": "EMP_283",
				"dataType": "double",
				"questionType": "double",
				"hidden": false,
				"validations": [{
					"mda": "",
					"parameter": "",
					"expression": "ISBLANK(this.EMP_283) AND ISNOTBLANK(this.EMP_282);",
					"errorType": "ALERT",
					"validationType": "expression",
					"_id": "5a97c54cba419a0018dc2f82",
					"category": "input_data",
					"dependentColumns": []
				}]
			}, {
				"code": "EMP_284",
				"dataType": "string",
				"questionType": "text",
				"hidden": false,
				"validations": [{
					"mda": "",
					"parameter": "",
					"expression": "ISBLANK(this.EMP_284) AND this.EMP_285 > 0;",
					"errorType": "ALERT",
					"validationType": "expression",
					"_id": "5a97c56e07495a0017f64d51",
					"category": "input_data",
					"dependentColumns": []
				}]
			}, {
				"code": "EMP_285",
				"dataType": "double",
				"questionType": "double",
				"hidden": false,
				"validations": [{
					"mda": "",
					"parameter": "",
					"expression": "ISBLANK(this.EMP_285) AND ISNOTBLANK(this.EMP_284);",
					"errorType": "ALERT",
					"validationType": "expression",
					"_id": "5a97c583ba419a0018dc2f83",
					"category": "input_data",
					"dependentColumns": []
				}]
			}, {
				"code": "EMP_290",
				"dataType": "string",
				"questionType": "dropdown",
				"hidden": false,
				"validations": [],
				"options": {
					"items": [{
						"value": "Y",
						"displayName": "Yes"
					}, {
						"value": "N",
						"displayName": "No"
					}, {
						"value": "NA",
						"displayName": "Not applicable"
					}]
				}
			}, {
				"code": "SYSTEM_EXCLUDE_EMPLOYEE",
				"dataType": "string",
				"questionType": "text",
				"hidden": false,
				"validations": []
			}, {
				"code": "CLIENT_EXCLUDE_EMPLOYEE",
				"dataType": "string",
				"questionType": "text",
				"hidden": false,
				"validations": []
			}]
		}
	}]
}