{
  "entities": [
    {
      "data": [
        {
          "YOUR_EEID": "1",
          "ANNUAL_BASE": "123456",
          "email_address": "false",
          "phone_number": "1999-10-11",
          "POS_CODE": "abc"
        },
        {
          "YOUR_EEID": "2",
          "ANNUAL_BASE": "",
          "email_address": "true",
          "phone_number": "a",
          "POS_CODE": ""
        },
        {
          "YOUR_EEID": "2",
          "ANNUAL_BASE": null,
          "email_address": null,
          "phone_number": null,
          "POS_CODE": null
        }
      ],
      "sectionStructure": {
        "columns": [
          {
            "code": "YOUR_EEID",
            "displayLabel": "Employee Identifier",
            "dataType": "int",
            "questionType": "integer",
            "validations": []
          },
          {
            "code": "ANNUAL_BASE",
            "displayLabel": "Organisation Job Title",
            "dataType": "int",
            "questionType": "text",
            "validations": [
              {
                "parameter": "",
                "expression": "ISBLANK(this.ANNUAL_BASE);",
                "clientInstructions": "Please provide Annual Base Salary",
                "errorType": "ERROR",
                "message": "Annual Base Salary is blank",
                "validationType": "expression",
                "_id": "59e91b14a811920015bcd533",
                "category": "input_data",
                "dependentColumns": []
              },
              {
                "parameter": "",
                "expression": "this.ANNUAL_BASE * 2;",
                "clientInstructions": "Please provide Annual Base Salary",
                "errorType": "AUTOCORRECT",
                "message": "Annual Base Salary is blank",
                "validationType": "expression",
                "_id": "59e91b14a811920015bcd533",
                "category": "input_data",
                "dependentColumns": []
              }
            ]
          },
          {
            "code": "email_address",
            "displayLabel": "Email address",
            "dataType": "boolean",
            "questionType": "boolean",
            "validations": [
              {
                "parameter": "",
                "expression": "this.email_address != true;",
                "clientInstructions": "Please provide Annual Base Salary",
                "errorType": "ERROR",
                "message": "Annual Base Salary is blank",
                "validationType": "expression",
                "_id": "59e91b14a811920015bcd533",
                "category": "input_data",
                "dependentColumns": []
              }
            ]
          },
          {
            "code": "phone_number",
            "displayLabel": "Phone number",
            "dataType": "date",
            "questionType": "text",
            "validations": [
              {
                "parameter": "",
                "expression": "ISBLANK(this.phone_number);",
                "clientInstructions": "Please provide Annual Base Salary",
                "errorType": "ERROR",
                "message": "Annual Base Salary is blank",
                "validationType": "expression",
                "_id": "59e91b14a811920015bcd533",
                "category": "input_data",
                "dependentColumns": []
              },
              {
                "parameter": "",
                "expression": "TO_DATE(this.phone_number,\"yyyy-MM-dd\");",
                "clientInstructions": "Please provide Annual Base Salary",
                "errorType": "AUTOCORRECT",
                "message": "Annual Base Salary is blank",
                "validationType": "expression",
                "_id": "59e91b14a811920015bcd533",
                "category": "input_data",
                "dependentColumns": []
              }
            ]
          },
          {
            "code": "POS_CODE",
            "displayLabel": "Employee Identifier",
            "dataType": "string",
            "questionType": "double",
            "validations": [
              {
                "parameter": "",
                "expression": "ISBLANK(this.POS_CODE);",
                "clientInstructions": "Please provide Annual Base Salary",
                "errorType": "ERROR",
                "message": "Annual Base Salary is blank",
                "validationType": "expression",
                "_id": "59e91b14a811920015bcd533",
                "category": "input_data",
                "dependentColumns": []
              }
            ]
          }
        ]
      },
      "otherSectionsData": {},
      "contextData": {
        "campaignId": "59d3529c5b76fa37047c9e9e",
        "companyId": "59d354203a69612314ecd67a",
        "sectionId": "incumbent_data",
        "grpCode": "",
        "cpyCode": "",
        "ctryCode": "BY",
        "uniqueIdColumnCode": "YOUR_EEID",
        "industry": {
          "superSector": "EN",
          "sector": "143",
          "subSector": "1210"
        }
      }
    }
  ]
}