{
  "entities": [
    {
     "contextData": {
			"campaignId": "59d3529c5b76fa37047c9e9e",
			"companyId": "59d354203a69612314ecd67a",
			"sectionId": "incumbent_data",
			"grpCode": "",
			"cpyCode": "",
			"ctryCode": "BY",
			"uniqueIdColumnCode": "YOUR_EEID",
			"industry": {
				"superSector": "EN",
				"sector": "143",
				"subSector": "1210"
			}
		},
      "sectionStructure":{  
           "columns":[  
                     {  
                        "code":"question1",
                        "displayLabel":"Question 1 display label",
                        "dataType":"int",
                        "dimensions":[  
                           "ques1",
                           "ques2",
                           "ques3"
                        ],
                        "questionType":"integer",
                        "validations":[  
						{
							"parameter": "",
							"expression": "this.question1.ques3 > 2;",
							"clientInstructions": "Please provide Annual Base Salary",
							"errorType": "AUTOCORRECT",
							"message": "Annual Base Salary is blank",
							"validationType": "expression",
							"_id": "59e91b14a811920015bcd533",
							"category": "input_data",
							"dependentColumns": []
						  }
                        ]
                     },
                     {  
                        "code":"question2",
                        "displayLabel":"Question 1 display label",
                        "dataType":"int",
                        "dimensions":[  
                           "ques1",
                           "ques2",
                           "ques3"
                        ],
                        "questionType":"integer",
                        "validations":[
                        ]
                     }
                  ]
               },
               "data":[  
                  {  
                     "$$id":"58d0360baa2ae02cc4723431",
                     "YOUR_EEID":"1",
                     "question1":{  
                        "ques1":"10",
                        "ques2":"20",
                        "ques3":"4"
                     },
                      "question2":{  
                        "ques1":"9",
                        "ques2":"10",
                        "ques3":"-2"
                     },
                     "EMP006":"EMP_006"
                  },
                  {  
                     "$$id":"58d03653aa2ae02cc4723432",
                     "YOUR_EEID":"2",
                     "question1":"15",
                     "question2":"20",
                     "EMP006":"EMP_006"
                  }
               ]
            }
			]
}