timeStamp,elapsed,label,responseCode,threadName,success,bytes,grpThreads,allThreads,Latency,SampleCount,ErrorCount,Hostname,Connect
1512659675900,1022,NoFileUpload B17_PE7033,500,Thread Group_Prod1 1-1,false,1901,1,1,1020,1,1,INFPU07042,332
1512659676923,797,NoFileUpload B18_PE7314,500,Thread Group_Prod1 1-1,false,1765,1,1,796,1,1,INFPU07042,250
1512659677807,761,NoFileUpload B17_PE7044_expression,500,Thread Group_Prod1 1-1,false,1765,1,1,760,1,1,INFPU07042,252
1512659678569,1009,NoFileUpload B17_PE7044_range,500,Thread Group_Prod1 1-1,false,1770,1,1,1008,1,1,INFPU07042,249
1512659679667,1013,NoFileUpload B17_PE7044_rangeValidationRefTable,500,Thread Group_Prod1 1-1,false,1770,1,1,1013,1,1,INFPU07042,250
1512659680736,1034,NoFileUpload B17_PE7044_rangeValidationRefTable_dimensions,500,Thread Group_Prod1 1-1,false,1752,1,1,1034,1,1,INFPU07042,254
1512659681851,761,NoFileUpload B17_PE7631,200,Thread Group_Prod1 1-1,true,818,1,1,761,1,0,INFPU07042,251
1512659682645,259,NoFileUpload B17_PE7631_metaData,200,Thread Group_Prod1 1-1,true,590,1,1,259,1,0,INFPU07042,0
1512659682929,262,NoFileUpload B17_PE7631_metaData,200,Thread Group_Prod1 1-1,true,590,1,1,262,1,0,INFPU07042,0
1512659683222,260,NoFileUpload B17_PE7631_Autocorrect,200,Thread Group_Prod1 1-1,true,828,1,1,259,1,0,INFPU07042,0
1512659683513,563,FileUpload D10_PE5216,200,Thread Group_Prod1 1-1,true,1364,1,1,563,1,0,INFPU07042,0
1512659684164,1494,FileUpload D11_PE6030,200,Thread Group_Prod1 1-1,true,3265,1,1,1493,1,0,INFPU07042,254
1512659685735,559,FileUpload D12_PE6027,200,Thread Group_Prod1 1-1,true,2163,1,1,558,1,0,INFPU07042,0
1512659686349,1788,FileUpload D12_PE7611,500,Thread Group_Prod1 1-1,false,7258,1,1,1785,1,1,INFPU07042,251
1512659688159,2175,FileUpload D12_PE7611,500,Thread Group_Prod1 1-1,false,7258,1,1,2174,1,1,INFPU07042,253
1512659690380,2016,FileUpload D12_PE7611,500,Thread Group_Prod1 1-1,false,7258,1,1,2013,1,1,INFPU07042,250
1512659692431,1787,FileUpload D12_PE7611,500,Thread Group_Prod1 1-1,false,7258,1,1,1785,1,1,INFPU07042,252
1512659694255,1784,FileUpload D12_PE7611,500,Thread Group_Prod1 1-1,false,7258,1,1,1782,1,1,INFPU07042,252
1512659696078,2032,FileUpload D12_PE7611,500,Thread Group_Prod1 1-1,false,7258,1,1,2029,1,1,INFPU07042,251
1512659698153,1851,FileUpload D12_PE7611,500,Thread Group_Prod1 1-1,false,7258,1,1,1848,1,1,INFPU07042,259
1512659700042,1782,FileUpload D12_PE7611,500,Thread Group_Prod1 1-1,false,7258,1,1,1779,1,1,INFPU07042,251
1512659701855,2054,FileUpload D12_PE7611,500,Thread Group_Prod1 1-1,false,7258,1,1,2051,1,1,INFPU07042,253
1512659703948,1773,FileUpload D12_PE7611,500,Thread Group_Prod1 1-1,false,7258,1,1,1771,1,1,INFPU07042,250
1512659705752,2214,FileUpload D13_PE5691_1Record,500,Thread Group_Prod1 1-1,false,7258,1,1,2214,1,1,INFPU07042,252
1512659707999,2478,FileUpload D15_PE5691_1Record,500,Thread Group_Prod1 1-1,false,7258,1,1,2475,1,1,INFPU07042,325
1512659710478,2042,FileUpload D16_PE7071_1Record,500,Thread Group_Prod1 1-1,false,7258,1,1,2039,1,1,INFPU07042,252
1512659712558,1987,FileUpload D17_PE7071_1Record,500,Thread Group_Prod1 1-1,false,7180,1,1,1984,1,1,INFPU07042,246
1512659714596,1782,FileUpload D18_PE7071_1Record,500,Thread Group_Prod1 1-1,false,7180,1,1,1779,1,1,INFPU07042,252
1512659716415,1792,FileUpload D20_PE7071_1Record,500,Thread Group_Prod1 1-1,false,7180,1,1,1789,1,1,INFPU07042,253
1512659718225,744,NoFileUpload B24_PE7474_Testcase1,500,Thread Group_Prod1 1-1,false,1772,1,1,742,1,1,INFPU07042,245
1512659719008,764,NoFileUpload B24_PE7474_Testcase2,500,Thread Group_Prod1 1-1,false,1772,1,1,762,1,1,INFPU07042,252
1512659719812,756,NoFileUpload B24_PE7474_Testcase3,500,Thread Group_Prod1 1-1,false,1772,1,1,755,1,1,INFPU07042,250
1512659720591,759,NoFileUpload B24_PE7474_Testcase4,500,Thread Group_Prod1 1-1,false,1772,1,1,757,1,1,INFPU07042,250
1512659721389,764,NoFileUpload B24_PE7474_Testcase5,500,Thread Group_Prod1 1-1,false,1772,1,1,763,1,1,INFPU07042,252
1512659722190,743,NoFileUpload B24_PE7474_Testcase6,500,Thread Group_Prod1 1-1,false,1772,1,1,742,1,1,INFPU07042,245
1512659722977,5560,FileUpload D12_PE7474,500,Thread Group_Prod1 1-1,false,8269,1,1,5557,1,1,INFPU07042,251
1512659728569,816,NoFileUpload B21_7045RawJson_NonNumerciData,200,Thread Group_Prod1 1-1,false,722,1,1,815,1,1,INFPU07042,249
1512659729439,253,NoFileUpload B21_7045RawJson_SkipBlankCols,200,Thread Group_Prod1 1-1,false,652,1,1,252,1,1,INFPU07042,0
1512659729705,254,NoFileUpload B21_7045RawJson_SkipNonNumericCols,200,Thread Group_Prod1 1-1,false,717,1,1,253,1,1,INFPU07042,0
1512659729988,253,NoFileUpload B21_7045RawJson_WithDimesion,200,Thread Group_Prod1 1-1,false,717,1,1,253,1,1,INFPU07042,0
1512659730291,254,NoFileUpload B21_7045RawJson_SingleNonBlankValue,200,Thread Group_Prod1 1-1,false,651,1,1,253,1,1,INFPU07042,0
1512659730574,751,NoFileUpload B21_7045RawJson_WithOtherValidation,200,Thread Group_Prod1 1-1,false,850,1,1,751,1,1,INFPU07042,249
1512659731362,262,FileUpload D20_PE7045_7045CSV_SimpleSequentialCheck,500,Thread Group_Prod1 1-1,false,8571,1,1,259,1,1,INFPU07042,0
1512659731669,1016,FileUpload D20_PE7045_7045Excel_SimpleSequentialCheck,500,Thread Group_Prod1 1-1,false,8571,1,1,1012,1,1,INFPU07042,247
1512659732748,752,FileUpload D20_PE7045_7045CSV_SkipBlankColumn,500,Thread Group_Prod1 1-1,false,8571,1,1,749,1,1,INFPU07042,248
1512659733536,1051,FileUpload D20_PE7045_7045EXCEL_SkipBlankColumn,500,Thread Group_Prod1 1-1,false,8571,1,1,1048,1,1,INFPU07042,251
1512659734624,913,FileUpload D20_PE7045_7045CSV_SkipNonNumericData,500,Thread Group_Prod1 1-1,false,8571,1,1,909,1,1,INFPU07042,255
1512659735579,1191,FileUpload D20_PE7045_7045EXCEL_SkipNonNumericData,500,Thread Group_Prod1 1-1,false,8571,1,1,1187,1,1,INFPU07042,251
