timeStamp,elapsed,label,responseCode,threadName,success,bytes,grpThreads,allThreads,Latency,SampleCount,ErrorCount,Hostname,Connect
1519024928217,98,FileUpload F1_PE-8157_Ignore,200,Thread Group_Prod1 1-1,false,6270,1,1,97,1,1,infpu013335,4
1519024928326,30,FileUpload F1_PE-8110_ErrorCell,200,Thread Group_Prod1 1-1,true,1524,1,1,30,1,0,infpu013335,0
1519024928383,224,FileUpload F2_PE-8110_ErrorCell_Ignore,422,Thread Group_Prod1 1-1,false,651304,1,1,169,1,1,infpu013335,0
1519024928638,134,FileUpload F3_PE-8110_ErrorCell_Ignore,400,Thread Group_Prod1 1-1,false,357,1,1,134,1,1,infpu013335,0
1519024928789,22,FileUpload F4_PE-5678_SequentialWithOtherValidations,200,Thread Group_Prod1 1-1,true,5424,1,1,21,1,0,infpu013335,2
1519024928822,14,NoFileUpload N1_PE-5678_LOOK_UP_CHECK1,200,Thread Group_Prod1 1-1,false,2319,1,1,14,1,1,infpu013335,0
1519024928844,12,NoFileUpload N1_PE-5678_SequentialWithOtherValidations,200,Thread Group_Prod1 1-1,true,2019,1,1,12,1,0,infpu013335,0
1519024928864,10,NoFileUpload N2_PE-5678_SequentialWithOtherValidations,200,Thread Group_Prod1 1-1,true,1960,1,1,9,1,0,infpu013335,0
1519024928889,91,"NoFileUpload_Null Validation_crossSectionChecks_LPALL_566 is """"",200,Thread Group_Prod1 1-1,true,35986,1,1,87,1,0,infpu013335,0
1519024929020,77,NoFileUpload_Null Validation_crossSectionChecks_LPALL_566 is null,200,Thread Group_Prod1 1-1,true,35988,1,1,74,1,0,infpu013335,0
1519024929124,126,"NoFileUpload_Null Validation_crossSectionChecks_LPALL_566 is ""null""",200,Thread Group_Prod1 1-1,true,36202,1,1,121,1,0,infpu013335,0
1519024929287,84,"NoFileUpload_Null Validation_crossSectionChecks_LPALL_566 is ""   """,200,Thread Group_Prod1 1-1,true,35987,1,1,81,1,0,infpu013335,0
1519024929401,7,NoFileUpload N3_PE-7172MDA,200,Thread Group_Prod1 1-1,true,2142,1,1,6,1,0,infpu013335,0
1519024929426,11,FileUpload F5_PE7172_Fix,200,Thread Group_Prod1 1-1,false,4430,1,1,10,1,1,infpu013335,0
1519024929446,15,NoFileUpload N4_PE-8032MDA,200,Thread Group_Prod1 1-1,true,2142,1,1,14,1,0,infpu013335,0
1519024929480,26,NoFileUpload N5_PE-8070,200,Thread Group_Prod1 1-1,false,930,1,1,26,1,1,infpu013335,0
1519024929514,11,NoFileUpload N73_PE5668 T2_Temp,200,Thread Group_Prod1 1-1,true,729,1,1,11,1,0,infpu013335,0
1519024929533,7,NoFileUpload N74_PE5668 T3_Temp,200,Thread Group_Prod1 1-1,true,1138,1,1,7,1,0,infpu013335,0
1519024929548,8,NoFileUpload N75_PE5668 T4_Temp,200,Thread Group_Prod1 1-1,true,933,1,1,8,1,0,infpu013335,0
1519024929563,8,NoFileUpload N76_PE5668 T5_Temp,200,Thread Group_Prod1 1-1,true,1116,1,1,8,1,0,infpu013335,0
1519024929579,8,NoFileUpload N78_PE5668 T7_Temp,200,Thread Group_Prod1 1-1,true,932,1,1,8,1,0,infpu013335,0
1519024929594,8,NoFileUpload N79_PE5668 T8_Temp,200,Thread Group_Prod1 1-1,true,729,1,1,8,1,0,infpu013335,0
1519024929609,43,FileUpload F6_PE-7257_US_CSV_Shuffle,200,Thread Group_Prod1 1-1,false,5750,1,1,42,1,1,infpu013335,0
1519024929681,78,FileUpload F7_PE-7257_US_Excel_Shuffle,200,Thread Group_Prod1 1-1,false,9432,1,1,77,1,1,infpu013335,0
1519024929805,68,NoFileUpload N6_PE7978,200,Thread Group_Prod1 1-1,true,35835,1,1,65,1,0,infpu013335,0
1519024929884,11,NoFileUpload N7_PE7954,200,Thread Group_Prod1 1-1,true,915,1,1,11,1,0,infpu013335,0
1519024929902,8,NoFileUpload N77_PE5668 T6,200,Thread Group_Prod1 1-1,true,941,1,1,8,1,0,infpu013335,0
1519024929917,6,FileUpload F8_PE7999_Ignore since files are identical,422,Thread Group_Prod1 1-1,false,1235,1,1,6,1,1,infpu013335,0
1519024929931,7,NoFileUpload N8_ PE7795,200,Thread Group_Prod1 1-1,true,1117,1,1,7,1,0,infpu013335,0
1519024929946,14,NoFileUpload N9_PE7046_AU_Comp2,200,Thread Group_Prod1 1-1,true,1600,1,1,14,1,0,infpu013335,0
1519024929968,15,NoFileUpload N10_PE7046_US_Comp1,200,Thread Group_Prod1 1-1,true,1596,1,1,15,1,0,infpu013335,0
1519024929991,13,NoFileUpload N11_PE7046_IN_Comp1,200,Thread Group_Prod1 1-1,true,1596,1,1,13,1,0,infpu013335,0
1519024930012,16,NoFileUpload N12_PE7046_ZA_Comp2,200,Thread Group_Prod1 1-1,true,1600,1,1,16,1,0,infpu013335,0
1519024930036,24,NoFileUpload N13_PE7773_NUM_EMP is 7_Fix,200,Thread Group_Prod1 1-1,false,2796,1,1,23,1,1,infpu013335,0
1519024930075,24,NoFileUpload N14_PE7773_NUM_EMP is 8.1_boundry is 8,200,Thread Group_Prod1 1-1,false,2798,1,1,23,1,1,infpu013335,0
1519024930107,25,NoFileUpload N15_PE7773_NUM_EMP is 9_boundry is 8,200,Thread Group_Prod1 1-1,false,2796,1,1,24,1,1,infpu013335,0
1519024930145,30,FileUpload F9_PE5216_ImpactedbyComment,200,Thread Group_Prod1 1-1,false,1309,1,1,30,1,1,infpu013335,0
1519024930182,11,NoFileUpload N16_PE7044_expression,200,Thread Group_Prod1 1-1,true,854,1,1,11,1,0,infpu013335,0
1519024930193,10,NoFileUpload N17_PE7044_range,200,Thread Group_Prod1 1-1,true,2957,1,1,9,1,0,infpu013335,0
1519024930233,8,NoFileUpload N18_PE7044_rangeValidationRefTable,200,Thread Group_Prod1 1-1,false,1073,1,1,8,1,1,infpu013335,0
1519024930254,10,NoFileUpload N19_PE7044_rangeValidationRefTable_dimensions,200,Thread Group_Prod1 1-1,false,1110,1,1,10,1,1,infpu013335,0
1519024930271,48,FileUpload F10_PE5691_1Record_Ignore,400,Thread Group_Prod1 1-1,false,299,1,1,48,1,1,infpu013335,0
1519024930342,52,FileUpload F11_PE5691_1Record_Ignore,400,Thread Group_Prod1 1-1,false,299,1,1,52,1,1,infpu013335,2
1519024930409,37,FileUpload F12_PE6027_Ref Table,200,Thread Group_Prod1 1-1,false,718,1,1,37,1,1,infpu013335,2
1519024930489,23,FileUpload F13_PE6030,200,Thread Group_Prod1 1-1,true,3242,1,1,22,1,0,infpu013335,0
1519024930544,18,NoFileUpload N20_PE7033,200,Thread Group_Prod1 1-1,true,1596,1,1,17,1,0,infpu013335,0
1519024930562,8,NoFileUpload N21_PE7314,200,Thread Group_Prod1 1-1,true,1931,1,1,8,1,0,infpu013335,0
1519024930584,91,FileUpload F14_PE7071_1Record_Shuffle,200,Thread Group_Prod1 1-1,false,5815,1,1,90,1,1,infpu013335,0
1519024930703,52,FileUpload F15_PE7071_1Record,200,Thread Group_Prod1 1-1,true,5813,1,1,51,1,0,infpu013335,0
1519024930783,41,FileUpload F16_PE7071_1Record,200,Thread Group_Prod1 1-1,true,6414,1,1,41,1,0,infpu013335,0
1519024930854,44,FileUpload F17_PE7071_1Record,200,Thread Group_Prod1 1-1,true,4634,1,1,44,1,0,infpu013335,0
1519024930915,84,FileUpload F18_PE7611,200,Thread Group_Prod1 1-1,false,1942,1,1,83,1,1,infpu013335,0
1519024931026,41,FileUpload F19_PE7611,200,Thread Group_Prod1 1-1,false,2023,1,1,40,1,1,infpu013335,0
1519024931075,36,FileUpload F20_PE7611,200,Thread Group_Prod1 1-1,true,1920,1,1,34,1,0,infpu013335,0
1519024931119,31,FileUpload F21_PE7611,200,Thread Group_Prod1 1-1,true,1942,1,1,30,1,0,infpu013335,0
1519024931158,40,FileUpload F22_PE7611,200,Thread Group_Prod1 1-1,false,2405,1,1,39,1,1,infpu013335,0
1519024931206,31,FileUpload F23_PE7611,200,Thread Group_Prod1 1-1,false,2228,1,1,31,1,1,infpu013335,0
1519024931250,32,FileUpload F24_PE7611,200,Thread Group_Prod1 1-1,false,2228,1,1,31,1,1,infpu013335,0
1519024931293,50,FileUpload F25_PE7611,200,Thread Group_Prod1 1-1,false,2398,1,1,50,1,1,infpu013335,0
1519024931371,35,FileUpload F26_PE7611,200,Thread Group_Prod1 1-1,false,2399,1,1,34,1,1,infpu013335,0
1519024931418,41,FileUpload F27_PE7611,200,Thread Group_Prod1 1-1,true,2126,1,1,40,1,0,infpu013335,0
1519024931472,86,FileUpload F28_6713CSV_SkipLastBlankRow,200,Thread Group_Prod1 1-1,true,1705,1,1,85,1,0,infpu013335,0
1519024931559,12,FileUpload F29_6713CSV_SkipInitialRow,200,Thread Group_Prod1 1-1,true,1414,1,1,12,1,0,infpu013335,0
1519024931579,12,FileUpload F30_6713CSV_SkipMiddleBlankRows,200,Thread Group_Prod1 1-1,true,2008,1,1,11,1,0,infpu013335,0
1519024931602,24,FileUpload F31_6713Excel_SkipInitialRow,200,Thread Group_Prod1 1-1,true,1414,1,1,24,1,0,infpu013335,0
1519024931639,24,FileUpload F32_6713Excel_SkipLastBlankRow,200,Thread Group_Prod1 1-1,true,1705,1,1,24,1,0,infpu013335,0
1519024931675,23,FileUpload F33_6713Excel_SkipMiddleRow,200,Thread Group_Prod1 1-1,true,2008,1,1,22,1,0,infpu013335,0
1519024931708,6,NoFileUpload N22_PE7631_metaData,200,Thread Group_Prod1 1-1,true,825,1,1,6,1,0,infpu013335,0
1519024931722,5,NoFileUpload N23_PE7631_metaData,200,Thread Group_Prod1 1-1,true,825,1,1,5,1,0,infpu013335,0
1519024931734,6,NoFileUpload N24_PE7631_Autocorrect,200,Thread Group_Prod1 1-1,true,1924,1,1,5,1,0,infpu013335,0
1519024931748,5,NoFileUpload N25_PE7631,200,Thread Group_Prod1 1-1,true,1531,1,1,5,1,0,infpu013335,0
1519024931760,6,NoFileUpload N26_7045RawJson_NonNumerciData,200,Thread Group_Prod1 1-1,true,1789,1,1,5,1,0,infpu013335,0
1519024931780,5,NoFileUpload N27_7045RawJson_SkipBlankCols,200,Thread Group_Prod1 1-1,true,1116,1,1,5,1,0,infpu013335,0
1519024931793,4,NoFileUpload N28_7045RawJson_SkipNonNumericCols,200,Thread Group_Prod1 1-1,true,1076,1,1,4,1,0,infpu013335,0
1519024931805,7,NoFileUpload N29_7045RawJson_WithDimesion,200,Thread Group_Prod1 1-1,true,1791,1,1,6,1,0,infpu013335,0
1519024931827,4,NoFileUpload N30_7045RawJson_SingleNonBlankValue,200,Thread Group_Prod1 1-1,true,749,1,1,4,1,0,infpu013335,0
1519024931839,6,NoFileUpload N31_7045RawJson_WithOtherValidation,200,Thread Group_Prod1 1-1,true,2510,1,1,5,1,0,infpu013335,0
1519024931853,10,FileUpload F34_PE7045_7045CSV_SimpleSequentialCheck,200,Thread Group_Prod1 1-1,true,1993,1,1,9,1,0,infpu013335,0
1519024931871,18,FileUpload F35_PE7045_7045Excel_SimpleSequentialCheck,200,Thread Group_Prod1 1-1,true,1981,1,1,17,1,0,infpu013335,0
1519024931897,8,FileUpload F36_PE7045_7045CSV_SkipBlankColumn,200,Thread Group_Prod1 1-1,true,1680,1,1,8,1,0,infpu013335,0
1519024931913,16,FileUpload F37_PE7045_7045EXCEL_SkipBlankColumn,200,Thread Group_Prod1 1-1,true,2023,1,1,16,1,0,infpu013335,0
1519024931942,8,FileUpload F38_PE7045_7045CSV_SkipNonNumericData,200,Thread Group_Prod1 1-1,true,1581,1,1,7,1,0,infpu013335,0
1519024931958,16,FileUpload F39_PE7045_7045EXCEL_SkipNonNumericData,200,Thread Group_Prod1 1-1,true,2537,1,1,15,1,0,infpu013335,0
1519024931983,20,NoFileUpload N32_PE7474_Testcase1,200,Thread Group_Prod1 1-1,true,1589,1,1,20,1,0,infpu013335,0
1519024932012,25,NoFileUpload N33_PE7474_Testcase2,200,Thread Group_Prod1 1-1,true,1721,1,1,24,1,0,infpu013335,0
1519024932048,7,NoFileUpload N34_PE7474_Testcase3,200,Thread Group_Prod1 1-1,true,1155,1,1,7,1,0,infpu013335,0
1519024932066,35,NoFileUpload N35_PE7474_Testcase4,200,Thread Group_Prod1 1-1,true,1832,1,1,35,1,0,infpu013335,0
1519024932109,51,NoFileUpload N36_PE7474_Testcase5,200,Thread Group_Prod1 1-1,true,1737,1,1,51,1,0,infpu013335,0
1519024932172,17,NoFileUpload N37_PE7474_Testcase6,200,Thread Group_Prod1 1-1,true,1600,1,1,17,1,0,infpu013335,0
1519024932197,114,FileUpload F40_PE7474,200,Thread Group_Prod1 1-1,true,4177,1,1,113,1,0,infpu013335,0
1519024932343,12,NoFileUpload N38_PE7689_RefTable,200,Thread Group_Prod1 1-1,false,1110,1,1,11,1,1,infpu013335,0
1519024932369,15,NoFileUpload N39_PE7440_ISBLANK_ImpactedbyComment,200,Thread Group_Prod1 1-1,true,2266,1,1,14,1,0,infpu013335,0
1519024932392,12,NoFileUpload N40_PE7440_ISNOTBLANK_LENGTH_ImpactedbyComment,200,Thread Group_Prod1 1-1,true,1887,1,1,12,1,0,infpu013335,0
1519024932412,21,FileUpload F41_PE5679_EqualToWithAllBlank_POSCODE=2,200,Thread Group_Prod1 1-1,true,2791,1,1,20,1,0,infpu013335,4
1519024932441,23,FileUpload F42_PE5679_3 Null string and 1 Blank_POSCODE=2,200,Thread Group_Prod1 1-1,true,2622,1,1,23,1,0,infpu013335,0
1519024932472,11,FileUpload F43_PE5679_2 Null String and 2 Blank_POSCODE=2,200,Thread Group_Prod1 1-1,true,2824,1,1,10,1,0,infpu013335,0
1519024932491,16,FileUpload F44_PE5679_1 Null String_1Data_2 Blank_POSCODE=2,200,Thread Group_Prod1 1-1,true,1699,1,1,16,1,0,infpu013335,0
1519024932515,14,FileUpload F45_PE5679_NoBlanksNoNullAllUnique_POSCODE=2,200,Thread Group_Prod1 1-1,true,3193,1,1,13,1,0,infpu013335,0
1519024932537,14,FileUpload F46_PE5679_3samedata_1Blank_POSCODE=2,200,Thread Group_Prod1 1-1,true,2615,1,1,13,1,0,infpu013335,0
1519024932559,12,FileUpload F47_PE5679_POSCODEGreaterThan2,200,Thread Group_Prod1 1-1,true,2794,1,1,12,1,0,infpu013335,0
1519024932580,9,FileUpload F48_PE5679_POSCODEGreaterThanEqualTo2,200,Thread Group_Prod1 1-1,true,1700,1,1,9,1,0,infpu013335,0
1519024932597,11,FileUpload F49_PE5679_LessThan,200,Thread Group_Prod1 1-1,true,2414,1,1,10,1,0,infpu013335,0
1519024932617,10,FileUpload F50_PE5679_LessThanEqualTo1,200,Thread Group_Prod1 1-1,true,2791,1,1,10,1,0,infpu013335,0
1519024932636,137,FileUpload F52_PE7724_CSV_ref,200,Thread Group_Prod1 1-1,true,21330,1,1,136,1,0,infpu013335,0
1519024932804,212,FileUpload F52_PE7724_Excel_ValidationMsg,200,Thread Group_Prod1 1-1,false,29844,1,1,209,1,1,infpu013335,0
1519024933031,79,FileUpload F53_PE7056_uploadMultipleFile_TBC for strict or loose_Shuffle,200,Thread Group_Prod1 1-1,true,5188,1,1,79,1,0,infpu013335,0
1519024933123,23,NoFileUpload N41_PE7056_validateAggregates_Fix,200,Thread Group_Prod1 1-1,false,1305,1,1,23,1,1,infpu013335,0
1519024933158,35,NoFileUpload N42_7056_performDefaultActions_Correct as per new code,200,Thread Group_Prod1 1-1,true,854,1,1,35,1,0,infpu013335,0
1519024933200,52,NoFileUpload N43_7056_crossSectionChecks,200,Thread Group_Prod1 1-1,true,5816,1,1,51,1,0,infpu013335,0
1519024933280,9,NoFileUpload N44_PE7241_EmailValidation -withInvalidAndValidEmailIdInDimension,200,Thread Group_Prod1 1-1,true,2946,1,1,8,1,0,infpu013335,0
1519024933301,13,NoFileUpload N45_PE7241_EmailValidation-withAllInvalidEmailIdInDimension,200,Thread Group_Prod1 1-1,true,2985,1,1,12,1,0,infpu013335,0
1519024933324,8,NoFileUpload N46_PE7241_EmailValidation -withNullStringAndBlankEmailIdInDimension,200,Thread Group_Prod1 1-1,true,2359,1,1,7,1,0,infpu013335,0
1519024933345,11,NoFileUpload N47_PE7241_EmailValidation_withAllBlankEmailIdInDimension,200,Thread Group_Prod1 1-1,true,2037,1,1,11,1,0,infpu013335,0
1519024933367,9,NoFileUpload N48_PE7241_EmailValidation_withAllEmailIdAsNullStringInDimension,200,Thread Group_Prod1 1-1,true,2910,1,1,8,1,0,infpu013335,0
1519024933384,11,NoFileUpload N49_PE7241_EmailValidation_withAllValidEmailIdInDimension,200,Thread Group_Prod1 1-1,true,2153,1,1,10,1,0,infpu013335,0
1519024933403,8,NoFileUpload N50_PE7241_PhoneValidation_withAllBlankPhoneNumberInDimension,200,Thread Group_Prod1 1-1,true,1206,1,1,8,1,0,infpu013335,0
1519024933419,8,NoFileUpload N51_PE7241_PhoneValidation_withAllInvalidPhoneNumberInDimension,200,Thread Group_Prod1 1-1,true,2687,1,1,7,1,0,infpu013335,0
1519024933435,15,NoFileUpload N52_PE7241_PhoneValidation_withAllNullStringAndBlankPhoneNumberInDimension,200,Thread Group_Prod1 1-1,true,1230,1,1,15,1,0,infpu013335,0
1519024933458,9,NoFileUpload N53_PE7241_PhoneValidation_withAllNullStringPhoneNumberInDimension,200,Thread Group_Prod1 1-1,true,2076,1,1,9,1,0,infpu013335,0
1519024933478,10,NoFileUpload N54_PE7241_PhoneValidation_withAllValidPhoneNumberInDimension,200,Thread Group_Prod1 1-1,true,1626,1,1,10,1,0,infpu013335,0
1519024933497,7,NoFileUpload N55_PE7241_PhoneValidation_withValidAndInvalidPhoneNumberInDimension,200,Thread Group_Prod1 1-1,true,1852,1,1,7,1,0,infpu013335,0
1519024933511,9,NoFileUpload N56_PE7241_RequiredValidation__withAllNullStringInDimension,200,Thread Group_Prod1 1-1,true,2264,1,1,8,1,0,infpu013335,0
1519024933528,17,NoFileUpload N57_PE7241_RequiredValidation__withAllValidValuesInDimension,200,Thread Group_Prod1 1-1,true,1285,1,1,17,1,0,infpu013335,0
1519024933552,6,NoFileUpload N58_PE7241_RequiredValidation_withAllblankValuesInDimension ,200,Thread Group_Prod1 1-1,true,2596,1,1,5,1,0,infpu013335,0
1519024933566,7,"NoFileUpload N59_PE7241_RequiredValidation_WithNullString,BlankAndValuesInDimension",200,Thread Group_Prod1 1-1,true,2280,1,1,7,1,0,infpu013335,0
1519024933581,18,NoFileUpload N60_PE7241_RequiredValidation_WithNullStringlAndBlankInDimension,200,Thread Group_Prod1 1-1,true,3290,1,1,18,1,0,infpu013335,0
1519024933608,6,NoFileUpload N61_PE7241_RequiredValidation_WithValidAndInvalidValue,200,Thread Group_Prod1 1-1,true,1626,1,1,5,1,0,infpu013335,0
1519024933622,6,NoFileUpload N62_PE7241_CheckBoxes_UploadMultipleFile,200,Thread Group_Prod1 1-1,true,1519,1,1,6,1,0,infpu013335,0
1519024933638,29,NoFileUpload N63_PE7241_Dimension_CrossSection,200,Thread Group_Prod1 1-1,true,2668,1,1,29,1,0,infpu013335,0
1519024933689,8,NoFileUpload N64_PE7241_MDA_Dimension,200,Thread Group_Prod1 1-1,true,2912,1,1,7,1,0,infpu013335,0
1519024933708,180,FileUpload F54_PE-7257_AllValidDateAndDoubleValue(Positive scenario),200,Thread Group_Prod1 1-1,true,23385,1,1,178,1,0,infpu013335,0
1519024933889,186,FileUpload F55_PE-7257_AllValidAndInvalidDateAndDoubleValue(Negative scenario),200,Thread Group_Prod1 1-1,true,26359,1,1,185,1,0,infpu013335,0
1519024934077,25,NoFileUpload N65_PE7506_crosssection_with multiple combination for LPALL_399A,200,Thread Group_Prod1 1-1,true,3765,1,1,24,1,0,infpu013335,0
1519024934130,19,NoFileUpload N66_PE7506_crosssection_with 3 Dimensions for LPALL_399A,200,Thread Group_Prod1 1-1,true,4150,1,1,18,1,0,infpu013335,0
1519024934167,15,"NoFileUpload N67_PE7506_crosssection_13LATAM_01"": ""Y""",200,Thread Group_Prod1 1-1,true,3519,1,1,15,1,0,infpu013335,0
1519024934191,18,"NoFileUpload N68_PE7506_crosssection_ EE_group_13LATAM_01"": ""N""",200,Thread Group_Prod1 1-1,true,3195,1,1,18,1,0,infpu013335,0
1519024934217,16,NoFileUpload N69_PE7506_crosssection_when  EE_group_13LATAM is not present,200,Thread Group_Prod1 1-1,true,3129,1,1,15,1,0,infpu013335,0
1519024934241,16,NoFileUpload N70_PE7506_crosssection_with Dimension for LPALL_399A,200,Thread Group_Prod1 1-1,true,5816,1,1,16,1,0,infpu013335,0
1519024934266,19,NoFileUpload N71_PE7506_crosssection_with Dimension for LPALL_399A 1 as Y others as N,200,Thread Group_Prod1 1-1,true,3701,1,1,18,1,0,infpu013335,0
1519024934293,20,FileUpload F56_PE5415_MultiSheetSuccess,200,Thread Group_Prod1 1-1,true,3574,1,1,19,1,0,infpu013335,0
1519024934321,13,FileUpload F57_PE5415_MultiSheetBadRequest_Ignore,400,Thread Group_Prod1 1-1,false,299,1,1,13,1,1,infpu013335,0
1519024934335,26,FileUpload F58_PE5415_MultiSheetCorrectRequest,200,Thread Group_Prod1 1-1,true,3447,1,1,25,1,0,infpu013335,1
1519024934371,15,FileUpload F59_PE5415_Step1SingleSheetBadReq_Ignore,422,Thread Group_Prod1 1-1,false,1235,1,1,15,1,1,infpu013335,0
1519024934393,26,FileUpload F60_PE5415_Step1SingleSheetCorrectReq,200,Thread Group_Prod1 1-1,true,4618,1,1,25,1,0,infpu013335,0
1519024934428,6,FileUpload F61_PE5415_Step3MappingCompanyJson,200,Thread Group_Prod1 1-1,true,1564,1,1,6,1,0,infpu013335,0
1519024934441,20,FileUpload F62_PE5415_Step3MappingCompanyExcel,200,Thread Group_Prod1 1-1,true,1578,1,1,20,1,0,infpu013335,0
1519024934468,21,FileUpload F63_PE5415_Step3MappingColumnExcel,200,Thread Group_Prod1 1-1,true,4419,1,1,20,1,0,infpu013335,0
1519024934497,9,FileUpload F64_PE5415_Step3MappingColumnJson,200,Thread Group_Prod1 1-1,true,4371,1,1,8,1,0,infpu013335,0
1519024934514,16,FileUpload F65_PE5415_Step3MappingColumnJsonWithoutCountry,200,Thread Group_Prod1 1-1,true,2084,1,1,16,1,0,infpu013335,0
1519024934592,9,FileUpload F66_PE5415_Step3MappingColumnJsonWithCountry,200,Thread Group_Prod1 1-1,true,1564,1,1,9,1,0,infpu013335,0
1519024934612,1831,FileUpload F67_PE8315_Fix,200,Thread Group_Prod1 1-1,false,30445,1,1,1829,1,1,infpu013335,0
1519024936456,22,FileUpload F68_PE8037_Fix,200,Thread Group_Prod1 1-1,false,2109,1,1,21,1,1,infpu013335,5
1519024936486,8,NoFileUpload N72_ PE5668 T1,200,Thread Group_Prod1 1-1,true,935,1,1,8,1,0,infpu013335,0
1519024936501,8,NoFileUpload N80_PE7989_Req_NonNumericData_withAllwrongcolumn_MDA,200,Thread Group_Prod1 1-1,true,1074,1,1,8,1,0,infpu013335,0
1519024936517,11,NoFileUpload N81_PE7989_Req_NonNumericData_withAllrightcolumn_MDA,200,Thread Group_Prod1 1-1,true,1789,1,1,5,1,0,infpu013335,0
1519024936541,6,NoFileUpload N82_PE7989_Req_NonNumericData_with1wrongcolumn_MDA,200,Thread Group_Prod1 1-1,true,1797,1,1,5,1,0,infpu013335,0
1519024936557,7,NoFileUpload N83_PE7989_uploadMultipleFile,200,Thread Group_Prod1 1-1,true,1760,1,1,6,1,0,infpu013335,0
1519024936576,10,NoFileUpload N84_400 and 500 Error_crossSectionChecks,200,Thread Group_Prod1 1-1,true,759,1,1,10,1,0,infpu013335,0
1519024936594,8,NoFileUpload N85_400 and 500 Error_crossSectionChecks,200,Thread Group_Prod1 1-1,true,1000,1,1,8,1,0,infpu013335,0
1519024936611,12,NoFileUpload N86_400 and 500 Error_crossSectionChecks,200,Thread Group_Prod1 1-1,true,1004,1,1,12,1,0,infpu013335,0
1519024936632,7,NoFileUpload N87_400 and 500 Error_crossSectionChecks,200,Thread Group_Prod1 1-1,true,556,1,1,7,1,0,infpu013335,0
1519024936646,8,NoFileUpload N88_400 and 500 Error_crossSectionChecks,200,Thread Group_Prod1 1-1,true,760,1,1,8,1,0,infpu013335,0
1519024936662,19,NoFileUpload N89_PE8186_to Add assertion,200,Thread Group_Prod1 1-1,true,3835,1,1,18,1,0,infpu013335,0
1519024936692,16,NoFileUpload N90_PE8032_SyntaxError1_Fix,200,Thread Group_Prod1 1-1,false,854,1,1,16,1,1,infpu013335,0
1519024936725,9,NoFileUpload N91_PE8032_SyntaxError2_Fix,200,Thread Group_Prod1 1-1,false,854,1,1,9,1,1,infpu013335,0
1519024936748,7,NoFileUpload N92_PE8032_InvalidColumn,200,Thread Group_Prod1 1-1,true,1271,1,1,7,1,0,infpu013335,0
1519024936771,7,NoFileUpload N93_PE7771_Exp,200,Thread Group_Prod1 1-1,true,854,1,1,7,1,0,infpu013335,0
1519024936793,12,NoFileUpload N94_PE7771_Range,200,Thread Group_Prod1 1-1,true,2957,1,1,11,1,0,infpu013335,0
1519024936814,92,NoFileUpload N94_PE7771_Added Scenario,200,Thread Group_Prod1 1-1,true,68732,1,1,86,1,0,infpu013335,0
1519024936924,8,NoFileUpload N95_PE8269 and 8397_CSC_MDA_ClearValue_Fix,200,Thread Group_Prod1 1-1,false,928,1,1,8,1,1,infpu013335,0
1519024936939,9,NoFileUpload N96_PE8269 and 8397_CSC_OtherThanClearValue,200,Thread Group_Prod1 1-1,true,2095,1,1,8,1,0,infpu013335,0
1519024936957,7,NoFileUpload N97_PE8269 and 8397_UMF_NonMDA,200,Thread Group_Prod1 1-1,true,1728,1,1,6,1,0,infpu013335,0
1519024936972,8,NoFileUpload N98_PE8269 and 8397_PDA_MDA_ClearValue_Fix,200,Thread Group_Prod1 1-1,false,914,1,1,8,1,1,infpu013335,0
1519024936987,9,NoFileUpload N99_PE8269 and 8397_PDA_OtherThanClearValue,200,Thread Group_Prod1 1-1,true,2355,1,1,8,1,0,infpu013335,0
1519024937004,1072,FileUpload F69_PE8584_Null Issue ,200,Thread Group_Prod1 1-1,false,14493,1,1,1071,1,1,infpu013335,0
1519024938113,24,FileUpload F70_PE8584,200,Thread Group_Prod1 1-1,false,11417,1,1,23,1,1,infpu013335,0
1519024938161,13,FileUpload F71_PE8584,200,Thread Group_Prod1 1-1,false,1987,1,1,13,1,1,infpu013335,0
1519024938182,11,FileUpload F72_PE8584,200,Thread Group_Prod1 1-1,false,1987,1,1,11,1,1,infpu013335,0
1519024938201,122,FileUpload F72_PE8584,200,Thread Group_Prod1 1-1,false,14361,1,1,121,1,1,infpu013335,0
1519024938361,149,FileUpload F72_PE8584,200,Thread Group_Prod1 1-1,false,14365,1,1,148,1,1,infpu013335,0
