timeStamp,elapsed,label,responseCode,threadName,success,bytes,grpThreads,allThreads,Latency,SampleCount,ErrorCount,Hostname,Connect
1520405635242,7279,FileUpload F1_PE-8157_Ignore,200,Thread Group_Prod1 1-1,false,6260,1,1,7272,1,1,INFPU07042,596
1520405642606,1642,FileUpload F1_PE-8110_ErrorCell,200,Thread Group_Prod1 1-1,true,1571,1,1,1639,1,0,INFPU07042,389
1520405644334,6236,FileUpload F2_PE-8110_ErrorCell_Ignore,422,Thread Group_Prod1 1-1,false,650879,1,1,3099,1,1,INFPU07042,0
1520405650636,3286,FileUpload F3_PE-8110_ErrorCell_Ignore,400,Thread Group_Prod1 1-1,false,385,1,1,3286,1,1,INFPU07042,316
1520405653947,1132,FileUpload F4_PE-5678_SequentialWithOtherValidations,200,Thread Group_Prod1 1-1,true,5471,1,1,1131,1,0,INFPU07042,322
1520405655116,571,NoFileUpload N1_PE-5678_LOOK_UP_CHECK1,200,Thread Group_Prod1 1-1,true,1072,1,1,543,1,0,INFPU07042,0
1520405655722,381,NoFileUpload N1_PE-5678_SequentialWithOtherValidations,200,Thread Group_Prod1 1-1,true,994,1,1,381,1,0,INFPU07042,0
1520405656143,1192,NoFileUpload N2_PE-5678_SequentialWithOtherValidations,200,Thread Group_Prod1 1-1,true,959,1,1,1192,1,0,INFPU07042,367
1520405657405,1872,"NoFileUpload_Null Validation_crossSectionChecks_LPALL_566 is """"",200,Thread Group_Prod1 1-1,true,6764,1,1,1859,1,0,INFPU07042,0
1520405659328,2519,NoFileUpload_Null Validation_crossSectionChecks_LPALL_566 is null,200,Thread Group_Prod1 1-1,true,6760,1,1,2515,1,0,INFPU07042,285
1520405661890,2864,"NoFileUpload_Null Validation_crossSectionChecks_LPALL_566 is ""null""",200,Thread Group_Prod1 1-1,true,6903,1,1,2860,1,0,INFPU07042,350
1520405664774,2528,"NoFileUpload_Null Validation_crossSectionChecks_LPALL_566 is ""   """,200,Thread Group_Prod1 1-1,true,6767,1,1,2518,1,0,INFPU07042,332
1520405667355,1763,NoFileUpload N3_PE-7172MDA,200,Thread Group_Prod1 1-1,true,664,1,1,1763,1,0,INFPU07042,414
1520405669168,692,FileUpload F5_PE7172_Fix,200,Thread Group_Prod1 1-1,true,4873,1,1,576,1,0,INFPU07042,0
1520405669908,1457,NoFileUpload N4_PE-8032MDA,200,Thread Group_Prod1 1-1,true,664,1,1,1457,1,0,INFPU07042,303
1520405671416,1406,NoFileUpload N5_PE-8070,200,Thread Group_Prod1 1-1,true,881,1,1,1406,1,0,INFPU07042,0
1520405672871,1573,NoFileUpload N73_PE5668 T2_Temp,200,Thread Group_Prod1 1-1,true,609,1,1,1573,1,0,INFPU07042,330
1520405674493,435,NoFileUpload N74_PE5668 T3_Temp,200,Thread Group_Prod1 1-1,true,753,1,1,435,1,0,INFPU07042,0
1520405674964,1723,NoFileUpload N75_PE5668 T4_Temp,200,Thread Group_Prod1 1-1,true,706,1,1,1723,1,0,INFPU07042,382
1520405676756,427,NoFileUpload N76_PE5668 T5_Temp,200,Thread Group_Prod1 1-1,true,720,1,1,427,1,0,INFPU07042,0
1520405677213,1929,NoFileUpload N78_PE5668 T7_Temp,200,Thread Group_Prod1 1-1,true,705,1,1,1929,1,0,INFPU07042,387
1520405679173,429,NoFileUpload N79_PE5668 T8_Temp,200,Thread Group_Prod1 1-1,true,612,1,1,429,1,0,INFPU07042,0
1520405679666,4689,FileUpload F6_PE-7257_US_CSV_Shuffle,200,Thread Group_Prod1 1-1,true,4349,1,1,4079,1,0,INFPU07042,397
1520405684388,3263,FileUpload F7_PE-7257_US_Excel_Shuffle,200,Thread Group_Prod1 1-1,true,4532,1,1,3262,1,0,INFPU07042,380
1520405687719,2869,NoFileUpload N6_PE7978,200,Thread Group_Prod1 1-1,true,6632,1,1,2866,1,0,INFPU07042,330
1520405690613,823,NoFileUpload N7_PE7954,200,Thread Group_Prod1 1-1,true,732,1,1,823,1,0,INFPU07042,401
1520405691461,1196,NoFileUpload N77_PE5668 T6,200,Thread Group_Prod1 1-1,true,716,1,1,1196,1,0,INFPU07042,0
1520405692695,1153,FileUpload F8_PE7999_Ignore since files are identical,422,Thread Group_Prod1 1-1,false,1282,1,1,1153,1,1,INFPU07042,470
1520405693891,1128,NoFileUpload N8_ PE7795,200,Thread Group_Prod1 1-1,true,717,1,1,1128,1,0,INFPU07042,0
1520405695066,1171,NoFileUpload N9_PE7046_AU_Comp2,200,Thread Group_Prod1 1-1,true,914,1,1,1170,1,0,INFPU07042,352
1520405696293,382,NoFileUpload N10_PE7046_US_Comp1,200,Thread Group_Prod1 1-1,true,910,1,1,382,1,0,INFPU07042,0
1520405696692,357,NoFileUpload N11_PE7046_IN_Comp1,200,Thread Group_Prod1 1-1,true,910,1,1,357,1,0,INFPU07042,0
1520405697093,1097,NoFileUpload N12_PE7046_ZA_Comp2,200,Thread Group_Prod1 1-1,true,914,1,1,1097,1,0,INFPU07042,378
1520405698230,1652,NoFileUpload N13_PE7773_NUM_EMP is 7_Fix,200,Thread Group_Prod1 1-1,false,1099,1,1,1652,1,1,INFPU07042,0
1520405699968,1931,NoFileUpload N14_PE7773_NUM_EMP is 8.1_boundry is 8,200,Thread Group_Prod1 1-1,true,1100,1,1,1931,1,0,INFPU07042,340
1520405701927,708,NoFileUpload N15_PE7773_NUM_EMP is 9_boundry is 8,200,Thread Group_Prod1 1-1,true,1099,1,1,708,1,0,INFPU07042,0
1520405702654,1373,FileUpload F9_PE5216_ImpactedbyComment,200,Thread Group_Prod1 1-1,true,1345,1,1,1373,1,0,INFPU07042,343
1520405704068,363,NoFileUpload N16_PE7044_expression,200,Thread Group_Prod1 1-1,true,679,1,1,363,1,0,INFPU07042,0
1520405704433,309,NoFileUpload N17_PE7044_range,200,Thread Group_Prod1 1-1,true,917,1,1,309,1,0,INFPU07042,0
1520405704812,954,NoFileUpload N18_PE7044_rangeValidationRefTable,200,Thread Group_Prod1 1-1,true,912,1,1,953,1,0,INFPU07042,345
1520405705801,378,NoFileUpload N19_PE7044_rangeValidationRefTable_dimensions,200,Thread Group_Prod1 1-1,true,942,1,1,378,1,0,INFPU07042,0
1520405706227,1942,FileUpload F10_PE5691_1Record_Ignore,400,Thread Group_Prod1 1-1,false,327,1,1,1942,1,1,INFPU07042,0
1520405708203,2842,FileUpload F11_PE5691_1Record_Ignore,400,Thread Group_Prod1 1-1,false,327,1,1,2842,1,1,INFPU07042,330
1520405711081,1262,FileUpload F12_PE6027_Ref Table,200,Thread Group_Prod1 1-1,true,2193,1,1,1253,1,0,INFPU07042,319
1520405712450,691,FileUpload F13_PE6030,200,Thread Group_Prod1 1-1,true,3289,1,1,691,1,0,INFPU07042,0
1520405713237,1035,NoFileUpload N20_PE7033,200,Thread Group_Prod1 1-1,true,910,1,1,1035,1,0,INFPU07042,305
1520405714282,328,NoFileUpload N21_PE7314,200,Thread Group_Prod1 1-1,true,771,1,1,328,1,0,INFPU07042,0
1520405714657,2177,FileUpload F14_PE7071_1Record_Shuffle,200,Thread Group_Prod1 1-1,false,4188,1,1,2176,1,1,INFPU07042,0
1520405716852,2794,FileUpload F15_PE7071_1Record,200,Thread Group_Prod1 1-1,false,4749,1,1,2793,1,1,INFPU07042,275
1520405719723,3054,FileUpload F16_PE7071_1Record,200,Thread Group_Prod1 1-1,false,4188,1,1,3047,1,1,INFPU07042,274
1520405722805,2621,FileUpload F17_PE7071_1Record,400,Thread Group_Prod1 1-1,false,360,1,1,2620,1,1,INFPU07042,259
1520405725464,2728,FileUpload F18_PE7611,200,Thread Group_Prod1 1-1,true,1989,1,1,2728,1,0,INFPU07042,270
1520405728219,2860,FileUpload F19_PE7611,200,Thread Group_Prod1 1-1,false,1790,1,1,2860,1,1,INFPU07042,274
1520405731105,2316,FileUpload F20_PE7611,200,Thread Group_Prod1 1-1,true,1913,1,1,2316,1,0,INFPU07042,258
1520405733468,3383,FileUpload F21_PE7611,200,Thread Group_Prod1 1-1,true,1989,1,1,3383,1,0,INFPU07042,253
1520405736902,2846,FileUpload F22_PE7611,200,Thread Group_Prod1 1-1,false,2118,1,1,2846,1,1,INFPU07042,411
1520405739789,2840,FileUpload F23_PE7611,200,Thread Group_Prod1 1-1,false,1995,1,1,2840,1,1,INFPU07042,242
1520405742664,2524,FileUpload F24_PE7611,200,Thread Group_Prod1 1-1,false,1995,1,1,2523,1,1,INFPU07042,268
1520405745215,4192,FileUpload F25_PE7611,200,Thread Group_Prod1 1-1,false,1883,1,1,2747,1,1,INFPU07042,283
1520405749442,3030,FileUpload F26_PE7611,200,Thread Group_Prod1 1-1,false,1884,1,1,3030,1,1,INFPU07042,356
1520405752508,2524,FileUpload F27_PE7611,200,Thread Group_Prod1 1-1,true,2119,1,1,2524,1,0,INFPU07042,269
1520405755066,943,FileUpload F28_6713CSV_SkipLastBlankRow,200,Thread Group_Prod1 1-1,true,1752,1,1,943,1,0,INFPU07042,262
1520405756010,327,FileUpload F29_6713CSV_SkipInitialRow,200,Thread Group_Prod1 1-1,true,1461,1,1,327,1,0,INFPU07042,0
1520405756378,366,FileUpload F30_6713CSV_SkipMiddleBlankRows,200,Thread Group_Prod1 1-1,true,2055,1,1,363,1,0,INFPU07042,0
1520405756782,692,FileUpload F31_6713Excel_SkipInitialRow,200,Thread Group_Prod1 1-1,true,1461,1,1,692,1,0,INFPU07042,0
1520405757516,1209,FileUpload F32_6713Excel_SkipLastBlankRow,200,Thread Group_Prod1 1-1,true,1752,1,1,1209,1,0,INFPU07042,263
1520405758768,650,FileUpload F33_6713Excel_SkipMiddleRow,200,Thread Group_Prod1 1-1,true,2055,1,1,650,1,0,INFPU07042,0
1520405759452,298,NoFileUpload N22_PE7631_metaData,200,Thread Group_Prod1 1-1,true,604,1,1,298,1,0,INFPU07042,0
1520405759776,815,NoFileUpload N23_PE7631_metaData,200,Thread Group_Prod1 1-1,true,604,1,1,815,1,0,INFPU07042,259
1520405760625,331,NoFileUpload N24_PE7631_Autocorrect,200,Thread Group_Prod1 1-1,true,836,1,1,331,1,0,INFPU07042,0
1520405760979,283,NoFileUpload N25_PE7631,200,Thread Group_Prod1 1-1,true,830,1,1,283,1,0,INFPU07042,0
1520405761313,360,NoFileUpload N26_7045RawJson_NonNumerciData,200,Thread Group_Prod1 1-1,true,846,1,1,360,1,0,INFPU07042,0
1520405761733,357,NoFileUpload N27_7045RawJson_SkipBlankCols,200,Thread Group_Prod1 1-1,true,776,1,1,357,1,0,INFPU07042,0
1520405762133,1383,NoFileUpload N28_7045RawJson_SkipNonNumericCols,200,Thread Group_Prod1 1-1,true,675,1,1,1383,1,0,INFPU07042,639
1520405763575,372,NoFileUpload N29_7045RawJson_WithDimesion,200,Thread Group_Prod1 1-1,true,853,1,1,372,1,0,INFPU07042,0
1520405764010,435,NoFileUpload N30_7045RawJson_SingleNonBlankValue,200,Thread Group_Prod1 1-1,true,615,1,1,435,1,0,INFPU07042,0
1520405764490,1127,NoFileUpload N31_7045RawJson_WithOtherValidation,200,Thread Group_Prod1 1-1,true,903,1,1,1126,1,0,INFPU07042,363
1520405765659,442,FileUpload F34_PE7045_7045CSV_SimpleSequentialCheck,200,Thread Group_Prod1 1-1,true,2040,1,1,435,1,0,INFPU07042,0
1520405766151,754,FileUpload F35_PE7045_7045Excel_SimpleSequentialCheck,200,Thread Group_Prod1 1-1,true,2028,1,1,750,1,0,INFPU07042,0
1520405766961,1382,FileUpload F36_PE7045_7045CSV_SkipBlankColumn,200,Thread Group_Prod1 1-1,true,1727,1,1,1382,1,0,INFPU07042,446
1520405768379,775,FileUpload F37_PE7045_7045EXCEL_SkipBlankColumn,200,Thread Group_Prod1 1-1,true,2070,1,1,775,1,0,INFPU07042,0
1520405769184,1099,FileUpload F38_PE7045_7045CSV_SkipNonNumericData,200,Thread Group_Prod1 1-1,true,1628,1,1,1099,1,0,INFPU07042,377
1520405770324,778,FileUpload F39_PE7045_7045EXCEL_SkipNonNumericData,200,Thread Group_Prod1 1-1,true,2584,1,1,777,1,0,INFPU07042,0
1520405771141,333,NoFileUpload N32_PE7474_Testcase1,200,Thread Group_Prod1 1-1,true,900,1,1,332,1,0,INFPU07042,0
1520405771512,1032,NoFileUpload N33_PE7474_Testcase2,200,Thread Group_Prod1 1-1,true,903,1,1,1032,1,0,INFPU07042,301
1520405772584,341,NoFileUpload N34_PE7474_Testcase3,200,Thread Group_Prod1 1-1,true,820,1,1,341,1,0,INFPU07042,0
1520405772960,397,NoFileUpload N35_PE7474_Testcase4,200,Thread Group_Prod1 1-1,true,881,1,1,397,1,0,INFPU07042,0
1520405773399,363,NoFileUpload N36_PE7474_Testcase5,200,Thread Group_Prod1 1-1,true,905,1,1,362,1,0,INFPU07042,0
1520405773797,1099,NoFileUpload N37_PE7474_Testcase6,200,Thread Group_Prod1 1-1,true,895,1,1,1098,1,0,INFPU07042,374
1520405774941,7653,FileUpload F40_PE7474,200,Thread Group_Prod1 1-1,true,4224,1,1,7650,1,0,INFPU07042,0
1520405782635,1055,NoFileUpload N38_PE7689_RefTable,200,Thread Group_Prod1 1-1,true,947,1,1,1055,1,0,INFPU07042,335
1520405783732,1187,NoFileUpload N39_PE7440_ISBLANK_ImpactedbyComment,200,Thread Group_Prod1 1-1,true,1070,1,1,1187,1,0,INFPU07042,0
1520405784965,2217,NoFileUpload N40_PE7440_ISNOTBLANK_LENGTH_ImpactedbyComment,200,Thread Group_Prod1 1-1,true,954,1,1,2217,1,0,INFPU07042,360
1520405787231,1168,FileUpload F41_PE5679_EqualToWithAllBlank_POSCODE=2,200,Thread Group_Prod1 1-1,false,2838,1,1,1168,1,1,INFPU07042,347
1520405788443,490,FileUpload F42_PE5679_3 Null string and 1 Blank_POSCODE=2,200,Thread Group_Prod1 1-1,false,2669,1,1,490,1,1,INFPU07042,0
1520405788962,479,FileUpload F43_PE5679_2 Null String and 2 Blank_POSCODE=2,200,Thread Group_Prod1 1-1,true,2871,1,1,479,1,0,INFPU07042,0
1520405789482,1122,FileUpload F44_PE5679_1 Null String_1Data_2 Blank_POSCODE=2,200,Thread Group_Prod1 1-1,false,1746,1,1,1122,1,1,INFPU07042,357
1520405790648,477,FileUpload F45_PE5679_NoBlanksNoNullAllUnique_POSCODE=2,200,Thread Group_Prod1 1-1,false,3240,1,1,475,1,1,INFPU07042,0
1520405791183,428,FileUpload F46_PE5679_3samedata_1Blank_POSCODE=2,200,Thread Group_Prod1 1-1,false,2662,1,1,426,1,1,INFPU07042,0
1520405791647,1010,FileUpload F47_PE5679_POSCODEGreaterThan2,200,Thread Group_Prod1 1-1,false,2841,1,1,1010,1,1,INFPU07042,336
1520405792696,411,FileUpload F48_PE5679_POSCODEGreaterThanEqualTo2,200,Thread Group_Prod1 1-1,false,1747,1,1,411,1,1,INFPU07042,0
1520405793150,418,FileUpload F49_PE5679_LessThan,200,Thread Group_Prod1 1-1,false,2461,1,1,407,1,1,INFPU07042,0
1520405793610,451,FileUpload F50_PE5679_LessThanEqualTo1,200,Thread Group_Prod1 1-1,false,2838,1,1,451,1,1,INFPU07042,0
1520405794100,4340,FileUpload F52_PE7724_CSV_ref,200,Thread Group_Prod1 1-1,true,21361,1,1,4039,1,0,INFPU07042,291
1520405798476,5711,FileUpload F52_PE7724_Excel_ValidationMsg,200,Thread Group_Prod1 1-1,false,18269,1,1,5196,1,1,INFPU07042,375
1520405804216,3677,FileUpload F53_PE7056_uploadMultipleFile_TBC for strict or loose_Shuffle,200,Thread Group_Prod1 1-1,false,4196,1,1,3651,1,1,INFPU07042,362
1520405807937,953,NoFileUpload N41_PE7056_validateAggregates_Fix,200,Thread Group_Prod1 1-1,false,807,1,1,953,1,1,INFPU07042,289
1520405808927,345,NoFileUpload N42_7056_performDefaultActions_Correct as per new code,200,Thread Group_Prod1 1-1,true,674,1,1,345,1,0,INFPU07042,0
1520405809310,1279,NoFileUpload N43_7056_crossSectionChecks,200,Thread Group_Prod1 1-1,true,1316,1,1,904,1,0,INFPU07042,0
1520405810627,965,NoFileUpload N44_PE7241_EmailValidation -withInvalidAndValidEmailIdInDimension,200,Thread Group_Prod1 1-1,true,858,1,1,965,1,0,INFPU07042,306
1520405811629,428,NoFileUpload N45_PE7241_EmailValidation-withAllInvalidEmailIdInDimension,200,Thread Group_Prod1 1-1,true,884,1,1,428,1,0,INFPU07042,0
1520405812102,363,NoFileUpload N46_PE7241_EmailValidation -withNullStringAndBlankEmailIdInDimension,200,Thread Group_Prod1 1-1,true,853,1,1,363,1,0,INFPU07042,0
1520405812498,336,NoFileUpload N47_PE7241_EmailValidation_withAllBlankEmailIdInDimension,200,Thread Group_Prod1 1-1,true,832,1,1,336,1,0,INFPU07042,0
1520405812872,1095,NoFileUpload N48_PE7241_EmailValidation_withAllEmailIdAsNullStringInDimension,200,Thread Group_Prod1 1-1,true,848,1,1,1094,1,0,INFPU07042,416
1520405814018,343,NoFileUpload N49_PE7241_EmailValidation_withAllValidEmailIdInDimension,200,Thread Group_Prod1 1-1,true,876,1,1,343,1,0,INFPU07042,0
1520405814414,342,NoFileUpload N50_PE7241_PhoneValidation_withAllBlankPhoneNumberInDimension,200,Thread Group_Prod1 1-1,true,795,1,1,341,1,0,INFPU07042,0
1520405814791,349,NoFileUpload N51_PE7241_PhoneValidation_withAllInvalidPhoneNumberInDimension,200,Thread Group_Prod1 1-1,true,897,1,1,349,1,0,INFPU07042,0
1520405815179,649,NoFileUpload N52_PE7241_PhoneValidation_withAllNullStringAndBlankPhoneNumberInDimension,200,Thread Group_Prod1 1-1,true,813,1,1,649,1,0,INFPU07042,308
1520405815860,330,NoFileUpload N53_PE7241_PhoneValidation_withAllNullStringPhoneNumberInDimension,200,Thread Group_Prod1 1-1,true,836,1,1,330,1,0,INFPU07042,0
1520405816226,334,NoFileUpload N54_PE7241_PhoneValidation_withAllValidPhoneNumberInDimension,200,Thread Group_Prod1 1-1,true,879,1,1,334,1,0,INFPU07042,0
1520405816594,334,NoFileUpload N55_PE7241_PhoneValidation_withValidAndInvalidPhoneNumberInDimension,200,Thread Group_Prod1 1-1,true,872,1,1,334,1,0,INFPU07042,0
1520405816954,416,NoFileUpload N56_PE7241_RequiredValidation__withAllNullStringInDimension,200,Thread Group_Prod1 1-1,true,872,1,1,415,1,0,INFPU07042,0
1520405817417,789,NoFileUpload N57_PE7241_RequiredValidation__withAllValidValuesInDimension,200,Thread Group_Prod1 1-1,true,858,1,1,789,1,0,INFPU07042,369
1520405818238,375,NoFileUpload N58_PE7241_RequiredValidation_withAllblankValuesInDimension ,200,Thread Group_Prod1 1-1,true,869,1,1,374,1,0,INFPU07042,0
1520405818652,334,"NoFileUpload N59_PE7241_RequiredValidation_WithNullString,BlankAndValuesInDimension",200,Thread Group_Prod1 1-1,true,884,1,1,333,1,0,INFPU07042,0
1520405819030,398,NoFileUpload N60_PE7241_RequiredValidation_WithNullStringlAndBlankInDimension,200,Thread Group_Prod1 1-1,true,875,1,1,398,1,0,INFPU07042,0
1520405819467,631,NoFileUpload N61_PE7241_RequiredValidation_WithValidAndInvalidValue,200,Thread Group_Prod1 1-1,true,879,1,1,631,1,0,INFPU07042,296
1520405820139,379,NoFileUpload N62_PE7241_CheckBoxes_UploadMultipleFile,200,Thread Group_Prod1 1-1,true,805,1,1,378,1,0,INFPU07042,0
1520405820549,353,NoFileUpload N63_PE7241_Dimension_CrossSection,200,Thread Group_Prod1 1-1,true,870,1,1,353,1,0,INFPU07042,0
1520405820939,443,NoFileUpload N64_PE7241_MDA_Dimension,200,Thread Group_Prod1 1-1,true,857,1,1,443,1,0,INFPU07042,0
1520405821421,2439,FileUpload F54_PE-7257_AllValidDateAndDoubleValue(Positive scenario),200,Thread Group_Prod1 1-1,true,19162,1,1,2108,1,0,INFPU07042,0
1520405823862,3965,FileUpload F55_PE-7257_AllValidAndInvalidDateAndDoubleValue(Negative scenario),200,Thread Group_Prod1 1-1,true,18683,1,1,3556,1,0,INFPU07042,284
1520405827829,1753,NoFileUpload N65_PE7506_crosssection_with multiple combination for LPALL_399A,200,Thread Group_Prod1 1-1,true,1319,1,1,1753,1,0,INFPU07042,700
1520405829634,384,NoFileUpload N66_PE7506_crosssection_with 3 Dimensions for LPALL_399A,200,Thread Group_Prod1 1-1,true,1264,1,1,384,1,0,INFPU07042,0
1520405830052,1452,"NoFileUpload N67_PE7506_crosssection_13LATAM_01"": ""Y""",200,Thread Group_Prod1 1-1,true,1235,1,1,1452,1,0,INFPU07042,332
1520405831547,410,"NoFileUpload N68_PE7506_crosssection_ EE_group_13LATAM_01"": ""N""",200,Thread Group_Prod1 1-1,true,1060,1,1,410,1,0,INFPU07042,0
1520405831991,453,NoFileUpload N69_PE7506_crosssection_when  EE_group_13LATAM is not present,200,Thread Group_Prod1 1-1,true,1032,1,1,453,1,0,INFPU07042,0
1520405832503,1267,NoFileUpload N70_PE7506_crosssection_with Dimension for LPALL_399A,200,Thread Group_Prod1 1-1,true,1321,1,1,1266,1,0,INFPU07042,344
1520405833806,379,NoFileUpload N71_PE7506_crosssection_with Dimension for LPALL_399A 1 as Y others as N,200,Thread Group_Prod1 1-1,true,1264,1,1,375,1,0,INFPU07042,0
1520405834227,669,FileUpload F56_PE5415_MultiSheetSuccess,200,Thread Group_Prod1 1-1,true,3621,1,1,669,1,0,INFPU07042,0
1520405834927,1417,FileUpload F57_PE5415_MultiSheetBadRequest_Ignore,400,Thread Group_Prod1 1-1,false,327,1,1,1417,1,1,INFPU07042,371
1520405836346,798,FileUpload F58_PE5415_MultiSheetCorrectRequest,200,Thread Group_Prod1 1-1,true,3494,1,1,795,1,0,INFPU07042,0
1520405837189,1405,FileUpload F59_PE5415_Step1SingleSheetBadReq_Ignore,422,Thread Group_Prod1 1-1,false,1282,1,1,1404,1,1,INFPU07042,257
1520405838635,612,FileUpload F60_PE5415_Step1SingleSheetCorrectReq,200,Thread Group_Prod1 1-1,true,4665,1,1,612,1,0,INFPU07042,0
1520405839289,1234,FileUpload F61_PE5415_Step3MappingCompanyJson,200,Thread Group_Prod1 1-1,true,1611,1,1,1234,1,0,INFPU07042,311
1520405840560,781,FileUpload F62_PE5415_Step3MappingCompanyExcel,200,Thread Group_Prod1 1-1,true,1625,1,1,781,1,0,INFPU07042,0
1520405841394,1341,FileUpload F63_PE5415_Step3MappingColumnExcel,200,Thread Group_Prod1 1-1,true,4466,1,1,1340,1,0,INFPU07042,360
1520405842780,406,FileUpload F64_PE5415_Step3MappingColumnJson,200,Thread Group_Prod1 1-1,false,2585,1,1,405,1,1,INFPU07042,0
1520405843247,457,FileUpload F65_PE5415_Step3MappingColumnJsonWithoutCountry,200,Thread Group_Prod1 1-1,true,2131,1,1,456,1,0,INFPU07042,0
1520405843745,1089,FileUpload F66_PE5415_Step3MappingColumnJsonWithCountry,200,Thread Group_Prod1 1-1,true,1611,1,1,1089,1,0,INFPU07042,464
1520405844876,5374,FileUpload F67_PE8315_Fix,200,Thread Group_Prod1 1-1,false,38517,1,1,4862,1,1,INFPU07042,0
1520405850316,1680,FileUpload F68_PE8037_Fix,200,Thread Group_Prod1 1-1,false,2156,1,1,1676,1,1,INFPU07042,341
1520405852044,667,NoFileUpload N72_ PE5668 T1,200,Thread Group_Prod1 1-1,true,702,1,1,666,1,0,INFPU07042,0
1520405852737,893,NoFileUpload N80_PE7989_Req_NonNumericData_withAllwrongcolumn_MDA,200,Thread Group_Prod1 1-1,true,678,1,1,893,1,0,INFPU07042,228
1520405853682,357,NoFileUpload N81_PE7989_Req_NonNumericData_withAllrightcolumn_MDA,200,Thread Group_Prod1 1-1,true,846,1,1,357,1,0,INFPU07042,0
1520405854078,282,NoFileUpload N82_PE7989_Req_NonNumericData_with1wrongcolumn_MDA,200,Thread Group_Prod1 1-1,true,849,1,1,282,1,0,INFPU07042,0
1520405854413,354,NoFileUpload N83_PE7989_uploadMultipleFile,200,Thread Group_Prod1 1-1,true,835,1,1,354,1,0,INFPU07042,0
1520405854809,562,NoFileUpload N84_400 and 500 Error_crossSectionChecks,200,Thread Group_Prod1 1-1,true,619,1,1,562,1,0,INFPU07042,253
1520405855411,373,NoFileUpload N85_400 and 500 Error_crossSectionChecks,200,Thread Group_Prod1 1-1,true,648,1,1,373,1,0,INFPU07042,0
1520405855829,360,NoFileUpload N86_400 and 500 Error_crossSectionChecks,200,Thread Group_Prod1 1-1,true,647,1,1,360,1,0,INFPU07042,0
1520405856219,281,NoFileUpload N87_400 and 500 Error_crossSectionChecks,200,Thread Group_Prod1 1-1,true,501,1,1,281,1,0,INFPU07042,0
1520405856545,265,NoFileUpload N88_400 and 500 Error_crossSectionChecks,200,Thread Group_Prod1 1-1,true,619,1,1,265,1,0,INFPU07042,0
1520405856844,1173,NoFileUpload N89_PE8186_to Add assertion,200,Thread Group_Prod1 1-1,true,944,1,1,1172,1,0,INFPU07042,265
1520405858053,293,NoFileUpload N90_PE8032_SyntaxError1_Fix,200,Thread Group_Prod1 1-1,false,674,1,1,293,1,1,INFPU07042,0
1520405858427,283,NoFileUpload N91_PE8032_SyntaxError2_Fix,200,Thread Group_Prod1 1-1,false,674,1,1,282,1,1,INFPU07042,0
1520405858755,303,NoFileUpload N92_PE8032_InvalidColumn,200,Thread Group_Prod1 1-1,true,758,1,1,302,1,0,INFPU07042,0
1520405859125,957,NoFileUpload N93_PE7771_Exp,200,Thread Group_Prod1 1-1,true,674,1,1,955,1,0,INFPU07042,339
1520405860172,631,NoFileUpload N94_PE7771_Range,200,Thread Group_Prod1 1-1,true,917,1,1,631,1,0,INFPU07042,0
1520405860847,3671,NoFileUpload N94_PE7771_Added Scenario,200,Thread Group_Prod1 1-1,true,6106,1,1,3668,1,0,INFPU07042,0
1520405864555,1232,NoFileUpload N95_PE8269 and 8397_CSC_MDA_ClearValue_Fix,200,Thread Group_Prod1 1-1,false,582,1,1,1232,1,1,INFPU07042,344
1520405865831,318,NoFileUpload N96_PE8269 and 8397_CSC_OtherThanClearValue,200,Thread Group_Prod1 1-1,true,792,1,1,318,1,0,INFPU07042,0
1520405866196,344,NoFileUpload N97_PE8269 and 8397_UMF_NonMDA,200,Thread Group_Prod1 1-1,true,833,1,1,343,1,0,INFPU07042,0
1520405866570,1199,NoFileUpload N98_PE8269 and 8397_PDA_MDA_ClearValue_Fix,200,Thread Group_Prod1 1-1,false,576,1,1,1198,1,1,INFPU07042,274
1520405867807,508,NoFileUpload N99_PE8269 and 8397_PDA_OtherThanClearValue,200,Thread Group_Prod1 1-1,true,789,1,1,508,1,0,INFPU07042,0
1520405868356,10051,FileUpload F69_PE8584_Null Issue ,200,Thread Group_Prod1 1-1,true,14526,1,1,9657,1,0,INFPU07042,0
1520405878468,1546,FileUpload F70_PE8584,200,Thread Group_Prod1 1-1,true,16938,1,1,1288,1,0,INFPU07042,355
1520405880077,464,FileUpload F71_PE8584,200,Thread Group_Prod1 1-1,true,2020,1,1,464,1,0,INFPU07042,0
1520405880576,975,FileUpload F72_PE8584,200,Thread Group_Prod1 1-1,true,2020,1,1,975,1,0,INFPU07042,290
1520405881587,10153,FileUpload F73_PE8584,200,Thread Group_Prod1 1-1,true,14379,1,1,10139,1,0,INFPU07042,0
1520405891788,20435,FileUpload F74_PE8584,200,Thread Group_Prod1 1-1,true,14383,1,1,20402,1,0,INFPU07042,752
1520405912299,4934,FileUpload F75_PE8584,200,Thread Group_Prod1 1-1,true,18913,1,1,4515,1,0,INFPU07042,413
1520405917301,12855,FileUpload F76_PE8584,200,Thread Group_Prod1 1-1,true,174366,1,1,9760,1,0,INFPU07042,326
1520405930219,7505,FileUpload F77_PE8584,200,Thread Group_Prod1 1-1,true,56609,1,1,6152,1,0,INFPU07042,414
1520405937796,1802,FileUpload F78_PE8584,200,Thread Group_Prod1 1-1,true,6286,1,1,1756,1,0,INFPU07042,411
1520405939644,365,NoFileUpload N100_PE8916,200,Thread Group_Prod1 1-1,false,855,1,1,365,1,1,INFPU07042,0
1520405940032,6946,FileUpload F79_PE8951_P1,200,Thread Group_Prod1 1-1,true,34584,1,1,5564,1,0,INFPU07042,328
1520405946980,6754,FileUpload F80_PE8951_P2,200,Thread Group_Prod1 1-1,true,30836,1,1,6091,1,0,INFPU07042,343
1520405953735,6470,FileUpload F81_PE8951_P3,200,Thread Group_Prod1 1-1,true,30843,1,1,5787,1,0,INFPU07042,276
1520405960206,6820,FileUpload F82_PE8951_P4,200,Thread Group_Prod1 1-1,true,30844,1,1,5910,1,0,INFPU07042,302
1520405967028,3803,FileUpload F83_PE8951_N1,400,Thread Group_Prod1 1-1,true,389,1,1,3801,1,0,INFPU07042,673
1520405970832,5352,FileUpload F84_PE8951_N2,400,Thread Group_Prod1 1-1,true,389,1,1,5351,1,0,INFPU07042,405
1520405976185,9191,FileUpload F85_PE8951_N3,400,Thread Group_Prod1 1-1,true,388,1,1,9191,1,0,INFPU07042,1416
1520405985378,4114,FileUpload F86_PE8951_N4,400,Thread Group_Prod1 1-1,true,388,1,1,4114,1,0,INFPU07042,248
1520405989494,5355,FileUpload F88_8976,200,Thread Group_Prod1 1-1,true,1564,1,1,5355,1,0,INFPU07042,437
1520405994851,4689,FileUpload F87_8976,422,Thread Group_Prod1 1-1,true,1187,1,1,4689,1,0,INFPU07042,291
