timeStamp,elapsed,label,responseCode,threadName,success,bytes,grpThreads,allThreads,Latency,SampleCount,ErrorCount,Hostname,Connect
1519393374890,3735,FileUpload F1_PE-8157_Ignore,200,Thread Group_Prod1 1-1,false,6326,1,1,3733,1,1,INFPU07042,401
1519393378778,1555,FileUpload F1_PE-8110_ErrorCell,200,Thread Group_Prod1 1-1,true,1571,1,1,1555,1,0,INFPU07042,249
1519393380382,3164,FileUpload F2_PE-8110_ErrorCell_Ignore,422,Thread Group_Prod1 1-1,false,650896,1,1,1644,1,1,INFPU07042,0
1519393383986,2374,FileUpload F3_PE-8110_ErrorCell_Ignore,400,Thread Group_Prod1 1-1,false,385,1,1,2373,1,1,INFPU07042,251
1519393386376,795,FileUpload F4_PE-5678_SequentialWithOtherValidations,200,Thread Group_Prod1 1-1,true,5471,1,1,793,1,0,INFPU07042,252
1519393387188,260,NoFileUpload N1_PE-5678_LOOK_UP_CHECK1,200,Thread Group_Prod1 1-1,false,1072,1,1,259,1,1,INFPU07042,0
1519393387481,269,NoFileUpload N1_PE-5678_SequentialWithOtherValidations,200,Thread Group_Prod1 1-1,true,994,1,1,269,1,0,INFPU07042,0
1519393387778,255,NoFileUpload N2_PE-5678_SequentialWithOtherValidations,200,Thread Group_Prod1 1-1,true,959,1,1,255,1,0,INFPU07042,0
1519393388063,865,"NoFileUpload_Null Validation_crossSectionChecks_LPALL_566 is """"",200,Thread Group_Prod1 1-1,true,6764,1,1,863,1,0,INFPU07042,0
1519393388965,1822,NoFileUpload_Null Validation_crossSectionChecks_LPALL_566 is null,200,Thread Group_Prod1 1-1,true,6760,1,1,1821,1,0,INFPU07042,250
1519393390834,306,"NoFileUpload_Null Validation_crossSectionChecks_LPALL_566 is ""null""",200,Thread Group_Prod1 1-1,true,6903,1,1,303,1,0,INFPU07042,0
1519393391165,1738,"NoFileUpload_Null Validation_crossSectionChecks_LPALL_566 is ""   """,200,Thread Group_Prod1 1-1,true,6767,1,1,1737,1,0,INFPU07042,244
1519393392941,257,NoFileUpload N3_PE-7172MDA,200,Thread Group_Prod1 1-1,true,664,1,1,257,1,0,INFPU07042,0
1519393393259,764,FileUpload F5_PE7172_Fix,200,Thread Group_Prod1 1-1,false,4477,1,1,762,1,1,INFPU07042,245
1519393394062,492,NoFileUpload N4_PE-8032MDA,200,Thread Group_Prod1 1-1,true,664,1,1,492,1,0,INFPU07042,0
1519393394600,763,NoFileUpload N5_PE-8070,200,Thread Group_Prod1 1-1,true,881,1,1,763,1,0,INFPU07042,0
1519393395374,1243,NoFileUpload N73_PE5668 T2_Temp,200,Thread Group_Prod1 1-1,true,614,1,1,1242,1,0,INFPU07042,248
1519393396657,254,NoFileUpload N74_PE5668 T3_Temp,200,Thread Group_Prod1 1-1,true,753,1,1,254,1,0,INFPU07042,0
1519393396927,255,NoFileUpload N75_PE5668 T4_Temp,200,Thread Group_Prod1 1-1,true,711,1,1,254,1,0,INFPU07042,0
1519393397214,253,NoFileUpload N76_PE5668 T5_Temp,200,Thread Group_Prod1 1-1,true,725,1,1,253,1,0,INFPU07042,0
1519393397491,1272,NoFileUpload N78_PE5668 T7_Temp,200,Thread Group_Prod1 1-1,true,705,1,1,1271,1,0,INFPU07042,253
1519393398785,259,NoFileUpload N79_PE5668 T8_Temp,200,Thread Group_Prod1 1-1,true,607,1,1,259,1,0,INFPU07042,0
1519393399076,1100,FileUpload F6_PE-7257_US_CSV_Shuffle,200,Thread Group_Prod1 1-1,false,5797,1,1,1081,1,1,INFPU07042,0
1519393400198,1878,FileUpload F7_PE-7257_US_Excel_Shuffle,200,Thread Group_Prod1 1-1,false,9472,1,1,1877,1,1,INFPU07042,245
1519393402155,536,NoFileUpload N6_PE7978,200,Thread Group_Prod1 1-1,true,6632,1,1,534,1,0,INFPU07042,0
1519393402731,743,NoFileUpload N7_PE7954,200,Thread Group_Prod1 1-1,true,727,1,1,742,1,0,INFPU07042,246
1519393403510,746,NoFileUpload N77_PE5668 T6,200,Thread Group_Prod1 1-1,true,716,1,1,745,1,0,INFPU07042,0
1519393404282,308,FileUpload F8_PE7999_Ignore since files are identical,422,Thread Group_Prod1 1-1,false,1282,1,1,308,1,1,INFPU07042,0
1519393404624,257,NoFileUpload N8_ PE7795,200,Thread Group_Prod1 1-1,true,717,1,1,257,1,0,INFPU07042,0
1519393404894,772,NoFileUpload N9_PE7046_AU_Comp2,200,Thread Group_Prod1 1-1,true,914,1,1,771,1,0,INFPU07042,243
1519393405685,255,NoFileUpload N10_PE7046_US_Comp1,200,Thread Group_Prod1 1-1,true,910,1,1,254,1,0,INFPU07042,0
1519393405975,256,NoFileUpload N11_PE7046_IN_Comp1,200,Thread Group_Prod1 1-1,true,910,1,1,255,1,0,INFPU07042,0
1519393406269,250,NoFileUpload N12_PE7046_ZA_Comp2,200,Thread Group_Prod1 1-1,true,919,1,1,250,1,0,INFPU07042,0
1519393406544,783,NoFileUpload N13_PE7773_NUM_EMP is 7_Fix,200,Thread Group_Prod1 1-1,false,1099,1,1,782,1,1,INFPU07042,0
1519393407371,1545,NoFileUpload N14_PE7773_NUM_EMP is 8.1_boundry is 8,200,Thread Group_Prod1 1-1,true,1100,1,1,1545,1,0,INFPU07042,260
1519393408959,280,NoFileUpload N15_PE7773_NUM_EMP is 9_boundry is 8,200,Thread Group_Prod1 1-1,true,1099,1,1,280,1,0,INFPU07042,0
1519393409275,324,FileUpload F9_PE5216_ImpactedbyComment,200,Thread Group_Prod1 1-1,false,1356,1,1,324,1,1,INFPU07042,0
1519393409633,760,NoFileUpload N16_PE7044_expression,200,Thread Group_Prod1 1-1,true,674,1,1,759,1,0,INFPU07042,250
1519393410394,519,NoFileUpload N17_PE7044_range,200,Thread Group_Prod1 1-1,true,917,1,1,519,1,0,INFPU07042,0
1519393410965,272,NoFileUpload N18_PE7044_rangeValidationRefTable,200,Thread Group_Prod1 1-1,true,912,1,1,272,1,0,INFPU07042,0
1519393411281,264,NoFileUpload N19_PE7044_rangeValidationRefTable_dimensions,200,Thread Group_Prod1 1-1,true,942,1,1,264,1,0,INFPU07042,0
1519393411579,1713,FileUpload F10_PE5691_1Record_Ignore,400,Thread Group_Prod1 1-1,false,327,1,1,1713,1,1,INFPU07042,0
1519393413326,2017,FileUpload F11_PE5691_1Record_Ignore,400,Thread Group_Prod1 1-1,false,327,1,1,2016,1,1,INFPU07042,262
1519393415368,1046,FileUpload F12_PE6027_Ref Table,200,Thread Group_Prod1 1-1,true,2193,1,1,1045,1,0,INFPU07042,289
1519393416469,579,FileUpload F13_PE6030,200,Thread Group_Prod1 1-1,true,3289,1,1,578,1,0,INFPU07042,0
1519393417116,251,NoFileUpload N20_PE7033,200,Thread Group_Prod1 1-1,true,910,1,1,251,1,0,INFPU07042,0
1519393417367,252,NoFileUpload N21_PE7314,200,Thread Group_Prod1 1-1,true,771,1,1,252,1,0,INFPU07042,0
1519393417654,2114,FileUpload F14_PE7071_1Record_Shuffle,200,Thread Group_Prod1 1-1,false,5862,1,1,2112,1,1,INFPU07042,250
1519393419801,1982,FileUpload F15_PE7071_1Record,200,Thread Group_Prod1 1-1,true,5860,1,1,1980,1,0,INFPU07042,242
1519393421843,1969,FileUpload F16_PE7071_1Record,200,Thread Group_Prod1 1-1,true,6461,1,1,1967,1,0,INFPU07042,242
1519393423839,1725,FileUpload F17_PE7071_1Record,400,Thread Group_Prod1 1-1,false,360,1,1,1725,1,1,INFPU07042,0
1519393425580,1897,FileUpload F18_PE7611,200,Thread Group_Prod1 1-1,false,1989,1,1,1896,1,1,INFPU07042,297
1519393427496,1353,FileUpload F19_PE7611,200,Thread Group_Prod1 1-1,false,2070,1,1,1351,1,1,INFPU07042,0
1519393428874,1820,FileUpload F20_PE7611,200,Thread Group_Prod1 1-1,true,1967,1,1,1819,1,0,INFPU07042,251
1519393430722,1310,FileUpload F21_PE7611,200,Thread Group_Prod1 1-1,true,1989,1,1,1310,1,0,INFPU07042,0
1519393432067,1794,FileUpload F22_PE7611,200,Thread Group_Prod1 1-1,false,2452,1,1,1793,1,1,INFPU07042,250
1519393433897,1316,FileUpload F23_PE7611,200,Thread Group_Prod1 1-1,false,2275,1,1,1316,1,1,INFPU07042,0
1519393435240,1855,FileUpload F24_PE7611,200,Thread Group_Prod1 1-1,false,2275,1,1,1855,1,1,INFPU07042,254
1519393437121,1317,FileUpload F25_PE7611,200,Thread Group_Prod1 1-1,false,2445,1,1,1317,1,1,INFPU07042,0
1519393438466,1955,FileUpload F26_PE7611,200,Thread Group_Prod1 1-1,false,2446,1,1,1955,1,1,INFPU07042,340
1519393440448,1427,FileUpload F27_PE7611,200,Thread Group_Prod1 1-1,true,2173,1,1,1427,1,0,INFPU07042,0
1519393441909,845,FileUpload F28_6713CSV_SkipLastBlankRow,200,Thread Group_Prod1 1-1,true,1752,1,1,845,1,0,INFPU07042,282
1519393442755,275,FileUpload F29_6713CSV_SkipInitialRow,200,Thread Group_Prod1 1-1,true,1461,1,1,275,1,0,INFPU07042,0
1519393443052,273,FileUpload F30_6713CSV_SkipMiddleBlankRows,200,Thread Group_Prod1 1-1,true,2055,1,1,273,1,0,INFPU07042,0
1519393443344,542,FileUpload F31_6713Excel_SkipInitialRow,200,Thread Group_Prod1 1-1,true,1461,1,1,542,1,0,INFPU07042,0
1519393443919,538,FileUpload F32_6713Excel_SkipLastBlankRow,200,Thread Group_Prod1 1-1,true,1752,1,1,538,1,0,INFPU07042,0
1519393444499,1038,FileUpload F33_6713Excel_SkipMiddleRow,200,Thread Group_Prod1 1-1,true,2055,1,1,1037,1,0,INFPU07042,252
1519393445574,261,NoFileUpload N22_PE7631_metaData,200,Thread Group_Prod1 1-1,true,604,1,1,260,1,0,INFPU07042,0
1519393445869,257,NoFileUpload N23_PE7631_metaData,200,Thread Group_Prod1 1-1,true,604,1,1,257,1,0,INFPU07042,0
1519393446169,260,NoFileUpload N24_PE7631_Autocorrect,200,Thread Group_Prod1 1-1,true,836,1,1,259,1,0,INFPU07042,0
1519393446456,257,NoFileUpload N25_PE7631,200,Thread Group_Prod1 1-1,true,830,1,1,257,1,0,INFPU07042,0
1519393446744,776,NoFileUpload N26_7045RawJson_NonNumerciData,200,Thread Group_Prod1 1-1,true,846,1,1,775,1,0,INFPU07042,257
1519393447569,262,NoFileUpload N27_7045RawJson_SkipBlankCols,200,Thread Group_Prod1 1-1,true,771,1,1,261,1,0,INFPU07042,0
1519393447857,314,NoFileUpload N28_7045RawJson_SkipNonNumericCols,200,Thread Group_Prod1 1-1,true,675,1,1,314,1,0,INFPU07042,0
1519393448181,261,NoFileUpload N29_7045RawJson_WithDimesion,200,Thread Group_Prod1 1-1,true,853,1,1,261,1,0,INFPU07042,0
1519393448469,262,NoFileUpload N30_7045RawJson_SingleNonBlankValue,200,Thread Group_Prod1 1-1,true,615,1,1,261,1,0,INFPU07042,0
1519393448764,815,NoFileUpload N31_7045RawJson_WithOtherValidation,200,Thread Group_Prod1 1-1,true,903,1,1,815,1,0,INFPU07042,270
1519393449620,299,FileUpload F34_PE7045_7045CSV_SimpleSequentialCheck,200,Thread Group_Prod1 1-1,true,2040,1,1,298,1,0,INFPU07042,0
1519393449942,556,FileUpload F35_PE7045_7045Excel_SimpleSequentialCheck,200,Thread Group_Prod1 1-1,true,2028,1,1,555,1,0,INFPU07042,0
1519393450508,279,FileUpload F36_PE7045_7045CSV_SkipBlankColumn,200,Thread Group_Prod1 1-1,true,1727,1,1,279,1,0,INFPU07042,0
1519393450827,1064,FileUpload F37_PE7045_7045EXCEL_SkipBlankColumn,200,Thread Group_Prod1 1-1,true,2070,1,1,1064,1,0,INFPU07042,260
1519393451918,271,FileUpload F38_PE7045_7045CSV_SkipNonNumericData,200,Thread Group_Prod1 1-1,true,1628,1,1,270,1,0,INFPU07042,0
1519393452209,538,FileUpload F39_PE7045_7045EXCEL_SkipNonNumericData,200,Thread Group_Prod1 1-1,true,2584,1,1,537,1,0,INFPU07042,0
1519393452768,267,NoFileUpload N32_PE7474_Testcase1,200,Thread Group_Prod1 1-1,true,900,1,1,267,1,0,INFPU07042,0
1519393453073,779,NoFileUpload N33_PE7474_Testcase2,200,Thread Group_Prod1 1-1,true,903,1,1,779,1,0,INFPU07042,257
1519393453881,262,NoFileUpload N34_PE7474_Testcase3,200,Thread Group_Prod1 1-1,true,815,1,1,262,1,0,INFPU07042,0
1519393454166,270,NoFileUpload N35_PE7474_Testcase4,200,Thread Group_Prod1 1-1,true,881,1,1,270,1,0,INFPU07042,0
1519393454452,280,NoFileUpload N36_PE7474_Testcase5,200,Thread Group_Prod1 1-1,true,905,1,1,280,1,0,INFPU07042,0
1519393454762,264,NoFileUpload N37_PE7474_Testcase6,200,Thread Group_Prod1 1-1,true,895,1,1,264,1,0,INFPU07042,0
1519393455039,4999,FileUpload F40_PE7474,200,Thread Group_Prod1 1-1,true,4224,1,1,4998,1,0,INFPU07042,0
1519393460070,1021,NoFileUpload N38_PE7689_RefTable,200,Thread Group_Prod1 1-1,true,942,1,1,1021,1,0,INFPU07042,255
1519393461124,770,NoFileUpload N39_PE7440_ISBLANK_ImpactedbyComment,200,Thread Group_Prod1 1-1,true,1070,1,1,769,1,0,INFPU07042,0
1519393461911,264,NoFileUpload N40_PE7440_ISNOTBLANK_LENGTH_ImpactedbyComment,200,Thread Group_Prod1 1-1,true,954,1,1,264,1,0,INFPU07042,0
1519393462188,777,FileUpload F41_PE5679_EqualToWithAllBlank_POSCODE=2,200,Thread Group_Prod1 1-1,true,2838,1,1,776,1,0,INFPU07042,252
1519393462991,269,FileUpload F42_PE5679_3 Null string and 1 Blank_POSCODE=2,200,Thread Group_Prod1 1-1,true,2669,1,1,268,1,0,INFPU07042,0
1519393463300,269,FileUpload F43_PE5679_2 Null String and 2 Blank_POSCODE=2,200,Thread Group_Prod1 1-1,true,2871,1,1,268,1,0,INFPU07042,0
1519393463587,266,FileUpload F44_PE5679_1 Null String_1Data_2 Blank_POSCODE=2,200,Thread Group_Prod1 1-1,true,1746,1,1,266,1,0,INFPU07042,0
1519393463866,290,FileUpload F45_PE5679_NoBlanksNoNullAllUnique_POSCODE=2,200,Thread Group_Prod1 1-1,true,3240,1,1,289,1,0,INFPU07042,0
1519393464174,819,FileUpload F46_PE5679_3samedata_1Blank_POSCODE=2,200,Thread Group_Prod1 1-1,true,2662,1,1,818,1,0,INFPU07042,296
1519393465033,348,FileUpload F47_PE5679_POSCODEGreaterThan2,200,Thread Group_Prod1 1-1,true,2841,1,1,347,1,0,INFPU07042,0
1519393465397,272,FileUpload F48_PE5679_POSCODEGreaterThanEqualTo2,200,Thread Group_Prod1 1-1,true,1747,1,1,272,1,0,INFPU07042,0
1519393465702,328,FileUpload F49_PE5679_LessThan,200,Thread Group_Prod1 1-1,true,2461,1,1,327,1,0,INFPU07042,0
1519393466072,360,FileUpload F50_PE5679_LessThanEqualTo1,200,Thread Group_Prod1 1-1,true,2838,1,1,359,1,0,INFPU07042,0
1519393466483,3259,FileUpload F52_PE7724_CSV_ref,200,Thread Group_Prod1 1-1,true,21361,1,1,2994,1,0,INFPU07042,261
1519393469775,3253,FileUpload F52_PE7724_Excel_ValidationMsg,200,Thread Group_Prod1 1-1,false,29867,1,1,2988,1,1,INFPU07042,270
1519393473067,2041,FileUpload F53_PE7056_uploadMultipleFile_TBC for strict or loose_Shuffle,200,Thread Group_Prod1 1-1,true,5235,1,1,2039,1,0,INFPU07042,268
1519393475125,778,NoFileUpload N41_PE7056_validateAggregates_Fix,200,Thread Group_Prod1 1-1,false,807,1,1,778,1,1,INFPU07042,257
1519393475939,264,NoFileUpload N42_7056_performDefaultActions_Correct as per new code,200,Thread Group_Prod1 1-1,true,674,1,1,264,1,0,INFPU07042,0
1519393476222,773,NoFileUpload N43_7056_crossSectionChecks,200,Thread Group_Prod1 1-1,true,1316,1,1,773,1,0,INFPU07042,0
1519393477047,262,NoFileUpload N44_PE7241_EmailValidation -withInvalidAndValidEmailIdInDimension,200,Thread Group_Prod1 1-1,true,858,1,1,262,1,0,INFPU07042,0
1519393477352,841,NoFileUpload N45_PE7241_EmailValidation-withAllInvalidEmailIdInDimension,200,Thread Group_Prod1 1-1,true,884,1,1,841,1,0,INFPU07042,321
1519393478221,263,NoFileUpload N46_PE7241_EmailValidation -withNullStringAndBlankEmailIdInDimension,200,Thread Group_Prod1 1-1,true,853,1,1,262,1,0,INFPU07042,0
1519393478515,265,NoFileUpload N47_PE7241_EmailValidation_withAllBlankEmailIdInDimension,200,Thread Group_Prod1 1-1,true,832,1,1,264,1,0,INFPU07042,0
1519393478805,264,NoFileUpload N48_PE7241_EmailValidation_withAllEmailIdAsNullStringInDimension,200,Thread Group_Prod1 1-1,true,848,1,1,263,1,0,INFPU07042,0
1519393479098,263,NoFileUpload N49_PE7241_EmailValidation_withAllValidEmailIdInDimension,200,Thread Group_Prod1 1-1,true,876,1,1,263,1,0,INFPU07042,0
1519393479480,762,NoFileUpload N50_PE7241_PhoneValidation_withAllBlankPhoneNumberInDimension,200,Thread Group_Prod1 1-1,true,795,1,1,762,1,0,INFPU07042,253
1519393480271,259,NoFileUpload N51_PE7241_PhoneValidation_withAllInvalidPhoneNumberInDimension,200,Thread Group_Prod1 1-1,true,897,1,1,259,1,0,INFPU07042,0
1519393480554,258,NoFileUpload N52_PE7241_PhoneValidation_withAllNullStringAndBlankPhoneNumberInDimension,200,Thread Group_Prod1 1-1,true,813,1,1,257,1,0,INFPU07042,0
1519393480834,258,NoFileUpload N53_PE7241_PhoneValidation_withAllNullStringPhoneNumberInDimension,200,Thread Group_Prod1 1-1,true,836,1,1,258,1,0,INFPU07042,0
1519393481137,258,NoFileUpload N54_PE7241_PhoneValidation_withAllValidPhoneNumberInDimension,200,Thread Group_Prod1 1-1,true,879,1,1,258,1,0,INFPU07042,0
1519393481418,257,NoFileUpload N55_PE7241_PhoneValidation_withValidAndInvalidPhoneNumberInDimension,200,Thread Group_Prod1 1-1,true,872,1,1,257,1,0,INFPU07042,0
1519393481688,773,NoFileUpload N56_PE7241_RequiredValidation__withAllNullStringInDimension,200,Thread Group_Prod1 1-1,true,872,1,1,773,1,0,INFPU07042,256
1519393482494,261,NoFileUpload N57_PE7241_RequiredValidation__withAllValidValuesInDimension,200,Thread Group_Prod1 1-1,true,858,1,1,261,1,0,INFPU07042,0
1519393482766,261,NoFileUpload N58_PE7241_RequiredValidation_withAllblankValuesInDimension ,200,Thread Group_Prod1 1-1,true,869,1,1,260,1,0,INFPU07042,0
1519393483055,263,"NoFileUpload N59_PE7241_RequiredValidation_WithNullString,BlankAndValuesInDimension",200,Thread Group_Prod1 1-1,true,884,1,1,263,1,0,INFPU07042,0
1519393483333,260,NoFileUpload N60_PE7241_RequiredValidation_WithNullStringlAndBlankInDimension,200,Thread Group_Prod1 1-1,true,875,1,1,260,1,0,INFPU07042,0
1519393483623,260,NoFileUpload N61_PE7241_RequiredValidation_WithValidAndInvalidValue,200,Thread Group_Prod1 1-1,true,879,1,1,260,1,0,INFPU07042,0
1519393483914,783,NoFileUpload N62_PE7241_CheckBoxes_UploadMultipleFile,200,Thread Group_Prod1 1-1,true,805,1,1,783,1,0,INFPU07042,260
1519393484726,264,NoFileUpload N63_PE7241_Dimension_CrossSection,200,Thread Group_Prod1 1-1,true,870,1,1,264,1,0,INFPU07042,0
1519393485014,265,NoFileUpload N64_PE7241_MDA_Dimension,200,Thread Group_Prod1 1-1,true,857,1,1,265,1,0,INFPU07042,0
1519393485314,1717,FileUpload F54_PE-7257_AllValidDateAndDoubleValue(Positive scenario),200,Thread Group_Prod1 1-1,true,23416,1,1,1454,1,0,INFPU07042,0
1519393487034,2388,FileUpload F55_PE-7257_AllValidAndInvalidDateAndDoubleValue(Negative scenario),200,Thread Group_Prod1 1-1,true,26383,1,1,2132,1,0,INFPU07042,254
1519393489423,1076,NoFileUpload N65_PE7506_crosssection_with multiple combination for LPALL_399A,200,Thread Group_Prod1 1-1,true,1319,1,1,1076,1,0,INFPU07042,276
1519393490526,276,NoFileUpload N66_PE7506_crosssection_with 3 Dimensions for LPALL_399A,200,Thread Group_Prod1 1-1,true,1264,1,1,276,1,0,INFPU07042,0
1519393490844,278,"NoFileUpload N67_PE7506_crosssection_13LATAM_01"": ""Y""",200,Thread Group_Prod1 1-1,true,1235,1,1,277,1,0,INFPU07042,0
1519393491294,287,"NoFileUpload N68_PE7506_crosssection_ EE_group_13LATAM_01"": ""N""",200,Thread Group_Prod1 1-1,true,1060,1,1,287,1,0,INFPU07042,0
1519393491607,1046,NoFileUpload N69_PE7506_crosssection_when  EE_group_13LATAM is not present,200,Thread Group_Prod1 1-1,true,1037,1,1,1046,1,0,INFPU07042,260
1519393492675,268,NoFileUpload N70_PE7506_crosssection_with Dimension for LPALL_399A,200,Thread Group_Prod1 1-1,true,1321,1,1,268,1,0,INFPU07042,0
1519393492955,269,NoFileUpload N71_PE7506_crosssection_with Dimension for LPALL_399A 1 as Y others as N,200,Thread Group_Prod1 1-1,true,1264,1,1,269,1,0,INFPU07042,0
1519393493252,653,FileUpload F56_PE5415_MultiSheetSuccess,200,Thread Group_Prod1 1-1,true,3621,1,1,652,1,0,INFPU07042,0
1519393493932,1092,FileUpload F57_PE5415_MultiSheetBadRequest_Ignore,400,Thread Group_Prod1 1-1,false,327,1,1,1092,1,1,INFPU07042,267
1519393495025,627,FileUpload F58_PE5415_MultiSheetCorrectRequest,200,Thread Group_Prod1 1-1,true,3494,1,1,626,1,0,INFPU07042,0
1519393495689,627,FileUpload F59_PE5415_Step1SingleSheetBadReq_Ignore,422,Thread Group_Prod1 1-1,false,1282,1,1,626,1,1,INFPU07042,0
1519393496361,1057,FileUpload F60_PE5415_Step1SingleSheetCorrectReq,200,Thread Group_Prod1 1-1,true,4665,1,1,1056,1,0,INFPU07042,258
1519393497432,363,FileUpload F61_PE5415_Step3MappingCompanyJson,200,Thread Group_Prod1 1-1,true,1611,1,1,363,1,0,INFPU07042,0
1519393497816,530,FileUpload F62_PE5415_Step3MappingCompanyExcel,200,Thread Group_Prod1 1-1,true,1625,1,1,530,1,0,INFPU07042,0
1519393498372,1057,FileUpload F63_PE5415_Step3MappingColumnExcel,200,Thread Group_Prod1 1-1,true,4466,1,1,1056,1,0,INFPU07042,264
1519393499459,349,FileUpload F64_PE5415_Step3MappingColumnJson,200,Thread Group_Prod1 1-1,true,4418,1,1,348,1,0,INFPU07042,0
1519393499853,282,FileUpload F65_PE5415_Step3MappingColumnJsonWithoutCountry,200,Thread Group_Prod1 1-1,true,2131,1,1,281,1,0,INFPU07042,0
1519393500151,268,FileUpload F66_PE5415_Step3MappingColumnJsonWithCountry,200,Thread Group_Prod1 1-1,true,1611,1,1,267,1,0,INFPU07042,0
1519393500448,4407,FileUpload F67_PE8315_Fix,200,Thread Group_Prod1 1-1,false,32640,1,1,4149,1,1,INFPU07042,324
1519393504893,1115,FileUpload F68_PE8037_Fix,200,Thread Group_Prod1 1-1,false,2156,1,1,1114,1,1,INFPU07042,253
1519393506028,511,NoFileUpload N72_ PE5668 T1,200,Thread Group_Prod1 1-1,true,702,1,1,511,1,0,INFPU07042,0
1519393506576,259,NoFileUpload N80_PE7989_Req_NonNumericData_withAllwrongcolumn_MDA,200,Thread Group_Prod1 1-1,true,678,1,1,259,1,0,INFPU07042,0
1519393506859,257,NoFileUpload N81_PE7989_Req_NonNumericData_withAllrightcolumn_MDA,200,Thread Group_Prod1 1-1,true,846,1,1,257,1,0,INFPU07042,0
1519393507133,804,NoFileUpload N82_PE7989_Req_NonNumericData_with1wrongcolumn_MDA,200,Thread Group_Prod1 1-1,true,849,1,1,804,1,0,INFPU07042,266
1519393507957,271,NoFileUpload N83_PE7989_uploadMultipleFile,200,Thread Group_Prod1 1-1,true,835,1,1,271,1,0,INFPU07042,0
1519393508243,272,NoFileUpload N84_400 and 500 Error_crossSectionChecks,200,Thread Group_Prod1 1-1,true,619,1,1,271,1,0,INFPU07042,0
1519393508527,271,NoFileUpload N85_400 and 500 Error_crossSectionChecks,200,Thread Group_Prod1 1-1,true,648,1,1,271,1,0,INFPU07042,0
1519393508807,272,NoFileUpload N86_400 and 500 Error_crossSectionChecks,200,Thread Group_Prod1 1-1,true,647,1,1,272,1,0,INFPU07042,0
1519393509088,270,NoFileUpload N87_400 and 500 Error_crossSectionChecks,200,Thread Group_Prod1 1-1,true,501,1,1,270,1,0,INFPU07042,0
1519393509370,764,NoFileUpload N88_400 and 500 Error_crossSectionChecks,200,Thread Group_Prod1 1-1,true,619,1,1,763,1,0,INFPU07042,253
1519393510152,512,NoFileUpload N89_PE8186_to Add assertion,200,Thread Group_Prod1 1-1,true,944,1,1,511,1,0,INFPU07042,0
1519393510674,261,NoFileUpload N90_PE8032_SyntaxError1_Fix,200,Thread Group_Prod1 1-1,false,674,1,1,260,1,1,INFPU07042,0
1519393510974,259,NoFileUpload N91_PE8032_SyntaxError2_Fix,200,Thread Group_Prod1 1-1,false,674,1,1,259,1,1,INFPU07042,0
1519393511258,260,NoFileUpload N92_PE8032_InvalidColumn,200,Thread Group_Prod1 1-1,true,758,1,1,260,1,0,INFPU07042,0
1519393511575,785,NoFileUpload N93_PE7771_Exp,200,Thread Group_Prod1 1-1,true,674,1,1,785,1,0,INFPU07042,260
1519393512389,525,NoFileUpload N94_PE7771_Range,200,Thread Group_Prod1 1-1,true,917,1,1,525,1,0,INFPU07042,0
1519393512947,1087,NoFileUpload N94_PE7771_Added Scenario,200,Thread Group_Prod1 1-1,true,6106,1,1,1085,1,0,INFPU07042,0
1519393514082,1015,NoFileUpload N95_PE8269 and 8397_CSC_MDA_ClearValue_Fix,200,Thread Group_Prod1 1-1,false,582,1,1,1015,1,1,INFPU07042,253
1519393515128,267,NoFileUpload N96_PE8269 and 8397_CSC_OtherThanClearValue,200,Thread Group_Prod1 1-1,true,792,1,1,267,1,0,INFPU07042,0
1519393515424,258,NoFileUpload N97_PE8269 and 8397_UMF_NonMDA,200,Thread Group_Prod1 1-1,true,833,1,1,258,1,0,INFPU07042,0
1519393515711,259,NoFileUpload N98_PE8269 and 8397_PDA_MDA_ClearValue_Fix,200,Thread Group_Prod1 1-1,false,576,1,1,259,1,1,INFPU07042,0
1519393517241,1027,NoFileUpload N99_PE8269 and 8397_PDA_OtherThanClearValue,200,Thread Group_Prod1 1-1,true,789,1,1,1027,1,0,INFPU07042,256
1519393518404,262,NoFileUpload N100_PE8269 and 8397_PDA_OtherThanClearValue,500,Thread Group_Prod1 1-1,false,407,1,1,261,1,1,INFPU07042,0
1519393518698,7133,FileUpload F69_PE8584_Null Issue ,200,Thread Group_Prod1 1-1,false,14544,1,1,7128,1,1,INFPU07042,0
1519393525867,1068,FileUpload F70_PE8584,200,Thread Group_Prod1 1-1,false,11458,1,1,1063,1,1,INFPU07042,261
1519393526969,315,FileUpload F71_PE8584,200,Thread Group_Prod1 1-1,false,2034,1,1,314,1,1,INFPU07042,0
1519393527300,277,FileUpload F72_PE8584,200,Thread Group_Prod1 1-1,false,2034,1,1,276,1,1,INFPU07042,0
1519393527616,7989,FileUpload F73_PE8584,200,Thread Group_Prod1 1-1,false,14412,1,1,7983,1,1,INFPU07042,0
1519393535628,12290,FileUpload F74_PE8584,200,Thread Group_Prod1 1-1,false,14416,1,1,12285,1,1,INFPU07042,259
1519393547937,268,FileUpload F75_PE8584,Non HTTP response code: java.io.FileNotFoundException,Thread Group_Prod1 1-1,false,2738,1,1,0,1,1,INFPU07042,264
1519393548306,259,FileUpload F76_PE8584,Non HTTP response code: java.io.FileNotFoundException,Thread Group_Prod1 1-1,false,2737,1,1,0,1,1,INFPU07042,256
1519393548605,267,FileUpload F77_PE8584,Non HTTP response code: java.io.FileNotFoundException,Thread Group_Prod1 1-1,false,2733,1,1,0,1,1,INFPU07042,266
1519393548890,271,FileUpload F77_PE8584,Non HTTP response code: java.io.FileNotFoundException,Thread Group_Prod1 1-1,false,2733,1,1,0,1,1,INFPU07042,268
1519393549196,1040,FileUpload F87_PE8584,200,Thread Group_Prod1 1-1,false,6088,1,1,1038,1,1,INFPU07042,257
1519393550270,1,FileUpload F78_PE8916,Non HTTP response code: java.io.FileNotFoundException,Thread Group_Prod1 1-1,false,2737,1,1,0,1,1,INFPU07042,0
1519393550293,782,NoFileUpload N100_PE8916,200,Thread Group_Prod1 1-1,false,855,1,1,782,1,1,INFPU07042,261
1519393551091,3071,FileUpload F79_PE8951_P1,200,Thread Group_Prod1 1-1,true,34677,1,1,2804,1,0,INFPU07042,0
1519393554162,4435,FileUpload F80_PE8951_P2,200,Thread Group_Prod1 1-1,true,30936,1,1,4153,1,0,INFPU07042,261
1519393558598,3961,FileUpload F81_PE8951_P3,200,Thread Group_Prod1 1-1,true,30929,1,1,3698,1,0,INFPU07042,257
1519393562561,3879,FileUpload F82_PE8951_P4,200,Thread Group_Prod1 1-1,true,30936,1,1,3614,1,0,INFPU07042,261
1519393566441,3759,FileUpload F83_PE8951_N1,400,Thread Group_Prod1 1-1,true,389,1,1,3759,1,0,INFPU07042,411
1519393570201,3445,FileUpload F84_PE8951_N2,400,Thread Group_Prod1 1-1,true,389,1,1,3445,1,0,INFPU07042,258
1519393573646,3161,FileUpload F85_PE8951_N3,400,Thread Group_Prod1 1-1,true,388,1,1,3161,1,0,INFPU07042,257
1519393576809,3276,FileUpload F86_PE8951_N4,400,Thread Group_Prod1 1-1,true,388,1,1,3276,1,0,INFPU07042,252
1519393871630,3672,FileUpload F1_PE-8157_Ignore,200,Thread Group_Prod1 1-1,false,6326,1,1,3671,1,1,INFPU07042,382
1519393875337,1025,FileUpload F1_PE-8110_ErrorCell,200,Thread Group_Prod1 1-1,true,1571,1,1,1025,1,0,INFPU07042,249
1519393876400,3162,FileUpload F2_PE-8110_ErrorCell_Ignore,422,Thread Group_Prod1 1-1,false,650879,1,1,1643,1,1,INFPU07042,0
1519393879616,2408,FileUpload F3_PE-8110_ErrorCell_Ignore,400,Thread Group_Prod1 1-1,false,385,1,1,2407,1,1,INFPU07042,243
1519393882056,769,FileUpload F4_PE-5678_SequentialWithOtherValidations,200,Thread Group_Prod1 1-1,true,5471,1,1,767,1,0,INFPU07042,254
1519393882849,260,NoFileUpload N1_PE-5678_LOOK_UP_CHECK1,200,Thread Group_Prod1 1-1,false,1072,1,1,260,1,1,INFPU07042,0
1519393883131,258,NoFileUpload N1_PE-5678_SequentialWithOtherValidations,200,Thread Group_Prod1 1-1,true,994,1,1,258,1,0,INFPU07042,0
1519393883411,257,NoFileUpload N2_PE-5678_SequentialWithOtherValidations,200,Thread Group_Prod1 1-1,true,959,1,1,257,1,0,INFPU07042,0
1519393883704,807,"NoFileUpload_Null Validation_crossSectionChecks_LPALL_566 is """"",200,Thread Group_Prod1 1-1,true,6764,1,1,804,1,0,INFPU07042,0
1519393884535,1745,NoFileUpload_Null Validation_crossSectionChecks_LPALL_566 is null,200,Thread Group_Prod1 1-1,true,6760,1,1,1743,1,0,INFPU07042,245
1519393886312,307,"NoFileUpload_Null Validation_crossSectionChecks_LPALL_566 is ""null""",200,Thread Group_Prod1 1-1,true,6903,1,1,305,1,0,INFPU07042,0
1519393886661,1794,"NoFileUpload_Null Validation_crossSectionChecks_LPALL_566 is ""   """,200,Thread Group_Prod1 1-1,true,6767,1,1,1790,1,0,INFPU07042,252
1519393888482,256,NoFileUpload N3_PE-7172MDA,200,Thread Group_Prod1 1-1,true,664,1,1,256,1,0,INFPU07042,0
1519393888771,735,FileUpload F5_PE7172_Fix,200,Thread Group_Prod1 1-1,false,4477,1,1,735,1,1,INFPU07042,242
1519393889540,488,NoFileUpload N4_PE-8032MDA,200,Thread Group_Prod1 1-1,true,664,1,1,488,1,0,INFPU07042,0
1519393890087,750,NoFileUpload N5_PE-8070,200,Thread Group_Prod1 1-1,true,881,1,1,750,1,0,INFPU07042,0
1519393890869,1306,NoFileUpload N73_PE5668 T2_Temp,200,Thread Group_Prod1 1-1,true,609,1,1,1306,1,0,INFPU07042,261
1519393892193,273,NoFileUpload N74_PE5668 T3_Temp,200,Thread Group_Prod1 1-1,true,753,1,1,273,1,0,INFPU07042,0
1519393892484,274,NoFileUpload N75_PE5668 T4_Temp,200,Thread Group_Prod1 1-1,true,706,1,1,274,1,0,INFPU07042,0
1519393892778,273,NoFileUpload N76_PE5668 T5_Temp,200,Thread Group_Prod1 1-1,true,720,1,1,273,1,0,INFPU07042,0
1519393893079,1242,NoFileUpload N78_PE5668 T7_Temp,200,Thread Group_Prod1 1-1,true,705,1,1,1242,1,0,INFPU07042,249
1519393894351,260,NoFileUpload N79_PE5668 T8_Temp,200,Thread Group_Prod1 1-1,true,607,1,1,260,1,0,INFPU07042,0
1519393894636,1014,FileUpload F6_PE-7257_US_CSV_Shuffle,200,Thread Group_Prod1 1-1,false,5797,1,1,1012,1,1,INFPU07042,0
1519393895693,1807,FileUpload F7_PE-7257_US_Excel_Shuffle,200,Thread Group_Prod1 1-1,false,9472,1,1,1804,1,1,INFPU07042,254
1519393897562,554,NoFileUpload N6_PE7978,200,Thread Group_Prod1 1-1,true,6632,1,1,552,1,0,INFPU07042,0
1519393898156,760,NoFileUpload N7_PE7954,200,Thread Group_Prod1 1-1,true,727,1,1,760,1,0,INFPU07042,253
1519393898935,762,NoFileUpload N77_PE5668 T6,200,Thread Group_Prod1 1-1,true,716,1,1,762,1,0,INFPU07042,0
1519393899743,259,FileUpload F8_PE7999_Ignore since files are identical,422,Thread Group_Prod1 1-1,false,1282,1,1,259,1,1,INFPU07042,0
1519393900042,258,NoFileUpload N8_ PE7795,200,Thread Group_Prod1 1-1,true,717,1,1,258,1,0,INFPU07042,0
1519393900334,755,NoFileUpload N9_PE7046_AU_Comp2,200,Thread Group_Prod1 1-1,true,914,1,1,755,1,0,INFPU07042,249
1519393901121,256,NoFileUpload N10_PE7046_US_Comp1,200,Thread Group_Prod1 1-1,true,910,1,1,256,1,0,INFPU07042,0
1519393901407,254,NoFileUpload N11_PE7046_IN_Comp1,200,Thread Group_Prod1 1-1,true,910,1,1,254,1,0,INFPU07042,0
1519393901676,253,NoFileUpload N12_PE7046_ZA_Comp2,200,Thread Group_Prod1 1-1,true,914,1,1,253,1,0,INFPU07042,0
1519393901946,763,NoFileUpload N13_PE7773_NUM_EMP is 7_Fix,200,Thread Group_Prod1 1-1,false,1099,1,1,763,1,1,INFPU07042,0
1519393902749,1519,NoFileUpload N14_PE7773_NUM_EMP is 8.1_boundry is 8,200,Thread Group_Prod1 1-1,true,1100,1,1,1519,1,0,INFPU07042,251
1519393904306,269,NoFileUpload N15_PE7773_NUM_EMP is 9_boundry is 8,200,Thread Group_Prod1 1-1,true,1099,1,1,269,1,0,INFPU07042,0
1519393904590,259,FileUpload F9_PE5216_ImpactedbyComment,200,Thread Group_Prod1 1-1,false,1356,1,1,259,1,1,INFPU07042,0
1519393904871,760,NoFileUpload N16_PE7044_expression,200,Thread Group_Prod1 1-1,true,674,1,1,760,1,0,INFPU07042,256
1519393905633,503,NoFileUpload N17_PE7044_range,200,Thread Group_Prod1 1-1,true,917,1,1,503,1,0,INFPU07042,0
1519393906196,260,NoFileUpload N18_PE7044_rangeValidationRefTable,200,Thread Group_Prod1 1-1,true,912,1,1,260,1,0,INFPU07042,0
1519393906478,259,NoFileUpload N19_PE7044_rangeValidationRefTable_dimensions,200,Thread Group_Prod1 1-1,true,942,1,1,259,1,0,INFPU07042,0
1519393906752,1508,FileUpload F10_PE5691_1Record_Ignore,400,Thread Group_Prod1 1-1,false,327,1,1,1508,1,1,INFPU07042,0
1519393908287,1997,FileUpload F11_PE5691_1Record_Ignore,400,Thread Group_Prod1 1-1,false,327,1,1,1997,1,1,INFPU07042,248
1519393910309,1065,FileUpload F12_PE6027_Ref Table,200,Thread Group_Prod1 1-1,true,2193,1,1,1064,1,0,INFPU07042,261
1519393911440,536,FileUpload F13_PE6030,200,Thread Group_Prod1 1-1,true,3289,1,1,535,1,0,INFPU07042,0
1519393912035,269,NoFileUpload N20_PE7033,200,Thread Group_Prod1 1-1,true,910,1,1,269,1,0,INFPU07042,0
1519393912306,267,NoFileUpload N21_PE7314,200,Thread Group_Prod1 1-1,true,771,1,1,267,1,0,INFPU07042,0
1519393912628,2027,FileUpload F14_PE7071_1Record_Shuffle,200,Thread Group_Prod1 1-1,false,5862,1,1,2025,1,1,INFPU07042,250
1519393914679,1986,FileUpload F15_PE7071_1Record,200,Thread Group_Prod1 1-1,true,5860,1,1,1984,1,0,INFPU07042,244
1519393916719,1781,FileUpload F16_PE7071_1Record,200,Thread Group_Prod1 1-1,true,6461,1,1,1781,1,0,INFPU07042,251
1519393918534,1253,FileUpload F17_PE7071_1Record,400,Thread Group_Prod1 1-1,false,360,1,1,1253,1,1,INFPU07042,0
1519393919821,1728,FileUpload F18_PE7611,200,Thread Group_Prod1 1-1,false,1989,1,1,1727,1,1,INFPU07042,244
1519393921579,1244,FileUpload F19_PE7611,200,Thread Group_Prod1 1-1,false,2070,1,1,1243,1,1,INFPU07042,0
1519393922847,1964,FileUpload F20_PE7611,200,Thread Group_Prod1 1-1,true,1967,1,1,1963,1,0,INFPU07042,244
1519393924847,1782,FileUpload F21_PE7611,200,Thread Group_Prod1 1-1,true,1989,1,1,1782,1,0,INFPU07042,252
1519393926658,1281,FileUpload F22_PE7611,200,Thread Group_Prod1 1-1,false,2452,1,1,1280,1,1,INFPU07042,0
1519393927963,1736,FileUpload F23_PE7611,200,Thread Group_Prod1 1-1,false,2275,1,1,1736,1,1,INFPU07042,245
1519393929725,1264,FileUpload F24_PE7611,200,Thread Group_Prod1 1-1,false,2275,1,1,1263,1,1,INFPU07042,0
1519393931026,1786,FileUpload F25_PE7611,200,Thread Group_Prod1 1-1,false,2445,1,1,1785,1,1,INFPU07042,254
1519393932847,1281,FileUpload F26_PE7611,200,Thread Group_Prod1 1-1,false,2446,1,1,1280,1,1,INFPU07042,0
1519393934150,1879,FileUpload F27_PE7611,200,Thread Group_Prod1 1-1,true,2173,1,1,1878,1,0,INFPU07042,385
1519393936056,254,FileUpload F28_6713CSV_SkipLastBlankRow,200,Thread Group_Prod1 1-1,true,1752,1,1,253,1,0,INFPU07042,0
1519393936312,746,FileUpload F29_6713CSV_SkipInitialRow,200,Thread Group_Prod1 1-1,true,1461,1,1,746,1,0,INFPU07042,247
1519393937091,256,FileUpload F30_6713CSV_SkipMiddleBlankRows,200,Thread Group_Prod1 1-1,true,2055,1,1,255,1,0,INFPU07042,0
1519393937364,505,FileUpload F31_6713Excel_SkipInitialRow,200,Thread Group_Prod1 1-1,true,1461,1,1,505,1,0,INFPU07042,0
1519393937884,509,FileUpload F32_6713Excel_SkipLastBlankRow,200,Thread Group_Prod1 1-1,true,1752,1,1,509,1,0,INFPU07042,0
1519393938411,1011,FileUpload F33_6713Excel_SkipMiddleRow,200,Thread Group_Prod1 1-1,true,2055,1,1,1010,1,0,INFPU07042,248
1519393939436,253,NoFileUpload N22_PE7631_metaData,200,Thread Group_Prod1 1-1,true,604,1,1,253,1,0,INFPU07042,0
1519393939706,257,NoFileUpload N23_PE7631_metaData,200,Thread Group_Prod1 1-1,true,604,1,1,257,1,0,INFPU07042,0
1519393939986,254,NoFileUpload N24_PE7631_Autocorrect,200,Thread Group_Prod1 1-1,true,836,1,1,254,1,0,INFPU07042,0
1519393940264,253,NoFileUpload N25_PE7631,200,Thread Group_Prod1 1-1,true,830,1,1,253,1,0,INFPU07042,0
1519393940534,769,NoFileUpload N26_7045RawJson_NonNumerciData,200,Thread Group_Prod1 1-1,true,846,1,1,769,1,0,INFPU07042,255
1519393941343,261,NoFileUpload N27_7045RawJson_SkipBlankCols,200,Thread Group_Prod1 1-1,true,771,1,1,261,1,0,INFPU07042,0
1519393941636,260,NoFileUpload N28_7045RawJson_SkipNonNumericCols,200,Thread Group_Prod1 1-1,true,675,1,1,260,1,0,INFPU07042,0
1519393941916,261,NoFileUpload N29_7045RawJson_WithDimesion,200,Thread Group_Prod1 1-1,true,853,1,1,261,1,0,INFPU07042,0
1519393942210,261,NoFileUpload N30_7045RawJson_SingleNonBlankValue,200,Thread Group_Prod1 1-1,true,615,1,1,261,1,0,INFPU07042,0
1519393942491,261,NoFileUpload N31_7045RawJson_WithOtherValidation,200,Thread Group_Prod1 1-1,true,903,1,1,261,1,0,INFPU07042,0
1519393942772,748,FileUpload F34_PE7045_7045CSV_SimpleSequentialCheck,200,Thread Group_Prod1 1-1,true,2040,1,1,747,1,0,INFPU07042,249
1519393943537,510,FileUpload F35_PE7045_7045Excel_SimpleSequentialCheck,200,Thread Group_Prod1 1-1,true,2028,1,1,509,1,0,INFPU07042,0
1519393944060,254,FileUpload F36_PE7045_7045CSV_SkipBlankColumn,200,Thread Group_Prod1 1-1,true,1727,1,1,254,1,0,INFPU07042,0
1519393944351,507,FileUpload F37_PE7045_7045EXCEL_SkipBlankColumn,200,Thread Group_Prod1 1-1,true,2070,1,1,507,1,0,INFPU07042,0
1519393944872,760,FileUpload F38_PE7045_7045CSV_SkipNonNumericData,200,Thread Group_Prod1 1-1,true,1628,1,1,760,1,0,INFPU07042,252
1519393945650,522,FileUpload F39_PE7045_7045EXCEL_SkipNonNumericData,200,Thread Group_Prod1 1-1,true,2584,1,1,521,1,0,INFPU07042,0
1519393946197,257,NoFileUpload N32_PE7474_Testcase1,200,Thread Group_Prod1 1-1,true,900,1,1,257,1,0,INFPU07042,0
1519393946485,259,NoFileUpload N33_PE7474_Testcase2,200,Thread Group_Prod1 1-1,true,903,1,1,259,1,0,INFPU07042,0
1519393946759,256,NoFileUpload N34_PE7474_Testcase3,200,Thread Group_Prod1 1-1,true,815,1,1,255,1,0,INFPU07042,0
1519393947042,764,NoFileUpload N35_PE7474_Testcase4,200,Thread Group_Prod1 1-1,true,881,1,1,764,1,0,INFPU07042,253
1519393947831,270,NoFileUpload N36_PE7474_Testcase5,200,Thread Group_Prod1 1-1,true,910,1,1,269,1,0,INFPU07042,0
1519393948115,261,NoFileUpload N37_PE7474_Testcase6,200,Thread Group_Prod1 1-1,true,895,1,1,261,1,0,INFPU07042,0
1519393948401,4879,FileUpload F40_PE7474,200,Thread Group_Prod1 1-1,true,4224,1,1,4873,1,0,INFPU07042,0
1519393953318,979,NoFileUpload N38_PE7689_RefTable,200,Thread Group_Prod1 1-1,true,942,1,1,979,1,0,INFPU07042,243
1519393954313,738,NoFileUpload N39_PE7440_ISBLANK_ImpactedbyComment,200,Thread Group_Prod1 1-1,true,1070,1,1,738,1,0,INFPU07042,0
1519393955096,254,NoFileUpload N40_PE7440_ISNOTBLANK_LENGTH_ImpactedbyComment,200,Thread Group_Prod1 1-1,true,954,1,1,254,1,0,INFPU07042,0
1519393955367,793,FileUpload F41_PE5679_EqualToWithAllBlank_POSCODE=2,200,Thread Group_Prod1 1-1,true,2838,1,1,792,1,0,INFPU07042,260
1519393956196,270,FileUpload F42_PE5679_3 Null string and 1 Blank_POSCODE=2,200,Thread Group_Prod1 1-1,true,2669,1,1,268,1,0,INFPU07042,0
1519393956488,267,FileUpload F43_PE5679_2 Null String and 2 Blank_POSCODE=2,200,Thread Group_Prod1 1-1,true,2871,1,1,267,1,0,INFPU07042,0
1519393956779,271,FileUpload F44_PE5679_1 Null String_1Data_2 Blank_POSCODE=2,200,Thread Group_Prod1 1-1,true,1746,1,1,271,1,0,INFPU07042,0
1519393957084,268,FileUpload F45_PE5679_NoBlanksNoNullAllUnique_POSCODE=2,200,Thread Group_Prod1 1-1,true,3240,1,1,267,1,0,INFPU07042,0
1519393957395,754,FileUpload F46_PE5679_3samedata_1Blank_POSCODE=2,200,Thread Group_Prod1 1-1,true,2662,1,1,753,1,0,INFPU07042,248
1519393958175,256,FileUpload F47_PE5679_POSCODEGreaterThan2,200,Thread Group_Prod1 1-1,true,2841,1,1,256,1,0,INFPU07042,0
1519393958485,257,FileUpload F48_PE5679_POSCODEGreaterThanEqualTo2,200,Thread Group_Prod1 1-1,true,1747,1,1,257,1,0,INFPU07042,0
1519393958766,258,FileUpload F49_PE5679_LessThan,200,Thread Group_Prod1 1-1,true,2461,1,1,257,1,0,INFPU07042,0
1519393959053,256,FileUpload F50_PE5679_LessThanEqualTo1,200,Thread Group_Prod1 1-1,true,2838,1,1,255,1,0,INFPU07042,0
1519393959345,2302,FileUpload F52_PE7724_CSV_ref,200,Thread Group_Prod1 1-1,true,21361,1,1,2052,1,0,INFPU07042,0
1519393961689,2813,FileUpload F52_PE7724_Excel_ValidationMsg,200,Thread Group_Prod1 1-1,false,29874,1,1,2558,1,1,INFPU07042,250
1519393964537,2021,FileUpload F53_PE7056_uploadMultipleFile_TBC for strict or loose_Shuffle,200,Thread Group_Prod1 1-1,true,5235,1,1,2019,1,0,INFPU07042,248
1519393966599,753,NoFileUpload N41_PE7056_validateAggregates_Fix,200,Thread Group_Prod1 1-1,false,812,1,1,752,1,1,INFPU07042,249
1519393967392,254,NoFileUpload N42_7056_performDefaultActions_Correct as per new code,200,Thread Group_Prod1 1-1,true,674,1,1,254,1,0,INFPU07042,0
1519393967674,506,NoFileUpload N43_7056_crossSectionChecks,200,Thread Group_Prod1 1-1,true,1316,1,1,506,1,0,INFPU07042,0
1519393968203,253,NoFileUpload N44_PE7241_EmailValidation -withInvalidAndValidEmailIdInDimension,200,Thread Group_Prod1 1-1,true,858,1,1,253,1,0,INFPU07042,0
1519393968477,260,NoFileUpload N45_PE7241_EmailValidation-withAllInvalidEmailIdInDimension,200,Thread Group_Prod1 1-1,true,884,1,1,260,1,0,INFPU07042,0
1519393968777,742,NoFileUpload N46_PE7241_EmailValidation -withNullStringAndBlankEmailIdInDimension,200,Thread Group_Prod1 1-1,true,853,1,1,741,1,0,INFPU07042,245
1519393969551,250,NoFileUpload N47_PE7241_EmailValidation_withAllBlankEmailIdInDimension,200,Thread Group_Prod1 1-1,true,832,1,1,250,1,0,INFPU07042,0
1519393969830,250,NoFileUpload N48_PE7241_EmailValidation_withAllEmailIdAsNullStringInDimension,200,Thread Group_Prod1 1-1,true,848,1,1,250,1,0,INFPU07042,0
1519393970125,250,NoFileUpload N49_PE7241_EmailValidation_withAllValidEmailIdInDimension,200,Thread Group_Prod1 1-1,true,876,1,1,250,1,0,INFPU07042,0
1519393970408,250,NoFileUpload N50_PE7241_PhoneValidation_withAllBlankPhoneNumberInDimension,200,Thread Group_Prod1 1-1,true,795,1,1,250,1,0,INFPU07042,0
1519393970690,251,NoFileUpload N51_PE7241_PhoneValidation_withAllInvalidPhoneNumberInDimension,200,Thread Group_Prod1 1-1,true,897,1,1,251,1,0,INFPU07042,0
1519393970975,735,NoFileUpload N52_PE7241_PhoneValidation_withAllNullStringAndBlankPhoneNumberInDimension,200,Thread Group_Prod1 1-1,true,813,1,1,734,1,0,INFPU07042,244
1519393971745,248,NoFileUpload N53_PE7241_PhoneValidation_withAllNullStringPhoneNumberInDimension,200,Thread Group_Prod1 1-1,true,841,1,1,248,1,0,INFPU07042,0
1519393972005,247,NoFileUpload N54_PE7241_PhoneValidation_withAllValidPhoneNumberInDimension,200,Thread Group_Prod1 1-1,true,879,1,1,247,1,0,INFPU07042,0
1519393972278,254,NoFileUpload N55_PE7241_PhoneValidation_withValidAndInvalidPhoneNumberInDimension,200,Thread Group_Prod1 1-1,true,872,1,1,254,1,0,INFPU07042,0
1519393972547,248,NoFileUpload N56_PE7241_RequiredValidation__withAllNullStringInDimension,200,Thread Group_Prod1 1-1,true,872,1,1,248,1,0,INFPU07042,0
1519393972825,250,NoFileUpload N57_PE7241_RequiredValidation__withAllValidValuesInDimension,200,Thread Group_Prod1 1-1,true,858,1,1,250,1,0,INFPU07042,0
1519393973095,733,NoFileUpload N58_PE7241_RequiredValidation_withAllblankValuesInDimension ,200,Thread Group_Prod1 1-1,true,869,1,1,733,1,0,INFPU07042,243
1519393973866,250,"NoFileUpload N59_PE7241_RequiredValidation_WithNullString,BlankAndValuesInDimension",200,Thread Group_Prod1 1-1,true,884,1,1,249,1,0,INFPU07042,0
1519393974151,247,NoFileUpload N60_PE7241_RequiredValidation_WithNullStringlAndBlankInDimension,200,Thread Group_Prod1 1-1,true,875,1,1,247,1,0,INFPU07042,0
1519393974418,248,NoFileUpload N61_PE7241_RequiredValidation_WithValidAndInvalidValue,200,Thread Group_Prod1 1-1,true,879,1,1,248,1,0,INFPU07042,0
1519393974694,247,NoFileUpload N62_PE7241_CheckBoxes_UploadMultipleFile,200,Thread Group_Prod1 1-1,true,805,1,1,247,1,0,INFPU07042,0
1519393974971,247,NoFileUpload N63_PE7241_Dimension_CrossSection,200,Thread Group_Prod1 1-1,true,870,1,1,247,1,0,INFPU07042,0
1519393975236,765,NoFileUpload N64_PE7241_MDA_Dimension,200,Thread Group_Prod1 1-1,true,857,1,1,765,1,0,INFPU07042,256
1519393976026,1620,FileUpload F54_PE-7257_AllValidDateAndDoubleValue(Positive scenario),200,Thread Group_Prod1 1-1,true,23416,1,1,1364,1,0,INFPU07042,0
1519393977647,2100,FileUpload F55_PE-7257_AllValidAndInvalidDateAndDoubleValue(Negative scenario),200,Thread Group_Prod1 1-1,true,26383,1,1,1840,1,0,INFPU07042,257
1519393979748,1052,NoFileUpload N65_PE7506_crosssection_with multiple combination for LPALL_399A,200,Thread Group_Prod1 1-1,true,1319,1,1,1052,1,0,INFPU07042,261
1519393980838,270,NoFileUpload N66_PE7506_crosssection_with 3 Dimensions for LPALL_399A,200,Thread Group_Prod1 1-1,true,1264,1,1,270,1,0,INFPU07042,0
1519393981142,273,"NoFileUpload N67_PE7506_crosssection_13LATAM_01"": ""Y""",200,Thread Group_Prod1 1-1,true,1235,1,1,273,1,0,INFPU07042,0
1519393981445,277,"NoFileUpload N68_PE7506_crosssection_ EE_group_13LATAM_01"": ""N""",200,Thread Group_Prod1 1-1,true,1060,1,1,277,1,0,INFPU07042,0
1519393981757,1035,NoFileUpload N69_PE7506_crosssection_when  EE_group_13LATAM is not present,200,Thread Group_Prod1 1-1,true,1032,1,1,1035,1,0,INFPU07042,258
1519393982824,267,NoFileUpload N70_PE7506_crosssection_with Dimension for LPALL_399A,200,Thread Group_Prod1 1-1,true,1316,1,1,267,1,0,INFPU07042,0
1519393983133,268,NoFileUpload N71_PE7506_crosssection_with Dimension for LPALL_399A 1 as Y others as N,200,Thread Group_Prod1 1-1,true,1264,1,1,268,1,0,INFPU07042,0
1519393983429,529,FileUpload F56_PE5415_MultiSheetSuccess,200,Thread Group_Prod1 1-1,true,3621,1,1,528,1,0,INFPU07042,0
1519393983992,1004,FileUpload F57_PE5415_MultiSheetBadRequest_Ignore,400,Thread Group_Prod1 1-1,false,327,1,1,1003,1,1,INFPU07042,249
1519393984996,515,FileUpload F58_PE5415_MultiSheetCorrectRequest,200,Thread Group_Prod1 1-1,true,3494,1,1,514,1,0,INFPU07042,0
1519393985534,504,FileUpload F59_PE5415_Step1SingleSheetBadReq_Ignore,422,Thread Group_Prod1 1-1,false,1282,1,1,504,1,1,INFPU07042,0
1519393986077,1035,FileUpload F60_PE5415_Step1SingleSheetCorrectReq,200,Thread Group_Prod1 1-1,true,4665,1,1,1033,1,0,INFPU07042,258
1519393987143,261,FileUpload F61_PE5415_Step3MappingCompanyJson,200,Thread Group_Prod1 1-1,true,1611,1,1,260,1,0,INFPU07042,0
1519393987426,518,FileUpload F62_PE5415_Step3MappingCompanyExcel,200,Thread Group_Prod1 1-1,true,1625,1,1,518,1,0,INFPU07042,0
1519393987955,521,FileUpload F63_PE5415_Step3MappingColumnExcel,200,Thread Group_Prod1 1-1,true,4466,1,1,519,1,0,INFPU07042,0
1519393988492,753,FileUpload F64_PE5415_Step3MappingColumnJson,200,Thread Group_Prod1 1-1,true,4418,1,1,752,1,0,INFPU07042,248
1519393989271,258,FileUpload F65_PE5415_Step3MappingColumnJsonWithoutCountry,200,Thread Group_Prod1 1-1,true,2131,1,1,256,1,0,INFPU07042,0
1519393989549,254,FileUpload F66_PE5415_Step3MappingColumnJsonWithCountry,200,Thread Group_Prod1 1-1,true,1611,1,1,254,1,0,INFPU07042,0
1519393989842,3406,FileUpload F67_PE8315_Fix,200,Thread Group_Prod1 1-1,false,32640,1,1,3149,1,1,INFPU07042,0
1519393993273,980,FileUpload F68_PE8037_Fix,200,Thread Group_Prod1 1-1,false,2156,1,1,979,1,1,INFPU07042,241
1519393994280,489,NoFileUpload N72_ PE5668 T1,200,Thread Group_Prod1 1-1,true,707,1,1,489,1,0,INFPU07042,0
1519393994811,249,NoFileUpload N80_PE7989_Req_NonNumericData_withAllwrongcolumn_MDA,200,Thread Group_Prod1 1-1,true,678,1,1,249,1,0,INFPU07042,0
1519393995089,246,NoFileUpload N81_PE7989_Req_NonNumericData_withAllrightcolumn_MDA,200,Thread Group_Prod1 1-1,true,846,1,1,245,1,0,INFPU07042,0
1519393995351,905,NoFileUpload N82_PE7989_Req_NonNumericData_with1wrongcolumn_MDA,200,Thread Group_Prod1 1-1,true,849,1,1,904,1,0,INFPU07042,387
1519393996294,263,NoFileUpload N83_PE7989_uploadMultipleFile,200,Thread Group_Prod1 1-1,true,835,1,1,262,1,0,INFPU07042,0
1519393996584,261,NoFileUpload N84_400 and 500 Error_crossSectionChecks,200,Thread Group_Prod1 1-1,true,619,1,1,261,1,0,INFPU07042,0
1519393996860,263,NoFileUpload N85_400 and 500 Error_crossSectionChecks,200,Thread Group_Prod1 1-1,true,648,1,1,263,1,0,INFPU07042,0
1519393997139,261,NoFileUpload N86_400 and 500 Error_crossSectionChecks,200,Thread Group_Prod1 1-1,true,647,1,1,261,1,0,INFPU07042,0
1519393997423,785,NoFileUpload N87_400 and 500 Error_crossSectionChecks,200,Thread Group_Prod1 1-1,true,501,1,1,785,1,0,INFPU07042,260
1519393998235,268,NoFileUpload N88_400 and 500 Error_crossSectionChecks,200,Thread Group_Prod1 1-1,true,619,1,1,267,1,0,INFPU07042,0
1519393998532,267,NoFileUpload N89_PE8186_to Add assertion,200,Thread Group_Prod1 1-1,true,944,1,1,267,1,0,INFPU07042,0
1519393998814,265,NoFileUpload N90_PE8032_SyntaxError1_Fix,200,Thread Group_Prod1 1-1,false,674,1,1,265,1,1,INFPU07042,0
1519393999125,266,NoFileUpload N91_PE8032_SyntaxError2_Fix,200,Thread Group_Prod1 1-1,false,674,1,1,266,1,1,INFPU07042,0
1519393999426,776,NoFileUpload N92_PE8032_InvalidColumn,200,Thread Group_Prod1 1-1,true,758,1,1,775,1,0,INFPU07042,257
1519394000241,262,NoFileUpload N93_PE7771_Exp,200,Thread Group_Prod1 1-1,true,674,1,1,262,1,0,INFPU07042,0
1519394000561,263,NoFileUpload N94_PE7771_Range,200,Thread Group_Prod1 1-1,true,917,1,1,263,1,0,INFPU07042,0
1519394000850,1084,NoFileUpload N94_PE7771_Added Scenario,200,Thread Group_Prod1 1-1,true,6106,1,1,1081,1,0,INFPU07042,0
1519394001967,1066,NoFileUpload N95_PE8269 and 8397_CSC_MDA_ClearValue_Fix,200,Thread Group_Prod1 1-1,false,582,1,1,1065,1,1,INFPU07042,265
1519394003070,272,NoFileUpload N96_PE8269 and 8397_CSC_OtherThanClearValue,200,Thread Group_Prod1 1-1,true,792,1,1,272,1,0,INFPU07042,0
1519394003374,271,NoFileUpload N97_PE8269 and 8397_UMF_NonMDA,200,Thread Group_Prod1 1-1,true,833,1,1,271,1,0,INFPU07042,0
1519394003668,270,NoFileUpload N98_PE8269 and 8397_PDA_MDA_ClearValue_Fix,200,Thread Group_Prod1 1-1,false,576,1,1,270,1,1,INFPU07042,0
1519394003970,1021,NoFileUpload N99_PE8269 and 8397_PDA_OtherThanClearValue,200,Thread Group_Prod1 1-1,true,789,1,1,1021,1,0,INFPU07042,254
1519394005022,7038,FileUpload F69_PE8584_Null Issue ,200,Thread Group_Prod1 1-1,false,14544,1,1,7033,1,1,INFPU07042,0
1519394012105,1010,FileUpload F70_PE8584,200,Thread Group_Prod1 1-1,false,11458,1,1,1006,1,1,INFPU07042,250
1519394013154,258,FileUpload F71_PE8584,200,Thread Group_Prod1 1-1,false,2034,1,1,257,1,1,INFPU07042,0
1519394013442,260,FileUpload F72_PE8584,200,Thread Group_Prod1 1-1,false,2034,1,1,259,1,1,INFPU07042,0
1519394013728,7586,FileUpload F73_PE8584,200,Thread Group_Prod1 1-1,false,14412,1,1,7576,1,1,INFPU07042,0
1519394021356,12874,FileUpload F74_PE8584,200,Thread Group_Prod1 1-1,false,14416,1,1,12869,1,1,INFPU07042,268
1519394034280,271,FileUpload F75_PE8584,Non HTTP response code: java.io.FileNotFoundException,Thread Group_Prod1 1-1,false,2738,1,1,0,1,1,INFPU07042,270
1519394034579,270,FileUpload F76_PE8584,Non HTTP response code: java.io.FileNotFoundException,Thread Group_Prod1 1-1,false,2737,1,1,0,1,1,INFPU07042,269
1519394034872,268,FileUpload F77_PE8584,Non HTTP response code: java.io.FileNotFoundException,Thread Group_Prod1 1-1,false,2733,1,1,0,1,1,INFPU07042,262
1519394035173,1013,FileUpload F78_PE8584,200,Thread Group_Prod1 1-1,false,6088,1,1,1011,1,1,INFPU07042,249
1519394036197,255,NoFileUpload N100_PE8916,200,Thread Group_Prod1 1-1,false,855,1,1,255,1,1,INFPU07042,0
1519394036484,2968,FileUpload F79_PE8951_P1,200,Thread Group_Prod1 1-1,true,34676,1,1,2706,1,0,INFPU07042,0
1519394039453,3995,FileUpload F80_PE8951_P2,200,Thread Group_Prod1 1-1,true,30936,1,1,3710,1,0,INFPU07042,268
1519394043450,3528,FileUpload F81_PE8951_P3,200,Thread Group_Prod1 1-1,true,30929,1,1,3255,1,0,INFPU07042,264
1519394046984,3825,FileUpload F82_PE8951_P4,200,Thread Group_Prod1 1-1,true,30929,1,1,3559,1,0,INFPU07042,265
1519394050811,3336,FileUpload F83_PE8951_N1,400,Thread Group_Prod1 1-1,true,389,1,1,3336,1,0,INFPU07042,262
1519394054148,3439,FileUpload F84_PE8951_N2,400,Thread Group_Prod1 1-1,true,389,1,1,3438,1,0,INFPU07042,262
1519394057588,3158,FileUpload F85_PE8951_N3,400,Thread Group_Prod1 1-1,true,388,1,1,3158,1,0,INFPU07042,261
1519394060745,3417,FileUpload F86_PE8951_N4,400,Thread Group_Prod1 1-1,true,388,1,1,3417,1,0,INFPU07042,267
1519395641023,29304,FileUpload F69_PE8584_Null Issue ,200,Thread Group_Prod1 1-1,false,14544,1,1,29299,1,1,INFPU07042,319
1519395670356,1167,FileUpload F70_PE8584,200,Thread Group_Prod1 1-1,false,11458,1,1,1163,1,1,INFPU07042,259
1519395671555,396,FileUpload F71_PE8584,200,Thread Group_Prod1 1-1,false,2034,1,1,396,1,1,INFPU07042,0
1519395671973,284,FileUpload F72_PE8584,200,Thread Group_Prod1 1-1,false,2034,1,1,284,1,1,INFPU07042,0
1519395672282,8292,FileUpload F73_PE8584,200,Thread Group_Prod1 1-1,false,14412,1,1,8287,1,1,INFPU07042,0
1519395680620,12230,FileUpload F74_PE8584,200,Thread Group_Prod1 1-1,false,14416,1,1,12225,1,1,INFPU07042,251
1519395692902,2622,FileUpload F75_PE8584,200,Thread Group_Prod1 1-1,true,16355,1,1,2373,1,0,INFPU07042,248
1519395695573,6856,FileUpload F76_PE8584,200,Thread Group_Prod1 1-1,false,175013,1,1,5866,1,1,INFPU07042,246
1519395702474,4887,FileUpload F77_PE8584,200,Thread Group_Prod1 1-1,false,53778,1,1,4392,1,1,INFPU07042,245
1519395707391,1017,FileUpload F78_PE8584,200,Thread Group_Prod1 1-1,false,6088,1,1,1015,1,1,INFPU07042,252
1519395708420,269,NoFileUpload N100_PE8916,200,Thread Group_Prod1 1-1,false,855,1,1,269,1,1,INFPU07042,0
