timeStamp,elapsed,label,responseCode,threadName,success,bytes,grpThreads,allThreads,Latency,SampleCount,ErrorCount,Hostname,Connect
1519901240194,8227,FileUpload F1_PE-8157_Ignore,200,Thread Group_Prod1 1-1,false,6326,1,1,8225,1,1,INFPU07042,252
1519901252877,1419,FileUpload F1_PE-8110_ErrorCell,200,Thread Group_Prod1 1-1,true,1571,1,1,1419,1,0,INFPU07042,186
1519901254337,6751,FileUpload F2_PE-8110_ErrorCell_Ignore,422,Thread Group_Prod1 1-1,false,650912,1,1,3028,1,1,INFPU07042,178
1519901264159,1917,FileUpload F3_PE-8110_ErrorCell_Ignore,400,Thread Group_Prod1 1-1,false,385,1,1,1917,1,1,INFPU07042,191
1519901266101,635,FileUpload F4_PE-5678_SequentialWithOtherValidations,200,Thread Group_Prod1 1-1,true,5471,1,1,633,1,0,INFPU07042,195
1519901268225,209,NoFileUpload N1_PE-5678_LOOK_UP_CHECK1,200,Thread Group_Prod1 1-1,false,1077,1,1,209,1,1,INFPU07042,0
1519901268459,204,NoFileUpload N1_PE-5678_SequentialWithOtherValidations,200,Thread Group_Prod1 1-1,true,994,1,1,204,1,0,INFPU07042,0
1519901268689,202,NoFileUpload N2_PE-5678_SequentialWithOtherValidations,200,Thread Group_Prod1 1-1,true,964,1,1,202,1,0,INFPU07042,0
1519901268928,669,"NoFileUpload_Null Validation_crossSectionChecks_LPALL_566 is """"",200,Thread Group_Prod1 1-1,true,6764,1,1,668,1,0,INFPU07042,0
1519901269630,1327,NoFileUpload_Null Validation_crossSectionChecks_LPALL_566 is null,200,Thread Group_Prod1 1-1,true,6760,1,1,1325,1,0,INFPU07042,180
1519901270990,237,"NoFileUpload_Null Validation_crossSectionChecks_LPALL_566 is ""null""",200,Thread Group_Prod1 1-1,true,6903,1,1,236,1,0,INFPU07042,0
1519901272724,1367,"NoFileUpload_Null Validation_crossSectionChecks_LPALL_566 is ""   """,200,Thread Group_Prod1 1-1,true,6767,1,1,1366,1,0,INFPU07042,187
1519901274120,196,NoFileUpload N3_PE-7172MDA,200,Thread Group_Prod1 1-1,true,664,1,1,196,1,0,INFPU07042,0
1519901274357,625,FileUpload F5_PE7172_Fix,200,Thread Group_Prod1 1-1,false,4477,1,1,624,1,1,INFPU07042,184
1519901275011,372,NoFileUpload N4_PE-8032MDA,200,Thread Group_Prod1 1-1,true,664,1,1,371,1,0,INFPU07042,0
1519901275442,587,NoFileUpload N5_PE-8070,200,Thread Group_Prod1 1-1,true,881,1,1,587,1,0,INFPU07042,0
1519901276037,911,NoFileUpload N73_PE5668 T2_Temp,200,Thread Group_Prod1 1-1,true,609,1,1,911,1,0,INFPU07042,177
1519901278430,183,NoFileUpload N74_PE5668 T3_Temp,200,Thread Group_Prod1 1-1,true,758,1,1,183,1,0,INFPU07042,0
1519901278639,189,NoFileUpload N75_PE5668 T4_Temp,200,Thread Group_Prod1 1-1,true,706,1,1,189,1,0,INFPU07042,0
1519901278853,186,NoFileUpload N76_PE5668 T5_Temp,200,Thread Group_Prod1 1-1,true,725,1,1,186,1,0,INFPU07042,0
1519901279060,897,NoFileUpload N78_PE5668 T7_Temp,200,Thread Group_Prod1 1-1,true,705,1,1,896,1,0,INFPU07042,179
1519901279964,185,NoFileUpload N79_PE5668 T8_Temp,200,Thread Group_Prod1 1-1,true,612,1,1,185,1,0,INFPU07042,0
1519901280182,807,FileUpload F6_PE-7257_US_CSV_Shuffle,200,Thread Group_Prod1 1-1,false,5797,1,1,806,1,1,INFPU07042,0
1519901280998,1388,FileUpload F7_PE-7257_US_Excel_Shuffle,200,Thread Group_Prod1 1-1,false,9479,1,1,1385,1,1,INFPU07042,185
1519901283900,1394,NoFileUpload N6_PE7978,200,Thread Group_Prod1 1-1,true,6632,1,1,1393,1,0,INFPU07042,192
1519901285330,565,NoFileUpload N7_PE7954,200,Thread Group_Prod1 1-1,true,732,1,1,564,1,0,INFPU07042,186
1519901285926,593,NoFileUpload N77_PE5668 T6,200,Thread Group_Prod1 1-1,true,716,1,1,593,1,0,INFPU07042,0
1519901287991,254,FileUpload F8_PE7999_Ignore since files are identical,422,Thread Group_Prod1 1-1,false,1282,1,1,254,1,1,INFPU07042,0
1519901288270,911,NoFileUpload N8_ PE7795,200,Thread Group_Prod1 1-1,true,717,1,1,911,1,0,INFPU07042,181
1519901289206,215,NoFileUpload N9_PE7046_AU_Comp2,200,Thread Group_Prod1 1-1,true,914,1,1,215,1,0,INFPU07042,0
1519901289435,218,NoFileUpload N10_PE7046_US_Comp1,200,Thread Group_Prod1 1-1,true,910,1,1,218,1,0,INFPU07042,0
1519901289662,194,NoFileUpload N11_PE7046_IN_Comp1,200,Thread Group_Prod1 1-1,true,910,1,1,193,1,0,INFPU07042,0
1519901289877,592,NoFileUpload N12_PE7046_ZA_Comp2,200,Thread Group_Prod1 1-1,true,914,1,1,591,1,0,INFPU07042,180
1519901290491,845,NoFileUpload N13_PE7773_NUM_EMP is 7_Fix,200,Thread Group_Prod1 1-1,false,1099,1,1,845,1,1,INFPU07042,0
1519901292836,1146,NoFileUpload N14_PE7773_NUM_EMP is 8.1_boundry is 8,200,Thread Group_Prod1 1-1,true,1100,1,1,1146,1,0,INFPU07042,186
1519901293994,224,NoFileUpload N15_PE7773_NUM_EMP is 9_boundry is 8,200,Thread Group_Prod1 1-1,true,1099,1,1,224,1,0,INFPU07042,0
1519901294250,243,FileUpload F9_PE5216_ImpactedbyComment,200,Thread Group_Prod1 1-1,false,1356,1,1,243,1,1,INFPU07042,0
1519901294550,642,NoFileUpload N16_PE7044_expression,200,Thread Group_Prod1 1-1,true,674,1,1,642,1,0,INFPU07042,188
1519901295192,382,NoFileUpload N17_PE7044_range,200,Thread Group_Prod1 1-1,true,917,1,1,382,1,0,INFPU07042,0
1519901295604,204,NoFileUpload N18_PE7044_rangeValidationRefTable,200,Thread Group_Prod1 1-1,true,912,1,1,204,1,0,INFPU07042,0
1519901295825,207,NoFileUpload N19_PE7044_rangeValidationRefTable_dimensions,200,Thread Group_Prod1 1-1,true,942,1,1,207,1,0,INFPU07042,0
1519901296055,1735,FileUpload F10_PE5691_1Record_Ignore,400,Thread Group_Prod1 1-1,false,327,1,1,1735,1,1,INFPU07042,177
1519901299274,1481,FileUpload F11_PE5691_1Record_Ignore,400,Thread Group_Prod1 1-1,false,327,1,1,1481,1,1,INFPU07042,183
1519901300777,770,FileUpload F12_PE6027_Ref Table,200,Thread Group_Prod1 1-1,true,2193,1,1,770,1,0,INFPU07042,190
1519901303031,402,FileUpload F13_PE6030,200,Thread Group_Prod1 1-1,true,3289,1,1,401,1,0,INFPU07042,0
1519901303485,191,NoFileUpload N20_PE7033,200,Thread Group_Prod1 1-1,true,910,1,1,191,1,0,INFPU07042,0
1519901303677,612,NoFileUpload N21_PE7314,200,Thread Group_Prod1 1-1,true,771,1,1,611,1,0,INFPU07042,238
1519901304319,1225,FileUpload F14_PE7071_1Record_Shuffle,200,Thread Group_Prod1 1-1,false,5862,1,1,1223,1,1,INFPU07042,0
1519901305573,1569,FileUpload F15_PE7071_1Record,200,Thread Group_Prod1 1-1,true,5860,1,1,1567,1,0,INFPU07042,185
1519901308648,1307,FileUpload F16_PE7071_1Record,200,Thread Group_Prod1 1-1,true,6461,1,1,1307,1,0,INFPU07042,176
1519901309985,985,FileUpload F17_PE7071_1Record,400,Thread Group_Prod1 1-1,false,360,1,1,984,1,1,INFPU07042,0
1519901310993,1366,FileUpload F18_PE7611,200,Thread Group_Prod1 1-1,false,1989,1,1,1366,1,1,INFPU07042,185
1519901313842,1186,FileUpload F19_PE7611,200,Thread Group_Prod1 1-1,false,2070,1,1,1185,1,1,INFPU07042,0
1519901315055,3141,FileUpload F20_PE7611,200,Thread Group_Prod1 1-1,true,1967,1,1,3141,1,0,INFPU07042,182
1519901319669,3849,FileUpload F21_PE7611,200,Thread Group_Prod1 1-1,true,1989,1,1,3848,1,0,INFPU07042,179
1519901324998,5084,FileUpload F22_PE7611,200,Thread Group_Prod1 1-1,false,2452,1,1,5084,1,1,INFPU07042,185
1519901333025,6769,FileUpload F23_PE7611,200,Thread Group_Prod1 1-1,false,2275,1,1,6769,1,1,INFPU07042,181
1519901342719,6178,FileUpload F24_PE7611,200,Thread Group_Prod1 1-1,false,2275,1,1,6177,1,1,INFPU07042,230
1519901350385,8571,FileUpload F25_PE7611,200,Thread Group_Prod1 1-1,false,2445,1,1,8570,1,1,INFPU07042,180
1519901363339,6389,FileUpload F26_PE7611,200,Thread Group_Prod1 1-1,false,2446,1,1,6388,1,1,INFPU07042,175
1519901372669,1599,FileUpload F27_PE7611,200,Thread Group_Prod1 1-1,true,2173,1,1,1598,1,0,INFPU07042,188
1519901374305,664,FileUpload F28_6713CSV_SkipLastBlankRow,200,Thread Group_Prod1 1-1,true,1752,1,1,663,1,0,INFPU07042,237
1519901374969,309,FileUpload F29_6713CSV_SkipInitialRow,200,Thread Group_Prod1 1-1,true,1461,1,1,309,1,0,INFPU07042,0
1519901375304,261,FileUpload F30_6713CSV_SkipMiddleBlankRows,200,Thread Group_Prod1 1-1,true,2055,1,1,261,1,0,INFPU07042,0
1519901375596,631,FileUpload F31_6713Excel_SkipInitialRow,200,Thread Group_Prod1 1-1,true,1461,1,1,631,1,0,INFPU07042,0
1519901377713,1532,FileUpload F32_6713Excel_SkipLastBlankRow,200,Thread Group_Prod1 1-1,true,1752,1,1,1531,1,0,INFPU07042,179
1519901379273,1808,FileUpload F33_6713Excel_SkipMiddleRow,200,Thread Group_Prod1 1-1,true,2055,1,1,1807,1,0,INFPU07042,174
1519901381113,1785,NoFileUpload N22_PE7631_metaData,200,Thread Group_Prod1 1-1,true,604,1,1,1785,1,0,INFPU07042,180
1519901384383,2407,NoFileUpload N23_PE7631_metaData,200,Thread Group_Prod1 1-1,true,604,1,1,2407,1,0,INFPU07042,183
1519901388269,2393,NoFileUpload N24_PE7631_Autocorrect,200,Thread Group_Prod1 1-1,true,836,1,1,2393,1,0,INFPU07042,184
1519901390687,2564,NoFileUpload N25_PE7631,200,Thread Group_Prod1 1-1,true,830,1,1,2564,1,0,INFPU07042,187
1519901394734,2525,NoFileUpload N26_7045RawJson_NonNumerciData,200,Thread Group_Prod1 1-1,true,846,1,1,2525,1,0,INFPU07042,178
1519901398760,3074,NoFileUpload N27_7045RawJson_SkipBlankCols,200,Thread Group_Prod1 1-1,true,771,1,1,3073,1,0,INFPU07042,182
1519901403313,2353,NoFileUpload N28_7045RawJson_SkipNonNumericCols,200,Thread Group_Prod1 1-1,true,680,1,1,2353,1,0,INFPU07042,177
1519901405690,629,NoFileUpload N29_7045RawJson_WithDimesion,200,Thread Group_Prod1 1-1,true,853,1,1,629,1,0,INFPU07042,180
1519901407819,183,NoFileUpload N30_7045RawJson_SingleNonBlankValue,200,Thread Group_Prod1 1-1,true,615,1,1,183,1,0,INFPU07042,0
1519901408022,188,NoFileUpload N31_7045RawJson_WithOtherValidation,200,Thread Group_Prod1 1-1,true,903,1,1,188,1,0,INFPU07042,0
1519901408233,231,FileUpload F34_PE7045_7045CSV_SimpleSequentialCheck,200,Thread Group_Prod1 1-1,true,2040,1,1,230,1,0,INFPU07042,0
1519901408491,375,FileUpload F35_PE7045_7045Excel_SimpleSequentialCheck,200,Thread Group_Prod1 1-1,true,2028,1,1,374,1,0,INFPU07042,0
1519901408959,547,FileUpload F36_PE7045_7045CSV_SkipBlankColumn,200,Thread Group_Prod1 1-1,true,1727,1,1,547,1,0,INFPU07042,181
1519901409528,378,FileUpload F37_PE7045_7045EXCEL_SkipBlankColumn,200,Thread Group_Prod1 1-1,true,2070,1,1,378,1,0,INFPU07042,0
1519901409932,188,FileUpload F38_PE7045_7045CSV_SkipNonNumericData,200,Thread Group_Prod1 1-1,true,1628,1,1,188,1,0,INFPU07042,0
1519901410147,376,FileUpload F39_PE7045_7045EXCEL_SkipNonNumericData,200,Thread Group_Prod1 1-1,true,2584,1,1,375,1,0,INFPU07042,0
1519901410546,547,NoFileUpload N32_PE7474_Testcase1,200,Thread Group_Prod1 1-1,true,900,1,1,546,1,0,INFPU07042,178
1519901411143,219,NoFileUpload N33_PE7474_Testcase2,200,Thread Group_Prod1 1-1,true,903,1,1,219,1,0,INFPU07042,0
1519901412840,235,NoFileUpload N34_PE7474_Testcase3,200,Thread Group_Prod1 1-1,true,815,1,1,234,1,0,INFPU07042,0
1519901413098,265,NoFileUpload N35_PE7474_Testcase4,200,Thread Group_Prod1 1-1,true,881,1,1,265,1,0,INFPU07042,0
1519901413380,289,NoFileUpload N36_PE7474_Testcase5,200,Thread Group_Prod1 1-1,true,905,1,1,289,1,0,INFPU07042,0
1519901413683,861,NoFileUpload N37_PE7474_Testcase6,200,Thread Group_Prod1 1-1,true,895,1,1,861,1,0,INFPU07042,180
1519901414573,13481,FileUpload F40_PE7474,200,Thread Group_Prod1 1-1,true,4224,1,1,13480,1,0,INFPU07042,0
1519901433910,3147,NoFileUpload N38_PE7689_RefTable,200,Thread Group_Prod1 1-1,true,942,1,1,3147,1,0,INFPU07042,190
1519901438537,6956,NoFileUpload N39_PE7440_ISBLANK_ImpactedbyComment,200,Thread Group_Prod1 1-1,true,1070,1,1,6956,1,0,INFPU07042,231
1519901448438,1115,NoFileUpload N40_PE7440_ISNOTBLANK_LENGTH_ImpactedbyComment,200,Thread Group_Prod1 1-1,true,954,1,1,1115,1,0,INFPU07042,186
1519901449581,238,FileUpload F41_PE5679_EqualToWithAllBlank_POSCODE=2,200,Thread Group_Prod1 1-1,true,2838,1,1,237,1,0,INFPU07042,0
1519901449830,252,FileUpload F42_PE5679_3 Null string and 1 Blank_POSCODE=2,200,Thread Group_Prod1 1-1,true,2669,1,1,252,1,0,INFPU07042,0
1519901450107,598,FileUpload F43_PE5679_2 Null String and 2 Blank_POSCODE=2,200,Thread Group_Prod1 1-1,true,2871,1,1,597,1,0,INFPU07042,185
1519901450731,236,FileUpload F44_PE5679_1 Null String_1Data_2 Blank_POSCODE=2,200,Thread Group_Prod1 1-1,true,1746,1,1,236,1,0,INFPU07042,0
1519901450991,211,FileUpload F45_PE5679_NoBlanksNoNullAllUnique_POSCODE=2,200,Thread Group_Prod1 1-1,true,3240,1,1,210,1,0,INFPU07042,0
1519901452688,228,FileUpload F46_PE5679_3samedata_1Blank_POSCODE=2,200,Thread Group_Prod1 1-1,true,2662,1,1,227,1,0,INFPU07042,0
1519901452936,259,FileUpload F47_PE5679_POSCODEGreaterThan2,200,Thread Group_Prod1 1-1,true,2841,1,1,258,1,0,INFPU07042,0
1519901453219,594,FileUpload F48_PE5679_POSCODEGreaterThanEqualTo2,200,Thread Group_Prod1 1-1,true,1747,1,1,594,1,0,INFPU07042,191
1519901453842,236,FileUpload F49_PE5679_LessThan,200,Thread Group_Prod1 1-1,true,2461,1,1,235,1,0,INFPU07042,0
1519901454114,209,FileUpload F50_PE5679_LessThanEqualTo1,200,Thread Group_Prod1 1-1,true,2838,1,1,208,1,0,INFPU07042,0
1519901454350,1780,FileUpload F52_PE7724_CSV_ref,200,Thread Group_Prod1 1-1,true,21361,1,1,1587,1,0,INFPU07042,0
1519901456164,2515,FileUpload F52_PE7724_Excel_ValidationMsg,200,Thread Group_Prod1 1-1,false,29882,1,1,2333,1,1,INFPU07042,182
1519901460171,1584,FileUpload F53_PE7056_uploadMultipleFile_TBC for strict or loose_Shuffle,200,Thread Group_Prod1 1-1,true,5235,1,1,1583,1,0,INFPU07042,182
1519901463226,546,NoFileUpload N41_PE7056_validateAggregates_Fix,200,Thread Group_Prod1 1-1,false,807,1,1,546,1,1,INFPU07042,180
1519901463779,192,NoFileUpload N42_7056_performDefaultActions_Correct as per new code,200,Thread Group_Prod1 1-1,true,674,1,1,191,1,0,INFPU07042,0
1519901463979,367,NoFileUpload N43_7056_crossSectionChecks,200,Thread Group_Prod1 1-1,true,1316,1,1,367,1,0,INFPU07042,0
1519901464354,186,NoFileUpload N44_PE7241_EmailValidation -withInvalidAndValidEmailIdInDimension,200,Thread Group_Prod1 1-1,true,858,1,1,185,1,0,INFPU07042,0
1519901464548,185,NoFileUpload N45_PE7241_EmailValidation-withAllInvalidEmailIdInDimension,200,Thread Group_Prod1 1-1,true,884,1,1,185,1,0,INFPU07042,0
1519901464740,552,NoFileUpload N46_PE7241_EmailValidation -withNullStringAndBlankEmailIdInDimension,200,Thread Group_Prod1 1-1,true,853,1,1,552,1,0,INFPU07042,183
1519901465301,190,NoFileUpload N47_PE7241_EmailValidation_withAllBlankEmailIdInDimension,200,Thread Group_Prod1 1-1,true,832,1,1,190,1,0,INFPU07042,0
1519901465526,194,NoFileUpload N48_PE7241_EmailValidation_withAllEmailIdAsNullStringInDimension,200,Thread Group_Prod1 1-1,true,848,1,1,194,1,0,INFPU07042,0
1519901465732,209,NoFileUpload N49_PE7241_EmailValidation_withAllValidEmailIdInDimension,200,Thread Group_Prod1 1-1,true,876,1,1,197,1,0,INFPU07042,0
1519901465947,190,NoFileUpload N50_PE7241_PhoneValidation_withAllBlankPhoneNumberInDimension,200,Thread Group_Prod1 1-1,true,795,1,1,189,1,0,INFPU07042,0
1519901466144,192,NoFileUpload N51_PE7241_PhoneValidation_withAllInvalidPhoneNumberInDimension,200,Thread Group_Prod1 1-1,true,897,1,1,192,1,0,INFPU07042,0
1519901467804,562,NoFileUpload N52_PE7241_PhoneValidation_withAllNullStringAndBlankPhoneNumberInDimension,200,Thread Group_Prod1 1-1,true,813,1,1,562,1,0,INFPU07042,186
1519901468393,197,NoFileUpload N53_PE7241_PhoneValidation_withAllNullStringPhoneNumberInDimension,200,Thread Group_Prod1 1-1,true,836,1,1,197,1,0,INFPU07042,0
1519901468598,190,NoFileUpload N54_PE7241_PhoneValidation_withAllValidPhoneNumberInDimension,200,Thread Group_Prod1 1-1,true,879,1,1,190,1,0,INFPU07042,0
1519901468803,190,NoFileUpload N55_PE7241_PhoneValidation_withValidAndInvalidPhoneNumberInDimension,200,Thread Group_Prod1 1-1,true,872,1,1,190,1,0,INFPU07042,0
1519901469012,190,NoFileUpload N56_PE7241_RequiredValidation__withAllNullStringInDimension,200,Thread Group_Prod1 1-1,true,872,1,1,190,1,0,INFPU07042,0
1519901469209,189,NoFileUpload N57_PE7241_RequiredValidation__withAllValidValuesInDimension,200,Thread Group_Prod1 1-1,true,858,1,1,189,1,0,INFPU07042,0
1519901469406,543,NoFileUpload N58_PE7241_RequiredValidation_withAllblankValuesInDimension ,200,Thread Group_Prod1 1-1,true,869,1,1,542,1,0,INFPU07042,179
1519901469958,185,"NoFileUpload N59_PE7241_RequiredValidation_WithNullString,BlankAndValuesInDimension",200,Thread Group_Prod1 1-1,true,884,1,1,185,1,0,INFPU07042,0
1519901470152,184,NoFileUpload N60_PE7241_RequiredValidation_WithNullStringlAndBlankInDimension,200,Thread Group_Prod1 1-1,true,880,1,1,184,1,0,INFPU07042,0
1519901470345,188,NoFileUpload N61_PE7241_RequiredValidation_WithValidAndInvalidValue,200,Thread Group_Prod1 1-1,true,884,1,1,188,1,0,INFPU07042,0
1519901470541,186,NoFileUpload N62_PE7241_CheckBoxes_UploadMultipleFile,200,Thread Group_Prod1 1-1,true,810,1,1,186,1,0,INFPU07042,0
1519901470734,186,NoFileUpload N63_PE7241_Dimension_CrossSection,200,Thread Group_Prod1 1-1,true,875,1,1,185,1,0,INFPU07042,0
1519901470928,586,NoFileUpload N64_PE7241_MDA_Dimension,200,Thread Group_Prod1 1-1,true,862,1,1,586,1,0,INFPU07042,185
1519901472996,2025,FileUpload F54_PE-7257_AllValidDateAndDoubleValue(Positive scenario),200,Thread Group_Prod1 1-1,true,23416,1,1,1728,1,0,INFPU07042,0
1519901475021,3942,FileUpload F55_PE-7257_AllValidAndInvalidDateAndDoubleValue(Negative scenario),200,Thread Group_Prod1 1-1,true,26383,1,1,3299,1,0,INFPU07042,192
1519901480422,3664,NoFileUpload N65_PE7506_crosssection_with multiple combination for LPALL_399A,200,Thread Group_Prod1 1-1,true,1319,1,1,3664,1,0,INFPU07042,189
1519901485570,3686,NoFileUpload N66_PE7506_crosssection_with 3 Dimensions for LPALL_399A,200,Thread Group_Prod1 1-1,true,1264,1,1,3686,1,0,INFPU07042,174
1519901490743,4009,"NoFileUpload N67_PE7506_crosssection_13LATAM_01"": ""Y""",200,Thread Group_Prod1 1-1,true,1235,1,1,4009,1,0,INFPU07042,178
1519901497695,3691,"NoFileUpload N68_PE7506_crosssection_ EE_group_13LATAM_01"": ""N""",200,Thread Group_Prod1 1-1,true,1060,1,1,3691,1,0,INFPU07042,179
1519901502872,4129,NoFileUpload N69_PE7506_crosssection_when  EE_group_13LATAM is not present,200,Thread Group_Prod1 1-1,true,1032,1,1,4129,1,0,INFPU07042,241
1519901508492,2604,NoFileUpload N70_PE7506_crosssection_with Dimension for LPALL_399A,200,Thread Group_Prod1 1-1,true,1316,1,1,2604,1,0,INFPU07042,189
1519901511129,3464,NoFileUpload N71_PE7506_crosssection_with Dimension for LPALL_399A 1 as Y others as N,200,Thread Group_Prod1 1-1,true,1264,1,1,3463,1,0,INFPU07042,188
1519901516081,3834,FileUpload F56_PE5415_MultiSheetSuccess,200,Thread Group_Prod1 1-1,true,3621,1,1,3828,1,0,INFPU07042,216
1519901522856,2438,FileUpload F57_PE5415_MultiSheetBadRequest_Ignore,400,Thread Group_Prod1 1-1,false,327,1,1,2438,1,1,INFPU07042,188
1519901525295,2783,FileUpload F58_PE5415_MultiSheetCorrectRequest,200,Thread Group_Prod1 1-1,true,3494,1,1,2782,1,0,INFPU07042,181
1519901529569,1229,FileUpload F59_PE5415_Step1SingleSheetBadReq_Ignore,422,Thread Group_Prod1 1-1,false,1282,1,1,1229,1,1,INFPU07042,185
1519901530822,1055,FileUpload F60_PE5415_Step1SingleSheetCorrectReq,200,Thread Group_Prod1 1-1,true,4665,1,1,1054,1,0,INFPU07042,0
1519901533354,1341,FileUpload F61_PE5415_Step3MappingCompanyJson,200,Thread Group_Prod1 1-1,true,1611,1,1,1341,1,0,INFPU07042,186
1519901534722,1761,FileUpload F62_PE5415_Step3MappingCompanyExcel,200,Thread Group_Prod1 1-1,true,1625,1,1,1761,1,0,INFPU07042,0
1519901537976,2528,FileUpload F63_PE5415_Step3MappingColumnExcel,200,Thread Group_Prod1 1-1,true,4466,1,1,2527,1,0,INFPU07042,177
1519901540530,1374,FileUpload F64_PE5415_Step3MappingColumnJson,200,Thread Group_Prod1 1-1,true,4418,1,1,1373,1,0,INFPU07042,179
1519901543395,1298,FileUpload F65_PE5415_Step3MappingColumnJsonWithoutCountry,200,Thread Group_Prod1 1-1,true,2131,1,1,1297,1,0,INFPU07042,0
1519901544716,1458,FileUpload F66_PE5415_Step3MappingColumnJsonWithCountry,200,Thread Group_Prod1 1-1,true,1611,1,1,1457,1,0,INFPU07042,176
1519901547668,15509,FileUpload F67_PE8315_Fix,200,Thread Group_Prod1 1-1,false,32640,1,1,13393,1,1,INFPU07042,182
1519901569044,2794,FileUpload F68_PE8037_Fix,200,Thread Group_Prod1 1-1,false,2156,1,1,2794,1,1,INFPU07042,260
1519901573315,4424,NoFileUpload N72_ PE5668 T1,200,Thread Group_Prod1 1-1,true,702,1,1,4424,1,0,INFPU07042,188
1519901579230,1648,NoFileUpload N80_PE7989_Req_NonNumericData_withAllwrongcolumn_MDA,200,Thread Group_Prod1 1-1,true,678,1,1,1648,1,0,INFPU07042,182
1519901580907,2081,NoFileUpload N81_PE7989_Req_NonNumericData_withAllrightcolumn_MDA,200,Thread Group_Prod1 1-1,true,846,1,1,2081,1,0,INFPU07042,180
1519901584473,649,NoFileUpload N82_PE7989_Req_NonNumericData_with1wrongcolumn_MDA,200,Thread Group_Prod1 1-1,true,849,1,1,649,1,0,INFPU07042,178
1519901585151,182,NoFileUpload N83_PE7989_uploadMultipleFile,200,Thread Group_Prod1 1-1,true,835,1,1,182,1,0,INFPU07042,0
1519901585365,184,NoFileUpload N84_400 and 500 Error_crossSectionChecks,200,Thread Group_Prod1 1-1,true,619,1,1,184,1,0,INFPU07042,0
1519901585577,182,NoFileUpload N85_400 and 500 Error_crossSectionChecks,200,Thread Group_Prod1 1-1,true,648,1,1,182,1,0,INFPU07042,0
1519901585783,182,NoFileUpload N86_400 and 500 Error_crossSectionChecks,200,Thread Group_Prod1 1-1,true,647,1,1,182,1,0,INFPU07042,0
1519901585986,552,NoFileUpload N87_400 and 500 Error_crossSectionChecks,200,Thread Group_Prod1 1-1,true,501,1,1,551,1,0,INFPU07042,183
1519901588021,3,NoFileUpload N88_400 and 500 Error_crossSectionChecks,Non HTTP response code: java.net.SocketException,Thread Group_Prod1 1-1,false,2560,1,1,0,1,1,INFPU07042,0
1519901588041,731,NoFileUpload N89_PE8186_to Add assertion,200,Thread Group_Prod1 1-1,true,944,1,1,731,1,0,INFPU07042,181
1519901588796,187,NoFileUpload N90_PE8032_SyntaxError1_Fix,200,Thread Group_Prod1 1-1,false,674,1,1,187,1,1,INFPU07042,0
1519901589025,187,NoFileUpload N91_PE8032_SyntaxError2_Fix,200,Thread Group_Prod1 1-1,false,674,1,1,187,1,1,INFPU07042,0
1519901589260,186,NoFileUpload N92_PE8032_InvalidColumn,200,Thread Group_Prod1 1-1,true,758,1,1,186,1,0,INFPU07042,0
1519901589491,579,NoFileUpload N93_PE7771_Exp,200,Thread Group_Prod1 1-1,true,674,1,1,579,1,0,INFPU07042,192
1519901590093,387,NoFileUpload N94_PE7771_Range,200,Thread Group_Prod1 1-1,true,917,1,1,387,1,0,INFPU07042,0
1519901590504,823,NoFileUpload N94_PE7771_Added Scenario,200,Thread Group_Prod1 1-1,true,6106,1,1,821,1,0,INFPU07042,0
1519901592817,746,NoFileUpload N95_PE8269 and 8397_CSC_MDA_ClearValue_Fix,200,Thread Group_Prod1 1-1,false,582,1,1,746,1,1,INFPU07042,186
1519901593587,191,NoFileUpload N96_PE8269 and 8397_CSC_OtherThanClearValue,200,Thread Group_Prod1 1-1,true,792,1,1,191,1,0,INFPU07042,0
1519901593806,190,NoFileUpload N97_PE8269 and 8397_UMF_NonMDA,200,Thread Group_Prod1 1-1,true,838,1,1,190,1,0,INFPU07042,0
1519901594088,190,NoFileUpload N98_PE8269 and 8397_PDA_MDA_ClearValue_Fix,200,Thread Group_Prod1 1-1,false,581,1,1,190,1,1,INFPU07042,0
1519901594304,752,NoFileUpload N99_PE8269 and 8397_PDA_OtherThanClearValue,200,Thread Group_Prod1 1-1,true,789,1,1,752,1,0,INFPU07042,187
1519901595078,5047,FileUpload F69_PE8584_Null Issue ,200,Thread Group_Prod1 1-1,false,14544,1,1,5043,1,1,INFPU07042,0
1519901603080,755,FileUpload F70_PE8584,200,Thread Group_Prod1 1-1,false,11465,1,1,751,1,1,INFPU07042,179
1519901603869,294,FileUpload F71_PE8584,200,Thread Group_Prod1 1-1,false,2034,1,1,294,1,1,INFPU07042,0
1519901604185,193,FileUpload F72_PE8584,200,Thread Group_Prod1 1-1,false,2034,1,1,192,1,1,INFPU07042,0
1519901604404,5447,FileUpload F73_PE8584,200,Thread Group_Prod1 1-1,false,14412,1,1,5443,1,1,INFPU07042,0
1519901612803,9038,FileUpload F74_PE8584,200,Thread Group_Prod1 1-1,false,14416,1,1,9034,1,1,INFPU07042,183
1519901624799,1879,FileUpload F75_PE8584,200,Thread Group_Prod1 1-1,false,16355,1,1,1701,1,1,INFPU07042,177
1519901628179,6047,FileUpload F76_PE8584,200,Thread Group_Prod1 1-1,false,175037,1,1,4251,1,1,INFPU07042,180
1519901635733,2872,FileUpload F77_PE8584,200,Thread Group_Prod1 1-1,false,53786,1,1,2335,1,1,INFPU07042,233
1519901640073,753,FileUpload F78_PE8584,200,Thread Group_Prod1 1-1,false,6088,1,1,751,1,1,INFPU07042,179
1519901640855,188,NoFileUpload N100_PE8916,200,Thread Group_Prod1 1-1,false,855,1,1,188,1,1,INFPU07042,0
1519901641050,2463,FileUpload F79_PE8951_P1,200,Thread Group_Prod1 1-1,true,34677,1,1,2102,1,0,INFPU07042,0
1519901644972,2591,FileUpload F80_PE8951_P2,200,Thread Group_Prod1 1-1,true,30942,1,1,2240,1,0,INFPU07042,177
1519901649023,2563,FileUpload F81_PE8951_P3,200,Thread Group_Prod1 1-1,true,30952,1,1,2207,1,0,INFPU07042,179
1519901653045,2636,FileUpload F82_PE8951_P4,200,Thread Group_Prod1 1-1,true,30944,1,1,2269,1,0,INFPU07042,187
1519901655681,2322,FileUpload F83_PE8951_N1,400,Thread Group_Prod1 1-1,true,389,1,1,2321,1,0,INFPU07042,177
1519901659461,2361,FileUpload F84_PE8951_N2,400,Thread Group_Prod1 1-1,true,389,1,1,2360,1,0,INFPU07042,199
1519901663282,2419,FileUpload F85_PE8951_N3,400,Thread Group_Prod1 1-1,true,388,1,1,2418,1,0,INFPU07042,179
1519901665701,2416,FileUpload F86_PE8951_N4,400,Thread Group_Prod1 1-1,true,388,1,1,2416,1,0,INFPU07042,179
