timeStamp,elapsed,label,responseCode,threadName,success,bytes,grpThreads,allThreads,Latency,SampleCount,ErrorCount,Hostname,Connect
1519394705348,3819,FileUpload F1_PE-8157_Ignore,200,Thread Group_Prod1 1-1,false,6326,1,1,3817,1,1,INFPU07042,344
1519394709314,1002,FileUpload F1_PE-8110_ErrorCell,200,Thread Group_Prod1 1-1,true,1571,1,1,1002,1,0,INFPU07042,246
1519394710361,3105,FileUpload F2_PE-8110_ErrorCell_Ignore,422,Thread Group_Prod1 1-1,false,650879,1,1,1581,1,1,INFPU07042,0
1519394713897,2311,FileUpload F3_PE-8110_ErrorCell_Ignore,400,Thread Group_Prod1 1-1,false,385,1,1,2311,1,1,INFPU07042,250
1519394716225,763,FileUpload F4_PE-5678_SequentialWithOtherValidations,200,Thread Group_Prod1 1-1,true,5471,1,1,762,1,0,INFPU07042,250
1519394717021,378,NoFileUpload N1_PE-5678_LOOK_UP_CHECK1,200,Thread Group_Prod1 1-1,false,1072,1,1,327,1,1,INFPU07042,0
1519394717420,255,NoFileUpload N1_PE-5678_SequentialWithOtherValidations,200,Thread Group_Prod1 1-1,true,994,1,1,255,1,0,INFPU07042,0
1519394717699,257,NoFileUpload N2_PE-5678_SequentialWithOtherValidations,200,Thread Group_Prod1 1-1,true,959,1,1,256,1,0,INFPU07042,0
1519394718026,790,"NoFileUpload_Null Validation_crossSectionChecks_LPALL_566 is """"",200,Thread Group_Prod1 1-1,true,6764,1,1,788,1,0,INFPU07042,0
1519394718840,1749,NoFileUpload_Null Validation_crossSectionChecks_LPALL_566 is null,200,Thread Group_Prod1 1-1,true,6760,1,1,1747,1,0,INFPU07042,245
1519394720631,284,"NoFileUpload_Null Validation_crossSectionChecks_LPALL_566 is ""null""",200,Thread Group_Prod1 1-1,true,6903,1,1,282,1,0,INFPU07042,0
1519394720968,1748,"NoFileUpload_Null Validation_crossSectionChecks_LPALL_566 is ""   """,200,Thread Group_Prod1 1-1,true,6767,1,1,1747,1,0,INFPU07042,248
1519394722756,250,NoFileUpload N3_PE-7172MDA,200,Thread Group_Prod1 1-1,true,664,1,1,250,1,0,INFPU07042,0
1519394723063,760,FileUpload F5_PE7172_Fix,200,Thread Group_Prod1 1-1,false,4477,1,1,759,1,1,INFPU07042,249
1519394723867,500,NoFileUpload N4_PE-8032MDA,200,Thread Group_Prod1 1-1,true,664,1,1,500,1,0,INFPU07042,0
1519394724394,768,NoFileUpload N5_PE-8070,200,Thread Group_Prod1 1-1,true,881,1,1,768,1,0,INFPU07042,0
1519394725188,1242,NoFileUpload N73_PE5668 T2_Temp,200,Thread Group_Prod1 1-1,true,609,1,1,1242,1,0,INFPU07042,248
1519394726466,255,NoFileUpload N74_PE5668 T3_Temp,200,Thread Group_Prod1 1-1,true,753,1,1,255,1,0,INFPU07042,0
1519394726782,265,NoFileUpload N75_PE5668 T4_Temp,200,Thread Group_Prod1 1-1,true,706,1,1,264,1,0,INFPU07042,0
1519394727090,257,NoFileUpload N76_PE5668 T5_Temp,200,Thread Group_Prod1 1-1,true,720,1,1,257,1,0,INFPU07042,0
1519394727390,1278,NoFileUpload N78_PE5668 T7_Temp,200,Thread Group_Prod1 1-1,true,705,1,1,1278,1,0,INFPU07042,255
1519394728700,261,NoFileUpload N79_PE5668 T8_Temp,200,Thread Group_Prod1 1-1,true,607,1,1,261,1,0,INFPU07042,0
1519394728982,1036,FileUpload F6_PE-7257_US_CSV_Shuffle,200,Thread Group_Prod1 1-1,false,5797,1,1,1035,1,1,INFPU07042,0
1519394730050,1821,FileUpload F7_PE-7257_US_Excel_Shuffle,200,Thread Group_Prod1 1-1,false,9472,1,1,1818,1,1,INFPU07042,256
1519394731941,558,NoFileUpload N6_PE7978,200,Thread Group_Prod1 1-1,true,6632,1,1,556,1,0,INFPU07042,0
1519394732539,770,NoFileUpload N7_PE7954,200,Thread Group_Prod1 1-1,true,727,1,1,770,1,0,INFPU07042,256
1519394733330,772,NoFileUpload N77_PE5668 T6,200,Thread Group_Prod1 1-1,true,716,1,1,772,1,0,INFPU07042,0
1519394734121,332,FileUpload F8_PE7999_Ignore since files are identical,422,Thread Group_Prod1 1-1,false,1282,1,1,332,1,1,INFPU07042,0
1519394734481,263,NoFileUpload N8_ PE7795,200,Thread Group_Prod1 1-1,true,717,1,1,262,1,0,INFPU07042,0
1519394734776,741,NoFileUpload N9_PE7046_AU_Comp2,200,Thread Group_Prod1 1-1,true,914,1,1,741,1,0,INFPU07042,246
1519394735553,257,NoFileUpload N10_PE7046_US_Comp1,200,Thread Group_Prod1 1-1,true,910,1,1,256,1,0,INFPU07042,0
1519394735840,253,NoFileUpload N11_PE7046_IN_Comp1,200,Thread Group_Prod1 1-1,true,910,1,1,253,1,0,INFPU07042,0
1519394736121,251,NoFileUpload N12_PE7046_ZA_Comp2,200,Thread Group_Prod1 1-1,true,914,1,1,250,1,0,INFPU07042,0
1519394736396,749,NoFileUpload N13_PE7773_NUM_EMP is 7_Fix,200,Thread Group_Prod1 1-1,false,1099,1,1,749,1,1,INFPU07042,0
1519394737200,1522,NoFileUpload N14_PE7773_NUM_EMP is 8.1_boundry is 8,200,Thread Group_Prod1 1-1,true,1100,1,1,1521,1,0,INFPU07042,250
1519394738760,266,NoFileUpload N15_PE7773_NUM_EMP is 9_boundry is 8,200,Thread Group_Prod1 1-1,true,1099,1,1,266,1,0,INFPU07042,0
1519394739047,261,FileUpload F9_PE5216_ImpactedbyComment,200,Thread Group_Prod1 1-1,false,1356,1,1,261,1,1,INFPU07042,0
1519394739340,741,NoFileUpload N16_PE7044_expression,200,Thread Group_Prod1 1-1,true,674,1,1,741,1,0,INFPU07042,245
1519394740086,497,NoFileUpload N17_PE7044_range,200,Thread Group_Prod1 1-1,true,917,1,1,497,1,0,INFPU07042,0
1519394740682,259,NoFileUpload N18_PE7044_rangeValidationRefTable,200,Thread Group_Prod1 1-1,true,912,1,1,259,1,0,INFPU07042,0
1519394740991,257,NoFileUpload N19_PE7044_rangeValidationRefTable_dimensions,200,Thread Group_Prod1 1-1,true,942,1,1,257,1,0,INFPU07042,0
1519394741270,1494,FileUpload F10_PE5691_1Record_Ignore,400,Thread Group_Prod1 1-1,false,327,1,1,1493,1,1,INFPU07042,0
1519394742777,2276,FileUpload F11_PE5691_1Record_Ignore,400,Thread Group_Prod1 1-1,false,327,1,1,2276,1,1,INFPU07042,251
1519394745091,1029,FileUpload F12_PE6027_Ref Table,200,Thread Group_Prod1 1-1,true,2193,1,1,1028,1,0,INFPU07042,253
1519394746193,518,FileUpload F13_PE6030,200,Thread Group_Prod1 1-1,true,3289,1,1,517,1,0,INFPU07042,0
1519394746778,259,NoFileUpload N20_PE7033,200,Thread Group_Prod1 1-1,true,910,1,1,259,1,0,INFPU07042,0
1519394747040,265,NoFileUpload N21_PE7314,200,Thread Group_Prod1 1-1,true,771,1,1,265,1,0,INFPU07042,0
1519394747346,1794,FileUpload F14_PE7071_1Record_Shuffle,200,Thread Group_Prod1 1-1,false,5862,1,1,1792,1,1,INFPU07042,253
1519394749178,1464,FileUpload F15_PE7071_1Record,200,Thread Group_Prod1 1-1,true,5860,1,1,1463,1,0,INFPU07042,0
1519394750680,1970,FileUpload F16_PE7071_1Record,200,Thread Group_Prod1 1-1,true,6461,1,1,1967,1,0,INFPU07042,244
1519394752676,1224,FileUpload F17_PE7071_1Record,400,Thread Group_Prod1 1-1,false,360,1,1,1224,1,1,INFPU07042,0
1519394753910,1750,FileUpload F18_PE7611,200,Thread Group_Prod1 1-1,false,1989,1,1,1750,1,1,INFPU07042,247
1519394755686,1265,FileUpload F19_PE7611,200,Thread Group_Prod1 1-1,false,2070,1,1,1264,1,1,INFPU07042,0
1519394756992,1727,FileUpload F20_PE7611,200,Thread Group_Prod1 1-1,true,1967,1,1,1726,1,0,INFPU07042,244
1519394758739,1245,FileUpload F21_PE7611,200,Thread Group_Prod1 1-1,true,1989,1,1,1245,1,0,INFPU07042,0
1519394760016,2095,FileUpload F22_PE7611,200,Thread Group_Prod1 1-1,false,2452,1,1,2094,1,1,INFPU07042,259
1519394762147,1727,FileUpload F23_PE7611,200,Thread Group_Prod1 1-1,false,2275,1,1,1726,1,1,INFPU07042,244
1519394763898,1241,FileUpload F24_PE7611,200,Thread Group_Prod1 1-1,false,2275,1,1,1241,1,1,INFPU07042,0
1519394765152,1743,FileUpload F25_PE7611,200,Thread Group_Prod1 1-1,false,2445,1,1,1742,1,1,INFPU07042,246
1519394766918,1265,FileUpload F26_PE7611,200,Thread Group_Prod1 1-1,false,2446,1,1,1265,1,1,INFPU07042,0
1519394768224,1883,FileUpload F27_PE7611,200,Thread Group_Prod1 1-1,true,2173,1,1,1883,1,0,INFPU07042,332
1519394770140,271,FileUpload F28_6713CSV_SkipLastBlankRow,200,Thread Group_Prod1 1-1,true,1752,1,1,270,1,0,INFPU07042,0
1519394770412,778,FileUpload F29_6713CSV_SkipInitialRow,200,Thread Group_Prod1 1-1,true,1461,1,1,778,1,0,INFPU07042,259
1519394771220,266,FileUpload F30_6713CSV_SkipMiddleBlankRows,200,Thread Group_Prod1 1-1,true,2055,1,1,265,1,0,INFPU07042,0
1519394771508,525,FileUpload F31_6713Excel_SkipInitialRow,200,Thread Group_Prod1 1-1,true,1461,1,1,525,1,0,INFPU07042,0
1519394772055,526,FileUpload F32_6713Excel_SkipLastBlankRow,200,Thread Group_Prod1 1-1,true,1752,1,1,526,1,0,INFPU07042,0
1519394772620,1107,FileUpload F33_6713Excel_SkipMiddleRow,200,Thread Group_Prod1 1-1,true,2055,1,1,1107,1,0,INFPU07042,276
1519394773753,270,NoFileUpload N22_PE7631_metaData,200,Thread Group_Prod1 1-1,true,604,1,1,270,1,0,INFPU07042,0
1519394774050,271,NoFileUpload N23_PE7631_metaData,200,Thread Group_Prod1 1-1,true,604,1,1,270,1,0,INFPU07042,0
1519394774357,280,NoFileUpload N24_PE7631_Autocorrect,200,Thread Group_Prod1 1-1,true,836,1,1,280,1,0,INFPU07042,0
1519394774659,800,NoFileUpload N25_PE7631,200,Thread Group_Prod1 1-1,true,830,1,1,800,1,0,INFPU07042,265
1519394775480,270,NoFileUpload N26_7045RawJson_NonNumerciData,200,Thread Group_Prod1 1-1,true,846,1,1,270,1,0,INFPU07042,0
1519394775813,269,NoFileUpload N27_7045RawJson_SkipBlankCols,200,Thread Group_Prod1 1-1,true,776,1,1,268,1,0,INFPU07042,0
1519394776098,271,NoFileUpload N28_7045RawJson_SkipNonNumericCols,200,Thread Group_Prod1 1-1,true,680,1,1,271,1,0,INFPU07042,0
1519394776379,268,NoFileUpload N29_7045RawJson_WithDimesion,200,Thread Group_Prod1 1-1,true,853,1,1,268,1,0,INFPU07042,0
1519394776677,820,NoFileUpload N30_7045RawJson_SingleNonBlankValue,200,Thread Group_Prod1 1-1,true,615,1,1,819,1,0,INFPU07042,263
1519394777520,269,NoFileUpload N31_7045RawJson_WithOtherValidation,200,Thread Group_Prod1 1-1,true,903,1,1,268,1,0,INFPU07042,0
1519394777811,273,FileUpload F34_PE7045_7045CSV_SimpleSequentialCheck,200,Thread Group_Prod1 1-1,true,2040,1,1,272,1,0,INFPU07042,0
1519394778115,541,FileUpload F35_PE7045_7045Excel_SimpleSequentialCheck,200,Thread Group_Prod1 1-1,true,2028,1,1,541,1,0,INFPU07042,0
1519394778670,826,FileUpload F36_PE7045_7045CSV_SkipBlankColumn,200,Thread Group_Prod1 1-1,true,1727,1,1,826,1,0,INFPU07042,273
1519394779510,546,FileUpload F37_PE7045_7045EXCEL_SkipBlankColumn,200,Thread Group_Prod1 1-1,true,2070,1,1,545,1,0,INFPU07042,0
1519394780072,1169,FileUpload F38_PE7045_7045CSV_SkipNonNumericData,200,Thread Group_Prod1 1-1,true,1628,1,1,1169,1,0,INFPU07042,0
1519394781258,1034,FileUpload F39_PE7045_7045EXCEL_SkipNonNumericData,200,Thread Group_Prod1 1-1,true,2584,1,1,1033,1,0,INFPU07042,255
1519394782312,261,NoFileUpload N32_PE7474_Testcase1,200,Thread Group_Prod1 1-1,true,900,1,1,261,1,0,INFPU07042,0
1519394782592,264,NoFileUpload N33_PE7474_Testcase2,200,Thread Group_Prod1 1-1,true,903,1,1,264,1,0,INFPU07042,0
1519394782882,262,NoFileUpload N34_PE7474_Testcase3,200,Thread Group_Prod1 1-1,true,815,1,1,262,1,0,INFPU07042,0
1519394783183,266,NoFileUpload N35_PE7474_Testcase4,200,Thread Group_Prod1 1-1,true,881,1,1,266,1,0,INFPU07042,0
1519394783466,783,NoFileUpload N36_PE7474_Testcase5,200,Thread Group_Prod1 1-1,true,905,1,1,783,1,0,INFPU07042,257
1519394784289,266,NoFileUpload N37_PE7474_Testcase6,200,Thread Group_Prod1 1-1,true,895,1,1,266,1,0,INFPU07042,0
1519394784587,4985,FileUpload F40_PE7474,200,Thread Group_Prod1 1-1,true,4224,1,1,4981,1,0,INFPU07042,0
1519394789593,1116,NoFileUpload N38_PE7689_RefTable,200,Thread Group_Prod1 1-1,true,942,1,1,1116,1,0,INFPU07042,274
1519394790765,839,NoFileUpload N39_PE7440_ISBLANK_ImpactedbyComment,200,Thread Group_Prod1 1-1,true,1070,1,1,839,1,0,INFPU07042,0
1519394791634,1559,NoFileUpload N40_PE7440_ISNOTBLANK_LENGTH_ImpactedbyComment,200,Thread Group_Prod1 1-1,true,954,1,1,1559,1,0,INFPU07042,260
1519394793229,269,FileUpload F41_PE5679_EqualToWithAllBlank_POSCODE=2,200,Thread Group_Prod1 1-1,true,2838,1,1,268,1,0,INFPU07042,0
1519394793518,268,FileUpload F42_PE5679_3 Null string and 1 Blank_POSCODE=2,200,Thread Group_Prod1 1-1,true,2669,1,1,267,1,0,INFPU07042,0
1519394793822,777,FileUpload F43_PE5679_2 Null String and 2 Blank_POSCODE=2,200,Thread Group_Prod1 1-1,true,2871,1,1,776,1,0,INFPU07042,257
1519394794632,264,FileUpload F44_PE5679_1 Null String_1Data_2 Blank_POSCODE=2,200,Thread Group_Prod1 1-1,true,1746,1,1,264,1,0,INFPU07042,0
1519394794918,265,FileUpload F45_PE5679_NoBlanksNoNullAllUnique_POSCODE=2,200,Thread Group_Prod1 1-1,true,3240,1,1,264,1,0,INFPU07042,0
1519394795202,264,FileUpload F46_PE5679_3samedata_1Blank_POSCODE=2,200,Thread Group_Prod1 1-1,true,2662,1,1,264,1,0,INFPU07042,0
1519394795483,265,FileUpload F47_PE5679_POSCODEGreaterThan2,200,Thread Group_Prod1 1-1,true,2841,1,1,264,1,0,INFPU07042,0
1519394795759,263,FileUpload F48_PE5679_POSCODEGreaterThanEqualTo2,200,Thread Group_Prod1 1-1,true,1747,1,1,263,1,0,INFPU07042,0
1519394796049,762,FileUpload F49_PE5679_LessThan,200,Thread Group_Prod1 1-1,true,2461,1,1,761,1,0,INFPU07042,252
1519394796840,259,FileUpload F50_PE5679_LessThanEqualTo1,200,Thread Group_Prod1 1-1,true,2838,1,1,259,1,0,INFPU07042,0
1519394797165,2393,FileUpload F52_PE7724_CSV_ref,200,Thread Group_Prod1 1-1,true,21361,1,1,2140,1,0,INFPU07042,0
1519394799580,3414,FileUpload F52_PE7724_Excel_ValidationMsg,200,Thread Group_Prod1 1-1,false,29867,1,1,3153,1,1,INFPU07042,266
1519394803033,1772,FileUpload F53_PE7056_uploadMultipleFile_TBC for strict or loose_Shuffle,200,Thread Group_Prod1 1-1,true,5235,1,1,1771,1,0,INFPU07042,251
1519394804827,276,NoFileUpload N41_PE7056_validateAggregates_Fix,200,Thread Group_Prod1 1-1,false,807,1,1,275,1,1,INFPU07042,0
1519394805146,785,NoFileUpload N42_7056_performDefaultActions_Correct as per new code,200,Thread Group_Prod1 1-1,true,674,1,1,785,1,0,INFPU07042,260
1519394805959,527,NoFileUpload N43_7056_crossSectionChecks,200,Thread Group_Prod1 1-1,true,1316,1,1,526,1,0,INFPU07042,0
1519394806503,266,NoFileUpload N44_PE7241_EmailValidation -withInvalidAndValidEmailIdInDimension,200,Thread Group_Prod1 1-1,true,858,1,1,266,1,0,INFPU07042,0
1519394806795,264,NoFileUpload N45_PE7241_EmailValidation-withAllInvalidEmailIdInDimension,200,Thread Group_Prod1 1-1,true,884,1,1,263,1,0,INFPU07042,0
1519394807091,266,NoFileUpload N46_PE7241_EmailValidation -withNullStringAndBlankEmailIdInDimension,200,Thread Group_Prod1 1-1,true,853,1,1,266,1,0,INFPU07042,0
1519394807386,764,NoFileUpload N47_PE7241_EmailValidation_withAllBlankEmailIdInDimension,200,Thread Group_Prod1 1-1,true,832,1,1,764,1,0,INFPU07042,253
1519394808176,257,NoFileUpload N48_PE7241_EmailValidation_withAllEmailIdAsNullStringInDimension,200,Thread Group_Prod1 1-1,true,848,1,1,257,1,0,INFPU07042,0
1519394808474,257,NoFileUpload N49_PE7241_EmailValidation_withAllValidEmailIdInDimension,200,Thread Group_Prod1 1-1,true,876,1,1,257,1,0,INFPU07042,0
1519394808769,259,NoFileUpload N50_PE7241_PhoneValidation_withAllBlankPhoneNumberInDimension,200,Thread Group_Prod1 1-1,true,800,1,1,259,1,0,INFPU07042,0
1519394809046,258,NoFileUpload N51_PE7241_PhoneValidation_withAllInvalidPhoneNumberInDimension,200,Thread Group_Prod1 1-1,true,897,1,1,258,1,0,INFPU07042,0
1519394809341,258,NoFileUpload N52_PE7241_PhoneValidation_withAllNullStringAndBlankPhoneNumberInDimension,200,Thread Group_Prod1 1-1,true,813,1,1,258,1,0,INFPU07042,0
1519394809629,771,NoFileUpload N53_PE7241_PhoneValidation_withAllNullStringPhoneNumberInDimension,200,Thread Group_Prod1 1-1,true,836,1,1,770,1,0,INFPU07042,259
1519394810411,259,NoFileUpload N54_PE7241_PhoneValidation_withAllValidPhoneNumberInDimension,200,Thread Group_Prod1 1-1,true,879,1,1,259,1,0,INFPU07042,0
1519394810703,258,NoFileUpload N55_PE7241_PhoneValidation_withValidAndInvalidPhoneNumberInDimension,200,Thread Group_Prod1 1-1,true,872,1,1,258,1,0,INFPU07042,0
1519394810989,260,NoFileUpload N56_PE7241_RequiredValidation__withAllNullStringInDimension,200,Thread Group_Prod1 1-1,true,872,1,1,259,1,0,INFPU07042,0
1519394811284,260,NoFileUpload N57_PE7241_RequiredValidation__withAllValidValuesInDimension,200,Thread Group_Prod1 1-1,true,858,1,1,260,1,0,INFPU07042,0
1519394811556,260,NoFileUpload N58_PE7241_RequiredValidation_withAllblankValuesInDimension ,200,Thread Group_Prod1 1-1,true,874,1,1,259,1,0,INFPU07042,0
1519394811843,777,"NoFileUpload N59_PE7241_RequiredValidation_WithNullString,BlankAndValuesInDimension",200,Thread Group_Prod1 1-1,true,884,1,1,777,1,0,INFPU07042,258
1519394812650,262,NoFileUpload N60_PE7241_RequiredValidation_WithNullStringlAndBlankInDimension,200,Thread Group_Prod1 1-1,true,875,1,1,262,1,0,INFPU07042,0
1519394812941,264,NoFileUpload N61_PE7241_RequiredValidation_WithValidAndInvalidValue,200,Thread Group_Prod1 1-1,true,879,1,1,264,1,0,INFPU07042,0
1519394813234,268,NoFileUpload N62_PE7241_CheckBoxes_UploadMultipleFile,200,Thread Group_Prod1 1-1,true,805,1,1,268,1,0,INFPU07042,0
1519394813518,264,NoFileUpload N63_PE7241_Dimension_CrossSection,200,Thread Group_Prod1 1-1,true,870,1,1,263,1,0,INFPU07042,0
1519394813833,262,NoFileUpload N64_PE7241_MDA_Dimension,200,Thread Group_Prod1 1-1,true,857,1,1,262,1,0,INFPU07042,0
1519394814145,2078,FileUpload F54_PE-7257_AllValidDateAndDoubleValue(Positive scenario),200,Thread Group_Prod1 1-1,true,23416,1,1,1821,1,0,INFPU07042,253
1519394816225,2407,FileUpload F55_PE-7257_AllValidAndInvalidDateAndDoubleValue(Negative scenario),200,Thread Group_Prod1 1-1,true,26383,1,1,2139,1,0,INFPU07042,262
1519394818634,1028,NoFileUpload N65_PE7506_crosssection_with multiple combination for LPALL_399A,200,Thread Group_Prod1 1-1,true,1319,1,1,1028,1,0,INFPU07042,256
1519394819740,266,NoFileUpload N66_PE7506_crosssection_with 3 Dimensions for LPALL_399A,200,Thread Group_Prod1 1-1,true,1264,1,1,266,1,0,INFPU07042,0
1519394820031,262,"NoFileUpload N67_PE7506_crosssection_13LATAM_01"": ""Y""",200,Thread Group_Prod1 1-1,true,1235,1,1,262,1,0,INFPU07042,0
1519394820307,264,"NoFileUpload N68_PE7506_crosssection_ EE_group_13LATAM_01"": ""N""",200,Thread Group_Prod1 1-1,true,1060,1,1,264,1,0,INFPU07042,0
1519394820609,270,NoFileUpload N69_PE7506_crosssection_when  EE_group_13LATAM is not present,200,Thread Group_Prod1 1-1,true,1032,1,1,270,1,0,INFPU07042,0
1519394820900,1042,NoFileUpload N70_PE7506_crosssection_with Dimension for LPALL_399A,200,Thread Group_Prod1 1-1,true,1316,1,1,1042,1,0,INFPU07042,257
1519394821968,266,NoFileUpload N71_PE7506_crosssection_with Dimension for LPALL_399A 1 as Y others as N,200,Thread Group_Prod1 1-1,true,1264,1,1,266,1,0,INFPU07042,0
1519394822249,532,FileUpload F56_PE5415_MultiSheetSuccess,200,Thread Group_Prod1 1-1,true,3621,1,1,532,1,0,INFPU07042,0
1519394822804,523,FileUpload F57_PE5415_MultiSheetBadRequest_Ignore,400,Thread Group_Prod1 1-1,false,327,1,1,523,1,1,INFPU07042,0
1519394823337,1073,FileUpload F58_PE5415_MultiSheetCorrectRequest,200,Thread Group_Prod1 1-1,true,3494,1,1,1072,1,0,INFPU07042,264
1519394824432,543,FileUpload F59_PE5415_Step1SingleSheetBadReq_Ignore,422,Thread Group_Prod1 1-1,false,1282,1,1,542,1,1,INFPU07042,0
1519394824988,543,FileUpload F60_PE5415_Step1SingleSheetCorrectReq,200,Thread Group_Prod1 1-1,true,4665,1,1,542,1,0,INFPU07042,0
1519394825570,771,FileUpload F61_PE5415_Step3MappingCompanyJson,200,Thread Group_Prod1 1-1,true,1611,1,1,770,1,0,INFPU07042,255
1519394826366,522,FileUpload F62_PE5415_Step3MappingCompanyExcel,200,Thread Group_Prod1 1-1,true,1625,1,1,522,1,0,INFPU07042,0
1519394826900,524,FileUpload F63_PE5415_Step3MappingColumnExcel,200,Thread Group_Prod1 1-1,true,4466,1,1,522,1,0,INFPU07042,0
1519394827450,262,FileUpload F64_PE5415_Step3MappingColumnJson,200,Thread Group_Prod1 1-1,true,4418,1,1,261,1,0,INFPU07042,0
1519394827731,1054,FileUpload F65_PE5415_Step3MappingColumnJsonWithoutCountry,200,Thread Group_Prod1 1-1,true,2131,1,1,1053,1,0,INFPU07042,261
1519394828800,271,FileUpload F66_PE5415_Step3MappingColumnJsonWithCountry,200,Thread Group_Prod1 1-1,true,1611,1,1,271,1,0,INFPU07042,0
1519394829113,3572,FileUpload F67_PE8315_Fix,200,Thread Group_Prod1 1-1,false,32640,1,1,3303,1,1,INFPU07042,0
1519394832743,1103,FileUpload F68_PE8037_Fix,200,Thread Group_Prod1 1-1,false,2156,1,1,1103,1,1,INFPU07042,328
1519394833867,513,NoFileUpload N72_ PE5668 T1,200,Thread Group_Prod1 1-1,true,702,1,1,513,1,0,INFPU07042,0
1519394834404,263,NoFileUpload N80_PE7989_Req_NonNumericData_withAllwrongcolumn_MDA,200,Thread Group_Prod1 1-1,true,678,1,1,258,1,0,INFPU07042,0
1519394834685,259,NoFileUpload N81_PE7989_Req_NonNumericData_withAllrightcolumn_MDA,200,Thread Group_Prod1 1-1,true,846,1,1,259,1,0,INFPU07042,0
1519394834974,791,NoFileUpload N82_PE7989_Req_NonNumericData_with1wrongcolumn_MDA,200,Thread Group_Prod1 1-1,true,849,1,1,791,1,0,INFPU07042,262
1519394835789,266,NoFileUpload N83_PE7989_uploadMultipleFile,200,Thread Group_Prod1 1-1,true,835,1,1,266,1,0,INFPU07042,0
1519394836071,268,NoFileUpload N84_400 and 500 Error_crossSectionChecks,200,Thread Group_Prod1 1-1,true,619,1,1,268,1,0,INFPU07042,0
1519394836377,271,NoFileUpload N85_400 and 500 Error_crossSectionChecks,200,Thread Group_Prod1 1-1,true,648,1,1,271,1,0,INFPU07042,0
1519394836685,268,NoFileUpload N86_400 and 500 Error_crossSectionChecks,200,Thread Group_Prod1 1-1,true,647,1,1,267,1,0,INFPU07042,0
1519394836989,758,NoFileUpload N87_400 and 500 Error_crossSectionChecks,200,Thread Group_Prod1 1-1,true,501,1,1,758,1,0,INFPU07042,252
1519394837767,255,NoFileUpload N88_400 and 500 Error_crossSectionChecks,200,Thread Group_Prod1 1-1,true,619,1,1,255,1,0,INFPU07042,0
1519394838049,257,NoFileUpload N89_PE8186_to Add assertion,200,Thread Group_Prod1 1-1,true,944,1,1,257,1,0,INFPU07042,0
1519394838435,257,NoFileUpload N90_PE8032_SyntaxError1_Fix,200,Thread Group_Prod1 1-1,false,674,1,1,257,1,1,INFPU07042,0
1519394838739,256,NoFileUpload N91_PE8032_SyntaxError2_Fix,200,Thread Group_Prod1 1-1,false,674,1,1,256,1,1,INFPU07042,0
1519394839033,732,NoFileUpload N92_PE8032_InvalidColumn,200,Thread Group_Prod1 1-1,true,758,1,1,731,1,0,INFPU07042,243
1519394839813,246,NoFileUpload N93_PE7771_Exp,200,Thread Group_Prod1 1-1,true,674,1,1,246,1,0,INFPU07042,0
1519394840096,250,NoFileUpload N94_PE7771_Range,200,Thread Group_Prod1 1-1,true,917,1,1,250,1,0,INFPU07042,0
1519394840365,1016,NoFileUpload N94_PE7771_Added Scenario,200,Thread Group_Prod1 1-1,true,6106,1,1,1014,1,0,INFPU07042,0
1519394841419,1004,NoFileUpload N95_PE8269 and 8397_CSC_MDA_ClearValue_Fix,200,Thread Group_Prod1 1-1,false,582,1,1,1003,1,1,INFPU07042,250
1519394842447,255,NoFileUpload N96_PE8269 and 8397_CSC_OtherThanClearValue,200,Thread Group_Prod1 1-1,true,792,1,1,255,1,0,INFPU07042,0
1519394842721,257,NoFileUpload N97_PE8269 and 8397_UMF_NonMDA,200,Thread Group_Prod1 1-1,true,833,1,1,257,1,0,INFPU07042,0
1519394843015,255,NoFileUpload N98_PE8269 and 8397_PDA_MDA_ClearValue_Fix,200,Thread Group_Prod1 1-1,false,576,1,1,254,1,1,INFPU07042,0
1519394843285,255,NoFileUpload N99_PE8269 and 8397_PDA_OtherThanClearValue,200,Thread Group_Prod1 1-1,true,789,1,1,255,1,0,INFPU07042,0
1519394843560,7608,FileUpload F69_PE8584_Null Issue ,200,Thread Group_Prod1 1-1,false,14544,1,1,7602,1,1,INFPU07042,257
1519394851199,1022,FileUpload F70_PE8584,200,Thread Group_Prod1 1-1,false,11458,1,1,1018,1,1,INFPU07042,253
1519394852253,262,FileUpload F71_PE8584,200,Thread Group_Prod1 1-1,false,2034,1,1,261,1,1,INFPU07042,0
1519394852534,262,FileUpload F72_PE8584,200,Thread Group_Prod1 1-1,false,2034,1,1,261,1,1,INFPU07042,0
1519394852837,7756,FileUpload F73_PE8584,200,Thread Group_Prod1 1-1,false,14412,1,1,7750,1,1,INFPU07042,0
1519394860623,12199,FileUpload F74_PE8584,200,Thread Group_Prod1 1-1,false,14416,1,1,12194,1,1,INFPU07042,316
1519394872865,259,FileUpload F75_PE8584,Non HTTP response code: java.io.FileNotFoundException,Thread Group_Prod1 1-1,false,2738,1,1,0,1,1,INFPU07042,253
1519394873151,262,FileUpload F76_PE8584,Non HTTP response code: java.io.FileNotFoundException,Thread Group_Prod1 1-1,false,2737,1,1,0,1,1,INFPU07042,260
1519394873456,251,FileUpload F77_PE8584,Non HTTP response code: java.io.FileNotFoundException,Thread Group_Prod1 1-1,false,2733,1,1,0,1,1,INFPU07042,248
1519394873737,247,FileUpload F78_PE8916,Non HTTP response code: java.io.FileNotFoundException,Thread Group_Prod1 1-1,false,2737,1,1,0,1,1,INFPU07042,245
1519394874022,753,NoFileUpload N100_PE8916,200,Thread Group_Prod1 1-1,false,855,1,1,753,1,1,INFPU07042,249
1519394874803,3218,FileUpload F79_PE8951_P1,200,Thread Group_Prod1 1-1,true,34676,1,1,2960,1,0,INFPU07042,0
1519394878022,3706,FileUpload F80_PE8951_P2,200,Thread Group_Prod1 1-1,true,30936,1,1,3447,1,0,INFPU07042,253
1519394881729,3368,FileUpload F81_PE8951_P3,200,Thread Group_Prod1 1-1,true,30936,1,1,3112,1,0,INFPU07042,251
1519394885098,3403,FileUpload F82_PE8951_P4,200,Thread Group_Prod1 1-1,true,30929,1,1,3147,1,0,INFPU07042,249
1519394888503,3025,FileUpload F83_PE8951_N1,400,Thread Group_Prod1 1-1,true,389,1,1,3025,1,0,INFPU07042,252
1519394891529,3311,FileUpload F84_PE8951_N2,400,Thread Group_Prod1 1-1,true,389,1,1,3311,1,0,INFPU07042,251
1519394894841,3279,FileUpload F85_PE8951_N3,400,Thread Group_Prod1 1-1,true,388,1,1,3278,1,0,INFPU07042,252
1519394898121,3206,FileUpload F86_PE8951_N4,400,Thread Group_Prod1 1-1,true,388,1,1,3204,1,0,INFPU07042,246
