{
    "entities": [
        {
            "data": [
                {
                    "YOUR_EEID": "1",
                    "question3": "2000",
                    "question2": "20000",
                    "$$id": "58d0360baa2ae02cc4723431",
                    "question4": "8000",
                    "question1": "15000",
                    "EMP006": "EMP_006",
                    "validationErrors": [
                        {
                            "dependentColumns": [
                                "question1",
                                "question2",
                                "question3",
                                "question4"
                            ],
                            "expression": "",
                            "validationType": "sequentialCheck",
                            "_id": "59df5c44527b5be1ac230224",
                            "message": "",
                            "category": "input_data",
                            "field": "question3",
                            "messageKey": "mosaic-error-message.sequential_check",
                            "messageParams": {
                                "column": "question3",
                                "prevColumn": "question2"
                            },
                            "errorType": "ERROR"
                        },
                        {
                            "minAlert": "17000",
                            "maxAlert": "21000",
                            "dependentColumns": [],
                            "expression": "",
                            "minError": "15000",
                            "validationType": "range",
                            "maxError": "24500",
                            "_id": "59df5c44527b5be1ac230224",
                            "message": "",
                            "category": "input_data",
                            "field": "question1",
                            "errorType": "ALERT",
                            "messageKey": "mosaic-error-message.min_value_alert"
                        },
                        {
                            "expression": "DECODE(LENGTH(this.question1) > 0,\"true\",\"false\");",
                            "errorGroup": "Personal",
                            "errorType": "ERROR",
                            "validationType": "expression",
                            "message": "Length of Department",
                            "field": "question1"
                        }
                    ]
                },
                {
                    "YOUR_EEID": "2",
                    "question3": "30000",
                    "question2": "20000",
                    "$$id": "58d03653aa2ae02cc4723432",
                    "question4": "80000",
                    "question1": "18000",
                    "EMP006": "EMP_006",
                    "validationErrors": [
                        {
                            "expression": "DECODE(LENGTH(this.question1) > 0,\"true\",\"false\");",
                            "errorGroup": "Personal",
                            "errorType": "ERROR",
                            "validationType": "expression",
                            "message": "Length of Department",
                            "field": "question1"
                        }
                    ]
                }
            ],
            "contextData": {
                "uniqueIdColumnCode": "YOUR_EEID",
                "companyId": "59c3eac0fc22fa6928d09aa4",
                "campaignId": "59ca2a66c1e15a565af88407",
                "grpCode": "",
                "companyName": "Exadel",
                "cpyCode": "",
                "industry": {
                    "superSector": "CG",
                    "subSector": "2670",
                    "sector": "101"
                },
                "sectionId": "pe3707Section",
                "orgSize": {
                    "59c3eac0fc22fa6928d09aa4": null
                },
                "ctryCode": "PL"
            }
        }
    ]
}