timeStamp,elapsed,label,responseCode,threadName,success,bytes,grpThreads,allThreads,Latency,SampleCount,ErrorCount,Hostname,Connect
1512050183512,934,NoFileUpload B17_PE7033_PE7314,200,Thread Group_Prod1 1-1,false,879,1,1,879,1,1,INFPU07042,341
1512050184450,266,NoFileUpload B18_PE7033_PE7314,200,Thread Group_Prod1 1-1,false,521,1,1,265,1,1,INFPU07042,0
1512050184718,286,FileUpload D10_PE5216,200,Thread Group_Prod1 1-1,false,1703,1,1,286,1,1,INFPU07042,0
1512050185014,1075,FileUpload D11_PE6030,200,Thread Group_Prod1 1-1,true,4039,1,1,1073,1,0,INFPU07042,0
1512050186134,1068,FileUpload D12_PE6027,200,Thread Group_Prod1 1-1,true,3351,1,1,1067,1,0,INFPU07042,250
1512050187206,2549,FileUpload D13_PE5691_1Record,200,Thread Group_Prod1 1-1,false,13516,1,1,2548,1,1,INFPU07042,0
1512050189797,250,FileUpload D14_PE5691_1Record,Non HTTP response code: java.io.FileNotFoundException,Thread Group_Prod1 1-1,false,2738,1,1,0,1,1,INFPU07042,249
1512050190049,2528,FileUpload D15_PE5691_1Record,Non HTTP response code: java.io.FileNotFoundException,Thread Group_Prod1 1-1,false,2763,1,1,0,1,1,INFPU07042,253
1512050192611,2080,FileUpload D16_PE7071_1Record,200,Thread Group_Prod1 1-1,false,6111,1,1,2078,1,1,INFPU07042,249
1512050194759,2062,FileUpload D17_PE7071_1Record,200,Thread Group_Prod1 1-1,false,6111,1,1,2062,1,1,INFPU07042,251
1512050196869,1815,FileUpload D18_PE7071_1Record,200,Thread Group_Prod1 1-1,true,6716,1,1,1814,1,0,INFPU07042,252
1512050198725,1317,FileUpload D19_PE7071_1Record,200,Thread Group_Prod1 1-1,true,6716,1,1,1315,1,0,INFPU07042,0
1512050200080,2047,FileUpload D20_PE7071_1Record,200,Thread Group_Prod1 1-1,true,5215,1,1,2045,1,0,INFPU07042,246
