{  
   "entities":[  
      {  
         "sectionStructure":{  
            "columns":[  
               {  
                  "code":"YOUR_EEID",
                  "displayLabel":"YOUR_EEID",
				  "dataType":"int",
                  "validations":[  
                     {  
                        "errorType":"ERROR",
                        "validationType":"sequentialCheck",
						"dependentColumns": ["YOUR_EEID", "salary", "age", "dropdown"],
                        "expression":"",
                        "errorGroup":"Personal",
                        "message":"",
                     }
                  ]
               },
               {   
                  "code":"YOUR_TITLE",
                  "displayLabel":"YOUR_TITLE",
                  "dataType":"string",
				   "validations":[  
                     {  
                        "errorType":"ERROR",
                        "validationType":"expression",
                        "expression":"DECODE(LENGTH(this.YOUR_TITLE) > 0,\"true\",\"false\");",
                        "errorGroup":"Personal",
                        "message":"Length of Department"
                     }
                  ]
               },
			   {   
                  "code":"salary",
                  "displayLabel":"salary",
                  "dataType":"int",
				   "validations":[  
                     
                  ]
               },
			   {   
                  "code":"age",
                  "displayLabel":"age",
                  "dataType":"int",
				   "validations":[  
                   
                  ]
               },
			   {   
                  "code":"dropdown",
                  "displayLabel":"dropdown",
                  "dataType":"string",
				   "validations":[  
                    
                  ]
               }
            ]
         },
         "contextData":{  
            "uniqueIdColumnCode":"ID",
            "campaignId":"11111",
			"companyName":"Company1",
			"entityNameColumnCode":"city1",
			 "ctryCode":"US",
            "sectionId":"22222",
            "grpCode":"3333",
            "cpyCode":"4444",
            "industry":{  
               "superSector":"CG",
               "sector":"100",
               "subSector":"101"
            },
            "orgSize":123
         }
      }
   ]
}