test_6524_3,test_6524_4,test_6524_2,test_6524_1,YOUR_EEID,YOUR_TITLE,POS_CODE,EMP_129
test_6524_3,test_6524_4,test_6524_2,test_6524_1,Employee identifier,Job title within your organization,Mercer benchmark code,Annual base salary (equivalent to full-time employment)
Multi ,O,S,Y,2,PR Manager,CCA.04.004.P30,25000
Multi Cou,OE,Sa,#REF,4,PR Manager,CCA.04.004.P30,25000
G,OEM,Sale,Yes,1,PR Manager,CCA.04.004.P30,25000
In Co,IT,Non,N,14,PR Manager,CCA.04.004.P30,25000
R,Specialist,Non-S,no,6,PR Manager,CCA.04.004.P30,25000
Dist,IT servi,No,n,3,PR Manager,CCA.04.004.P30,25000
In,INFO NOT AVAILABLE,sale,ye,11,PR Manager,CCA.04.004.P30,25000
Regio,Cap,non,yes,16,PR Manager,CCA.04.004.P30,25000
