EMP_001,EMP_002,YOUR_EEID,EMP_004,EMP_005,POS_CODE,POS_TITLE,EMP_010,EMP_011,LIBSPEC_FLAG1,LIBSPEC_FLAG2,LIBSPEC_FLAG3,YOUR_TITLE,YOUR_CODE,YOUR_LEVEL,YOUR_GRADE,YOUR_OTHER,EMP_026,POS_CLASS,EMP_029,EMP_030,EMP_031,EMP_036,EMP_037,EMP_038,EMP_040,EMP_044,EMP_047,EMP_050,EMP_052,EMP_058A,EMP_060,EMP_063,EMP_065,EMP_066,EMP_081,EMP_084,EMP_097,EMP_103,EMP_104,EMP_105,EMP_106,EMP_107,EMP_108,EMP_111,EMP_124,EMP_125,EMP_128,EMP_139,EMP_141,EMP_144,EMP_147,EMP_163,EMP_167,EMP_169,EMP_172,EMP_176,EMP_182,EMP_185,EMP_190,EMP_191,EMP_196,EMP_207,EMP_216,EMP_218,EMP_219,EMP_220,EMP_221,EMP_232,EMP_233,EMP_234,EMP_236,EMP_240,EMP_241,EMP_242,EMP_243,EMP_244,EMP_246,EMP_249,EMP_250,EMP_252,EMP_253,EMP_255,EMP_278,EMP_280,EMP_281,EMP_282,EMP_283,EMP_284,EMP_285,EMP_293,EMP_294,EMP_295,EMP_296,EMP_323,EMP_334,EMP_350,EMP_353,EMP_383,EMP_385,EMP_387,EMP_391,EMP_392,EMP_395,EMP_397,EXCLUDE_EMPLOYEE
Entity name ,Organization Type (Sales / Non-Sales),Employee Identifier,Benchmark Job Function,Job Family Code & Title,Mercer Benchmark Code,Mercer Position Title,Therapeutic Area Flag,Energy Specialization Flag,"Mercer Job Library Specialty Flags 
Level 1 (Applicable for certain jobs only)","Mercer Job Library Specialty Flags 
Level 2 (Applicable for certain Financial jobs only)","Mercer Job Library Specialty Flags 
Level 3 (Applicable for certain Financial jobs only)",Organization Job Title,Organization Job Code,Organization Job Level,Organization Job Grade,Organization Job ID - Other,Organization's  Reports to Position Title,IPE Position Class (current year) (only for IPE users),IPE Position Class (previous year) (for reference only),Organization IPE Size (only for IPE users),Revenue for business in which role sits,Geographic Scope of Role,Year of Birth,Employee Year of Hire,Years of Relevant Experience,Gender,"Region (State, City) job is located",Passport-issuing Country. For Expatriate and Local-plus only,lnternal Business Unit / Function / Department,SSO/BPO Employee,Type of Contract,Education level,Skills / Specialization,Qualifications Specification,Head of Organization Type ,Type of Expatriate Package, Salary Effective Date,Type of Store Managed ,Store Size (for Store Positions only)  ,Shop ID (for Retail Positions only),Brand (Full Brand Name) (for Retail Position only),Product Type 1 (Store Sales Only) (Please Select the MAJOR Type),Product Type 2 (Store Sales Only) (Please Select the MAJOR Type) ,Type of Industry Sales (Applicable for 'Top Sales Executive' benchmark only),Employee salary currency,Monthly Base Salary (Equivalent to Full Time Employment),Number of Months Paid,Lump-sum Allowance - for Expatriate only,Burn-In Allowance,Cleanroom Allowance,Cost of Living Allowance,Hardship Allowance,Housing Allowance,Job Based Allowances,Meal or Luncheon Voucher Allowance,Mobility Allowance (Foreign Service Premium). For Expatriate only,Onshore Allowance,Other Annual Guaranteed Allowance,Other Expatriate/ Local-Plus Allowances. For Expatriate and Local-Plus only,"Details of the ""Other Expatriate/ Local-Plus Allowances"". For Expatriate and Local-Plus only",Phone Allowance ,Representation Allowance,Scope Allowance,Shift Allowance - 8 hour,Shift Allowance - 12 hour,Skill Allowance,Transportation Allowance,Other Allowance Description,Short-term Incentive (Variable Bonus) Eligibility,Short-term Incentive (Variable Bonus) (Actual),Short-term Incentive (Target) as Percentage of Base Salary,Sales Incentive Eligibility,Sales Commission Eligibility (for Retail Positions only),Sales Incentive Annual Amount (Actual),Sales Commission Actual (for Retail Positions only),Sales Incentive (Target) as Percentage of Base,Sales Commission Target (for Retail Positions only),Other Short-term Incentive Eligibility,Other Short-term Incentive (Actual),Details of Other Short-term Incentive (Target),Other Short-term Incentive (Target) (Next 12 months estimate),Details of Other Short-term Incentive (Actual),Long-term Incentive Eligible,LTI Plan Award #1. Organization LTI Plan Identifier (identifiers provided on the LTI Plans section),Number of Granted Options/Shares/Performance Units or value of Granted Cash Award,LTI Plan Award #2. Organization LTI Plan Identifier (identifiers provided on the LTI Plans section),Number of granted Options/ Shares/ Performance Units or value of granted Cash Award,LTI Plan Award #3. Organization LTI Plan Identifier (identifiers provided on the LTI Plans section),Number of granted Options/ Shares/ Performance Units or value of granted Cash Award,Eligible for Children's Education Cost & Number of Children Covered,Annual Child Education Allowance (total amount received),Annual Maximum Education Allowance per Child,Gym/Club Membership (Annual),Housing Benefits (Annually),Type of Medical Plan Covered For Expatriate positions only,Family Size For Executive positions only,Leave Passage (Annually) For Executive positions only,Motor Vehicle Policy No. (as in Car - Benefit worksheet),Car / Car Allowance Provision,Annual Allowance in Lieu of a Company Car,Car Model/APAC: Motor Vehicle Manufacturer and Model,Other car details/ Motor Vehicle Engine Capacity (In c.c.),Motor Vehicle Purchase Price,Annual Lease Cost (incl. VAT),EXCLUDE EMPLOYEE
,,1434567891,,,,,,,,,,aaa,,,,,,,,,,,,,,,,,,,,,,,,,,,,,,,,,,,,,,,,,,,,,,,,,,,,,,,,,Y,,,,,,,,,,,,,,,,,,,,,,,,,,,,,,,,,,,,
,,1434567892,,,,,,,,,,aaa,,,,,,,,,,,,,,,,,,,,,,,,,,,,,,,,,,,,,,,,,,,,,,,,,,,,,,,,,Y,1,1,,,,,,,,,,,,,,,,,,,,,,,,,,,,,,,,,,
,,1434567893,,,,,,,,,,aaa,,,,,,,,,,,,,,,,,,,,,,,,,,,,,,,,,,,,,,,,,,,,,,,,,,,,,,,,,Y,1,,,,,,,,,,,,,,,,,,,,,,,,,,,,,,,,,,,
,,1434567894,,,,,,,,,,aaa,,,,,,,,,,,,,,,,,,,,,,,,,,,,,,,,,,,,,,,,,,,,,,,,,,,,,,,,,N,,,,,,,,,,,,,,,,,,,,,,,,,,,,,,,,,,,,
,,1434567895,,,,,,,,,,aaa,,,,,,,,,,,,,,,,,,,,,,,,,,,,,,,,,,,,,,,,,,,,,,,,,,,,,,,,,N,1,1,,,,,,,,,,,,,,,,,,,,,,,,,,,,,,,,,,
,,1434567896,,,,,,,,,,aaa,,,,,,,,,,,,,,,,,,,,,,,,,,,,,,,,,,,,,,,,,,,,,,,,,,,,,,,,,N,1,,,,,,,,,,,,,,,,,,,,,,,,,,,,,,,,,,,
,,1434567897,,,,,,,,,,aaa,,,,,,,,,,,,,,,,,,,,,,,,,,,,,,,,,,,,,,,,,,,,,,,,,,,,,,,,,N,0,,,,,,,,,,,,,,,,,,,,,,,,,,,,,,,,,,,
,,1434567898,,,,,,,,,,aaa,,,,,,,,,,,,,,,,,,,,,,,,,,,,,,,,,,,,,,,,,,,,,,,,,,,,,,,,,,,,,,,,,,,,,,,,,,,,,,,,,,,,,,,,,,,,,
,,1434567899,,,,,,,,,,aaa,,,,,,,,,,,,,,,,,,,,,,,,,,,,,,,,,,,,,,,,,,,,,,,,,,,,,,,,,,0,,,,,,,,,,,,,,,,,,,,,,,,,,,,,,,,,,,
,,14345678910,,,,,,,,,,aaa,,,,,,,,,,,,,,,,,,,,,,,,,,,,,,,,,,,,,,,,,,,,,,,,,,,,,,,,,,0,0,,,,,,,,,,,,,,,,,,,,,,,,,,,,,,,,,,
